PCBNEW-LibModule-V1  2022-03-17 13:30:48
# encoding utf-8
Units mm
$INDEX
SON80P245X245X90-7N-D
$EndINDEX
$MODULE SON80P245X245X90-7N-D
Po 0 0 0 15 62333808 00000000 ~~
Li SON80P245X245X90-7N-D
Cd SGP30-2.5K
Kw Hygrometer
Sc 0
At SMD
AR 
Op 0 0 0
T0 0 0 1.27 1.27 0 0.254 N V 21 N "HM**"
T1 0 0 1.27 1.27 0 0.254 N I 21 N "SON80P245X245X90-7N-D"
DS -1.85 -1.475 1.85 -1.475 0.05 24
DS 1.85 -1.475 1.85 1.475 0.05 24
DS 1.85 1.475 -1.85 1.475 0.05 24
DS -1.85 1.475 -1.85 -1.475 0.05 24
DS -1.225 -1.225 1.225 -1.225 0.1 24
DS 1.225 -1.225 1.225 1.225 0.1 24
DS 1.225 1.225 -1.225 1.225 0.1 24
DS -1.225 1.225 -1.225 -1.225 0.1 24
DS -1.225 -0.612 -0.612 -1.225 0.1 24
DC -1.6 -1.525 -1.475 -1.525 0.254 21
$PAD
Po -1.2 -0.8
Sh "1" R 0.45 0.8 0 0 900
At SMD N 00888000
Ne 0 ""
$EndPAD
$PAD
Po -1.2 0
Sh "2" R 0.45 0.8 0 0 900
At SMD N 00888000
Ne 0 ""
$EndPAD
$PAD
Po -1.2 0.8
Sh "3" R 0.45 0.8 0 0 900
At SMD N 00888000
Ne 0 ""
$EndPAD
$PAD
Po 1.2 0.8
Sh "4" R 0.45 0.8 0 0 900
At SMD N 00888000
Ne 0 ""
$EndPAD
$PAD
Po 1.2 0
Sh "5" R 0.45 0.8 0 0 900
At SMD N 00888000
Ne 0 ""
$EndPAD
$PAD
Po 1.2 -0.8
Sh "6" R 0.45 0.8 0 0 900
At SMD N 00888000
Ne 0 ""
$EndPAD
$PAD
Po 0 0
Sh "7" R 1.25 1.7 0 0 0
At SMD N 00888000
Ne 0 ""
$EndPAD
$EndMODULE SON80P245X245X90-7N-D
$EndLIBRARY
