(module "SON80P245X245X90-7N-D" (layer F.Cu)
  (descr "SGP30-2.5K")
  (tags "Hygrometer")
  (attr smd)
  (fp_text reference HM** (at 0 0) (layer F.SilkS)
    (effects (font (size 1.27 1.27) (thickness 0.254)))
  )
  (fp_text user %R (at 0 0) (layer F.Fab)
    (effects (font (size 1.27 1.27) (thickness 0.254)))
  )
  (fp_text value "SON80P245X245X90-7N-D" (at 0 0) (layer F.SilkS) hide
    (effects (font (size 1.27 1.27) (thickness 0.254)))
  )
  (fp_line (start -1.85 -1.475) (end 1.85 -1.475) (layer F.CrtYd) (width 0.05))
  (fp_line (start 1.85 -1.475) (end 1.85 1.475) (layer F.CrtYd) (width 0.05))
  (fp_line (start 1.85 1.475) (end -1.85 1.475) (layer F.CrtYd) (width 0.05))
  (fp_line (start -1.85 1.475) (end -1.85 -1.475) (layer F.CrtYd) (width 0.05))
  (fp_line (start -1.225 -1.225) (end 1.225 -1.225) (layer F.Fab) (width 0.1))
  (fp_line (start 1.225 -1.225) (end 1.225 1.225) (layer F.Fab) (width 0.1))
  (fp_line (start 1.225 1.225) (end -1.225 1.225) (layer F.Fab) (width 0.1))
  (fp_line (start -1.225 1.225) (end -1.225 -1.225) (layer F.Fab) (width 0.1))
  (fp_line (start -1.225 -0.612) (end -0.612 -1.225) (layer F.Fab) (width 0.1))
  (fp_circle (center -1.6 -1.525) (end -1.6 -1.4) (layer F.SilkS) (width 0.25))
  (pad 1 smd rect (at -1.2 -0.8 90) (size 0.45 0.8) (layers F.Cu F.Paste F.Mask))
  (pad 2 smd rect (at -1.2 0 90) (size 0.45 0.8) (layers F.Cu F.Paste F.Mask))
  (pad 3 smd rect (at -1.2 0.8 90) (size 0.45 0.8) (layers F.Cu F.Paste F.Mask))
  (pad 4 smd rect (at 1.2 0.8 90) (size 0.45 0.8) (layers F.Cu F.Paste F.Mask))
  (pad 5 smd rect (at 1.2 0 90) (size 0.45 0.8) (layers F.Cu F.Paste F.Mask))
  (pad 6 smd rect (at 1.2 -0.8 90) (size 0.45 0.8) (layers F.Cu F.Paste F.Mask))
  (pad 7 smd rect (at 0 0 0) (size 1.25 1.7) (layers F.Cu F.Paste F.Mask))
  (model SGP30-2.5K.stp
    (at (xyz 0 0 0))
    (scale (xyz 1 1 1))
    (rotate (xyz 0 0 0))
  )
)
