%TF.GenerationSoftware,KiCad,Pcbnew,(6.0.2)*%
%TF.CreationDate,2022-04-18T15:08:26+02:00*%
%TF.ProjectId,main,6d61696e-2e6b-4696-9361-645f70636258,rev?*%
%TF.SameCoordinates,Original*%
%TF.FileFunction,Legend,Top*%
%TF.FilePolarity,Positive*%
%FSLAX46Y46*%
G04 Gerber Fmt 4.6, Leading zero omitted, Abs format (unit mm)*
G04 Created by KiCad (PCBNEW (6.0.2)) date 2022-04-18 15:08:26*
%MOMM*%
%LPD*%
G01*
G04 APERTURE LIST*
%ADD10C,0.150000*%
%ADD11C,0.254000*%
%ADD12C,0.120000*%
%ADD13C,0.200000*%
%ADD14C,0.100000*%
%ADD15C,0.250000*%
G04 APERTURE END LIST*
D10*
X99344552Y-79170000D02*
X99249314Y-79122380D01*
X99106457Y-79122380D01*
X98963600Y-79170000D01*
X98868361Y-79265238D01*
X98820742Y-79360476D01*
X98773123Y-79550952D01*
X98773123Y-79693809D01*
X98820742Y-79884285D01*
X98868361Y-79979523D01*
X98963600Y-80074761D01*
X99106457Y-80122380D01*
X99201695Y-80122380D01*
X99344552Y-80074761D01*
X99392171Y-80027142D01*
X99392171Y-79693809D01*
X99201695Y-79693809D01*
X100392171Y-80122380D02*
X100058838Y-79646190D01*
X99820742Y-80122380D02*
X99820742Y-79122380D01*
X100201695Y-79122380D01*
X100296933Y-79170000D01*
X100344552Y-79217619D01*
X100392171Y-79312857D01*
X100392171Y-79455714D01*
X100344552Y-79550952D01*
X100296933Y-79598571D01*
X100201695Y-79646190D01*
X99820742Y-79646190D01*
X101011219Y-79122380D02*
X101201695Y-79122380D01*
X101296933Y-79170000D01*
X101392171Y-79265238D01*
X101439790Y-79455714D01*
X101439790Y-79789047D01*
X101392171Y-79979523D01*
X101296933Y-80074761D01*
X101201695Y-80122380D01*
X101011219Y-80122380D01*
X100915980Y-80074761D01*
X100820742Y-79979523D01*
X100773123Y-79789047D01*
X100773123Y-79455714D01*
X100820742Y-79265238D01*
X100915980Y-79170000D01*
X101011219Y-79122380D01*
X101868361Y-79122380D02*
X101868361Y-79931904D01*
X101915980Y-80027142D01*
X101963600Y-80074761D01*
X102058838Y-80122380D01*
X102249314Y-80122380D01*
X102344552Y-80074761D01*
X102392171Y-80027142D01*
X102439790Y-79931904D01*
X102439790Y-79122380D01*
X102915980Y-80122380D02*
X102915980Y-79122380D01*
X103296933Y-79122380D01*
X103392171Y-79170000D01*
X103439790Y-79217619D01*
X103487409Y-79312857D01*
X103487409Y-79455714D01*
X103439790Y-79550952D01*
X103392171Y-79598571D01*
X103296933Y-79646190D01*
X102915980Y-79646190D01*
X104582647Y-79122380D02*
X105201695Y-79122380D01*
X104868361Y-79503333D01*
X105011219Y-79503333D01*
X105106457Y-79550952D01*
X105154076Y-79598571D01*
X105201695Y-79693809D01*
X105201695Y-79931904D01*
X105154076Y-80027142D01*
X105106457Y-80074761D01*
X105011219Y-80122380D01*
X104725504Y-80122380D01*
X104630266Y-80074761D01*
X104582647Y-80027142D01*
X105820742Y-79122380D02*
X105915980Y-79122380D01*
X106011219Y-79170000D01*
X106058838Y-79217619D01*
X106106457Y-79312857D01*
X106154076Y-79503333D01*
X106154076Y-79741428D01*
X106106457Y-79931904D01*
X106058838Y-80027142D01*
X106011219Y-80074761D01*
X105915980Y-80122380D01*
X105820742Y-80122380D01*
X105725504Y-80074761D01*
X105677885Y-80027142D01*
X105630266Y-79931904D01*
X105582647Y-79741428D01*
X105582647Y-79503333D01*
X105630266Y-79312857D01*
X105677885Y-79217619D01*
X105725504Y-79170000D01*
X105820742Y-79122380D01*
X98320742Y-81684761D02*
X98463600Y-81732380D01*
X98701695Y-81732380D01*
X98796933Y-81684761D01*
X98844552Y-81637142D01*
X98892171Y-81541904D01*
X98892171Y-81446666D01*
X98844552Y-81351428D01*
X98796933Y-81303809D01*
X98701695Y-81256190D01*
X98511219Y-81208571D01*
X98415980Y-81160952D01*
X98368361Y-81113333D01*
X98320742Y-81018095D01*
X98320742Y-80922857D01*
X98368361Y-80827619D01*
X98415980Y-80780000D01*
X98511219Y-80732380D01*
X98749314Y-80732380D01*
X98892171Y-80780000D01*
X99177885Y-80732380D02*
X99749314Y-80732380D01*
X99463600Y-81732380D02*
X99463600Y-80732380D01*
X100082647Y-81732380D02*
X100082647Y-80732380D01*
X100415980Y-81446666D01*
X100749314Y-80732380D01*
X100749314Y-81732380D01*
X101130266Y-80732380D02*
X101749314Y-80732380D01*
X101415980Y-81113333D01*
X101558838Y-81113333D01*
X101654076Y-81160952D01*
X101701695Y-81208571D01*
X101749314Y-81303809D01*
X101749314Y-81541904D01*
X101701695Y-81637142D01*
X101654076Y-81684761D01*
X101558838Y-81732380D01*
X101273123Y-81732380D01*
X101177885Y-81684761D01*
X101130266Y-81637142D01*
X102130266Y-80827619D02*
X102177885Y-80780000D01*
X102273123Y-80732380D01*
X102511219Y-80732380D01*
X102606457Y-80780000D01*
X102654076Y-80827619D01*
X102701695Y-80922857D01*
X102701695Y-81018095D01*
X102654076Y-81160952D01*
X102082647Y-81732380D01*
X102701695Y-81732380D01*
X103130266Y-81351428D02*
X103892171Y-81351428D01*
X104368361Y-81732380D02*
X104368361Y-80732380D01*
X104368361Y-81208571D02*
X104939790Y-81208571D01*
X104939790Y-81732380D02*
X104939790Y-80732380D01*
X105368361Y-81446666D02*
X105844552Y-81446666D01*
X105273123Y-81732380D02*
X105606457Y-80732380D01*
X105939790Y-81732380D01*
X106130266Y-80732380D02*
X106701695Y-80732380D01*
X106415980Y-81732380D02*
X106415980Y-80732380D01*
X100796933Y-83342380D02*
X100463600Y-82866190D01*
X100225504Y-83342380D02*
X100225504Y-82342380D01*
X100606457Y-82342380D01*
X100701695Y-82390000D01*
X100749314Y-82437619D01*
X100796933Y-82532857D01*
X100796933Y-82675714D01*
X100749314Y-82770952D01*
X100701695Y-82818571D01*
X100606457Y-82866190D01*
X100225504Y-82866190D01*
X101225504Y-82818571D02*
X101558838Y-82818571D01*
X101701695Y-83342380D02*
X101225504Y-83342380D01*
X101225504Y-82342380D01*
X101701695Y-82342380D01*
X101987409Y-82342380D02*
X102320742Y-83342380D01*
X102654076Y-82342380D01*
X102987409Y-82961428D02*
X103749314Y-82961428D01*
X104749314Y-83342380D02*
X104177885Y-83342380D01*
X104463600Y-83342380D02*
X104463600Y-82342380D01*
X104368361Y-82485238D01*
X104273123Y-82580476D01*
X104177885Y-82628095D01*
%TO.C,VBUS1*%
X100560476Y-84364380D02*
X100893809Y-85364380D01*
X101227142Y-84364380D01*
X101893809Y-84840571D02*
X102036666Y-84888190D01*
X102084285Y-84935809D01*
X102131904Y-85031047D01*
X102131904Y-85173904D01*
X102084285Y-85269142D01*
X102036666Y-85316761D01*
X101941428Y-85364380D01*
X101560476Y-85364380D01*
X101560476Y-84364380D01*
X101893809Y-84364380D01*
X101989047Y-84412000D01*
X102036666Y-84459619D01*
X102084285Y-84554857D01*
X102084285Y-84650095D01*
X102036666Y-84745333D01*
X101989047Y-84792952D01*
X101893809Y-84840571D01*
X101560476Y-84840571D01*
X102560476Y-84364380D02*
X102560476Y-85173904D01*
X102608095Y-85269142D01*
X102655714Y-85316761D01*
X102750952Y-85364380D01*
X102941428Y-85364380D01*
X103036666Y-85316761D01*
X103084285Y-85269142D01*
X103131904Y-85173904D01*
X103131904Y-84364380D01*
X103560476Y-85316761D02*
X103703333Y-85364380D01*
X103941428Y-85364380D01*
X104036666Y-85316761D01*
X104084285Y-85269142D01*
X104131904Y-85173904D01*
X104131904Y-85078666D01*
X104084285Y-84983428D01*
X104036666Y-84935809D01*
X103941428Y-84888190D01*
X103750952Y-84840571D01*
X103655714Y-84792952D01*
X103608095Y-84745333D01*
X103560476Y-84650095D01*
X103560476Y-84554857D01*
X103608095Y-84459619D01*
X103655714Y-84412000D01*
X103750952Y-84364380D01*
X103989047Y-84364380D01*
X104131904Y-84412000D01*
X105084285Y-85364380D02*
X104512857Y-85364380D01*
X104798571Y-85364380D02*
X104798571Y-84364380D01*
X104703333Y-84507238D01*
X104608095Y-84602476D01*
X104512857Y-84650095D01*
%TO.C,SNRe1*%
X128595714Y-108354761D02*
X128738571Y-108402380D01*
X128976666Y-108402380D01*
X129071904Y-108354761D01*
X129119523Y-108307142D01*
X129167142Y-108211904D01*
X129167142Y-108116666D01*
X129119523Y-108021428D01*
X129071904Y-107973809D01*
X128976666Y-107926190D01*
X128786190Y-107878571D01*
X128690952Y-107830952D01*
X128643333Y-107783333D01*
X128595714Y-107688095D01*
X128595714Y-107592857D01*
X128643333Y-107497619D01*
X128690952Y-107450000D01*
X128786190Y-107402380D01*
X129024285Y-107402380D01*
X129167142Y-107450000D01*
X129595714Y-108402380D02*
X129595714Y-107402380D01*
X130167142Y-108402380D01*
X130167142Y-107402380D01*
X131214761Y-108402380D02*
X130881428Y-107926190D01*
X130643333Y-108402380D02*
X130643333Y-107402380D01*
X131024285Y-107402380D01*
X131119523Y-107450000D01*
X131167142Y-107497619D01*
X131214761Y-107592857D01*
X131214761Y-107735714D01*
X131167142Y-107830952D01*
X131119523Y-107878571D01*
X131024285Y-107926190D01*
X130643333Y-107926190D01*
X132024285Y-108354761D02*
X131929047Y-108402380D01*
X131738571Y-108402380D01*
X131643333Y-108354761D01*
X131595714Y-108259523D01*
X131595714Y-107878571D01*
X131643333Y-107783333D01*
X131738571Y-107735714D01*
X131929047Y-107735714D01*
X132024285Y-107783333D01*
X132071904Y-107878571D01*
X132071904Y-107973809D01*
X131595714Y-108069047D01*
X133024285Y-108402380D02*
X132452857Y-108402380D01*
X132738571Y-108402380D02*
X132738571Y-107402380D01*
X132643333Y-107545238D01*
X132548095Y-107640476D01*
X132452857Y-107688095D01*
%TO.C,Cout1*%
X180252857Y-103989142D02*
X180205238Y-104036761D01*
X180062380Y-104084380D01*
X179967142Y-104084380D01*
X179824285Y-104036761D01*
X179729047Y-103941523D01*
X179681428Y-103846285D01*
X179633809Y-103655809D01*
X179633809Y-103512952D01*
X179681428Y-103322476D01*
X179729047Y-103227238D01*
X179824285Y-103132000D01*
X179967142Y-103084380D01*
X180062380Y-103084380D01*
X180205238Y-103132000D01*
X180252857Y-103179619D01*
X180824285Y-104084380D02*
X180729047Y-104036761D01*
X180681428Y-103989142D01*
X180633809Y-103893904D01*
X180633809Y-103608190D01*
X180681428Y-103512952D01*
X180729047Y-103465333D01*
X180824285Y-103417714D01*
X180967142Y-103417714D01*
X181062380Y-103465333D01*
X181110000Y-103512952D01*
X181157619Y-103608190D01*
X181157619Y-103893904D01*
X181110000Y-103989142D01*
X181062380Y-104036761D01*
X180967142Y-104084380D01*
X180824285Y-104084380D01*
X182014761Y-103417714D02*
X182014761Y-104084380D01*
X181586190Y-103417714D02*
X181586190Y-103941523D01*
X181633809Y-104036761D01*
X181729047Y-104084380D01*
X181871904Y-104084380D01*
X181967142Y-104036761D01*
X182014761Y-103989142D01*
X182348095Y-103417714D02*
X182729047Y-103417714D01*
X182490952Y-103084380D02*
X182490952Y-103941523D01*
X182538571Y-104036761D01*
X182633809Y-104084380D01*
X182729047Y-104084380D01*
X183586190Y-104084380D02*
X183014761Y-104084380D01*
X183300476Y-104084380D02*
X183300476Y-103084380D01*
X183205238Y-103227238D01*
X183110000Y-103322476D01*
X183014761Y-103370095D01*
%TO.C,3.7V1*%
X180165619Y-95210380D02*
X180784666Y-95210380D01*
X180451333Y-95591333D01*
X180594190Y-95591333D01*
X180689428Y-95638952D01*
X180737047Y-95686571D01*
X180784666Y-95781809D01*
X180784666Y-96019904D01*
X180737047Y-96115142D01*
X180689428Y-96162761D01*
X180594190Y-96210380D01*
X180308476Y-96210380D01*
X180213238Y-96162761D01*
X180165619Y-96115142D01*
X181213238Y-96115142D02*
X181260857Y-96162761D01*
X181213238Y-96210380D01*
X181165619Y-96162761D01*
X181213238Y-96115142D01*
X181213238Y-96210380D01*
X181594190Y-95210380D02*
X182260857Y-95210380D01*
X181832285Y-96210380D01*
X182498952Y-95210380D02*
X182832285Y-96210380D01*
X183165619Y-95210380D01*
X184022761Y-96210380D02*
X183451333Y-96210380D01*
X183737047Y-96210380D02*
X183737047Y-95210380D01*
X183641809Y-95353238D01*
X183546571Y-95448476D01*
X183451333Y-95496095D01*
%TO.C,3.3V1*%
X147907619Y-102144380D02*
X148526666Y-102144380D01*
X148193333Y-102525333D01*
X148336190Y-102525333D01*
X148431428Y-102572952D01*
X148479047Y-102620571D01*
X148526666Y-102715809D01*
X148526666Y-102953904D01*
X148479047Y-103049142D01*
X148431428Y-103096761D01*
X148336190Y-103144380D01*
X148050476Y-103144380D01*
X147955238Y-103096761D01*
X147907619Y-103049142D01*
X148955238Y-103049142D02*
X149002857Y-103096761D01*
X148955238Y-103144380D01*
X148907619Y-103096761D01*
X148955238Y-103049142D01*
X148955238Y-103144380D01*
X149336190Y-102144380D02*
X149955238Y-102144380D01*
X149621904Y-102525333D01*
X149764761Y-102525333D01*
X149860000Y-102572952D01*
X149907619Y-102620571D01*
X149955238Y-102715809D01*
X149955238Y-102953904D01*
X149907619Y-103049142D01*
X149860000Y-103096761D01*
X149764761Y-103144380D01*
X149479047Y-103144380D01*
X149383809Y-103096761D01*
X149336190Y-103049142D01*
X150240952Y-102144380D02*
X150574285Y-103144380D01*
X150907619Y-102144380D01*
X151764761Y-103144380D02*
X151193333Y-103144380D01*
X151479047Y-103144380D02*
X151479047Y-102144380D01*
X151383809Y-102287238D01*
X151288571Y-102382476D01*
X151193333Y-102430095D01*
%TO.C,RST1*%
X110355190Y-106446380D02*
X110021857Y-105970190D01*
X109783761Y-106446380D02*
X109783761Y-105446380D01*
X110164714Y-105446380D01*
X110259952Y-105494000D01*
X110307571Y-105541619D01*
X110355190Y-105636857D01*
X110355190Y-105779714D01*
X110307571Y-105874952D01*
X110259952Y-105922571D01*
X110164714Y-105970190D01*
X109783761Y-105970190D01*
X110736142Y-106398761D02*
X110879000Y-106446380D01*
X111117095Y-106446380D01*
X111212333Y-106398761D01*
X111259952Y-106351142D01*
X111307571Y-106255904D01*
X111307571Y-106160666D01*
X111259952Y-106065428D01*
X111212333Y-106017809D01*
X111117095Y-105970190D01*
X110926619Y-105922571D01*
X110831380Y-105874952D01*
X110783761Y-105827333D01*
X110736142Y-105732095D01*
X110736142Y-105636857D01*
X110783761Y-105541619D01*
X110831380Y-105494000D01*
X110926619Y-105446380D01*
X111164714Y-105446380D01*
X111307571Y-105494000D01*
X111593285Y-105446380D02*
X112164714Y-105446380D01*
X111879000Y-106446380D02*
X111879000Y-105446380D01*
X113021857Y-106446380D02*
X112450428Y-106446380D01*
X112736142Y-106446380D02*
X112736142Y-105446380D01*
X112640904Y-105589238D01*
X112545666Y-105684476D01*
X112450428Y-105732095D01*
%TO.C,ALT1*%
X131215000Y-109970666D02*
X131691190Y-109970666D01*
X131119761Y-110256380D02*
X131453095Y-109256380D01*
X131786428Y-110256380D01*
X132595952Y-110256380D02*
X132119761Y-110256380D01*
X132119761Y-109256380D01*
X132786428Y-109256380D02*
X133357857Y-109256380D01*
X133072142Y-110256380D02*
X133072142Y-109256380D01*
X134215000Y-110256380D02*
X133643571Y-110256380D01*
X133929285Y-110256380D02*
X133929285Y-109256380D01*
X133834047Y-109399238D01*
X133738809Y-109494476D01*
X133643571Y-109542095D01*
%TO.C,!SUS1*%
X113871619Y-106351142D02*
X113919238Y-106398761D01*
X113871619Y-106446380D01*
X113824000Y-106398761D01*
X113871619Y-106351142D01*
X113871619Y-106446380D01*
X113871619Y-106065428D02*
X113824000Y-105494000D01*
X113871619Y-105446380D01*
X113919238Y-105494000D01*
X113871619Y-106065428D01*
X113871619Y-105446380D01*
X114300190Y-106398761D02*
X114443047Y-106446380D01*
X114681142Y-106446380D01*
X114776380Y-106398761D01*
X114824000Y-106351142D01*
X114871619Y-106255904D01*
X114871619Y-106160666D01*
X114824000Y-106065428D01*
X114776380Y-106017809D01*
X114681142Y-105970190D01*
X114490666Y-105922571D01*
X114395428Y-105874952D01*
X114347809Y-105827333D01*
X114300190Y-105732095D01*
X114300190Y-105636857D01*
X114347809Y-105541619D01*
X114395428Y-105494000D01*
X114490666Y-105446380D01*
X114728761Y-105446380D01*
X114871619Y-105494000D01*
X115300190Y-105446380D02*
X115300190Y-106255904D01*
X115347809Y-106351142D01*
X115395428Y-106398761D01*
X115490666Y-106446380D01*
X115681142Y-106446380D01*
X115776380Y-106398761D01*
X115824000Y-106351142D01*
X115871619Y-106255904D01*
X115871619Y-105446380D01*
X116300190Y-106398761D02*
X116443047Y-106446380D01*
X116681142Y-106446380D01*
X116776380Y-106398761D01*
X116824000Y-106351142D01*
X116871619Y-106255904D01*
X116871619Y-106160666D01*
X116824000Y-106065428D01*
X116776380Y-106017809D01*
X116681142Y-105970190D01*
X116490666Y-105922571D01*
X116395428Y-105874952D01*
X116347809Y-105827333D01*
X116300190Y-105732095D01*
X116300190Y-105636857D01*
X116347809Y-105541619D01*
X116395428Y-105494000D01*
X116490666Y-105446380D01*
X116728761Y-105446380D01*
X116871619Y-105494000D01*
X117824000Y-106446380D02*
X117252571Y-106446380D01*
X117538285Y-106446380D02*
X117538285Y-105446380D01*
X117443047Y-105589238D01*
X117347809Y-105684476D01*
X117252571Y-105732095D01*
D11*
%TO.C,CR4*%
X106722333Y-106752571D02*
X106661857Y-106813047D01*
X106480428Y-106873523D01*
X106359476Y-106873523D01*
X106178047Y-106813047D01*
X106057095Y-106692095D01*
X105996619Y-106571142D01*
X105936142Y-106329238D01*
X105936142Y-106147809D01*
X105996619Y-105905904D01*
X106057095Y-105784952D01*
X106178047Y-105664000D01*
X106359476Y-105603523D01*
X106480428Y-105603523D01*
X106661857Y-105664000D01*
X106722333Y-105724476D01*
X107992333Y-106873523D02*
X107569000Y-106268761D01*
X107266619Y-106873523D02*
X107266619Y-105603523D01*
X107750428Y-105603523D01*
X107871380Y-105664000D01*
X107931857Y-105724476D01*
X107992333Y-105845428D01*
X107992333Y-106026857D01*
X107931857Y-106147809D01*
X107871380Y-106208285D01*
X107750428Y-106268761D01*
X107266619Y-106268761D01*
X109080904Y-106026857D02*
X109080904Y-106873523D01*
X108778523Y-105543047D02*
X108476142Y-106450190D01*
X109262333Y-106450190D01*
D10*
%TO.C,R7*%
X164425333Y-98496380D02*
X164092000Y-98020190D01*
X163853904Y-98496380D02*
X163853904Y-97496380D01*
X164234857Y-97496380D01*
X164330095Y-97544000D01*
X164377714Y-97591619D01*
X164425333Y-97686857D01*
X164425333Y-97829714D01*
X164377714Y-97924952D01*
X164330095Y-97972571D01*
X164234857Y-98020190D01*
X163853904Y-98020190D01*
X164758666Y-97496380D02*
X165425333Y-97496380D01*
X164996761Y-98496380D01*
%TO.C,R6*%
X154773333Y-82334380D02*
X154440000Y-81858190D01*
X154201904Y-82334380D02*
X154201904Y-81334380D01*
X154582857Y-81334380D01*
X154678095Y-81382000D01*
X154725714Y-81429619D01*
X154773333Y-81524857D01*
X154773333Y-81667714D01*
X154725714Y-81762952D01*
X154678095Y-81810571D01*
X154582857Y-81858190D01*
X154201904Y-81858190D01*
X155630476Y-81334380D02*
X155440000Y-81334380D01*
X155344761Y-81382000D01*
X155297142Y-81429619D01*
X155201904Y-81572476D01*
X155154285Y-81762952D01*
X155154285Y-82143904D01*
X155201904Y-82239142D01*
X155249523Y-82286761D01*
X155344761Y-82334380D01*
X155535238Y-82334380D01*
X155630476Y-82286761D01*
X155678095Y-82239142D01*
X155725714Y-82143904D01*
X155725714Y-81905809D01*
X155678095Y-81810571D01*
X155630476Y-81762952D01*
X155535238Y-81715333D01*
X155344761Y-81715333D01*
X155249523Y-81762952D01*
X155201904Y-81810571D01*
X155154285Y-81905809D01*
%TO.C,R19*%
X123817142Y-114752380D02*
X123483809Y-114276190D01*
X123245714Y-114752380D02*
X123245714Y-113752380D01*
X123626666Y-113752380D01*
X123721904Y-113800000D01*
X123769523Y-113847619D01*
X123817142Y-113942857D01*
X123817142Y-114085714D01*
X123769523Y-114180952D01*
X123721904Y-114228571D01*
X123626666Y-114276190D01*
X123245714Y-114276190D01*
X124769523Y-114752380D02*
X124198095Y-114752380D01*
X124483809Y-114752380D02*
X124483809Y-113752380D01*
X124388571Y-113895238D01*
X124293333Y-113990476D01*
X124198095Y-114038095D01*
X125245714Y-114752380D02*
X125436190Y-114752380D01*
X125531428Y-114704761D01*
X125579047Y-114657142D01*
X125674285Y-114514285D01*
X125721904Y-114323809D01*
X125721904Y-113942857D01*
X125674285Y-113847619D01*
X125626666Y-113800000D01*
X125531428Y-113752380D01*
X125340952Y-113752380D01*
X125245714Y-113800000D01*
X125198095Y-113847619D01*
X125150476Y-113942857D01*
X125150476Y-114180952D01*
X125198095Y-114276190D01*
X125245714Y-114323809D01*
X125340952Y-114371428D01*
X125531428Y-114371428D01*
X125626666Y-114323809D01*
X125674285Y-114276190D01*
X125721904Y-114180952D01*
D11*
%TO.C,IC3*%
X160304238Y-113350523D02*
X160304238Y-112080523D01*
X161634714Y-113229571D02*
X161574238Y-113290047D01*
X161392809Y-113350523D01*
X161271857Y-113350523D01*
X161090428Y-113290047D01*
X160969476Y-113169095D01*
X160909000Y-113048142D01*
X160848523Y-112806238D01*
X160848523Y-112624809D01*
X160909000Y-112382904D01*
X160969476Y-112261952D01*
X161090428Y-112141000D01*
X161271857Y-112080523D01*
X161392809Y-112080523D01*
X161574238Y-112141000D01*
X161634714Y-112201476D01*
X162058047Y-112080523D02*
X162844238Y-112080523D01*
X162420904Y-112564333D01*
X162602333Y-112564333D01*
X162723285Y-112624809D01*
X162783761Y-112685285D01*
X162844238Y-112806238D01*
X162844238Y-113108619D01*
X162783761Y-113229571D01*
X162723285Y-113290047D01*
X162602333Y-113350523D01*
X162239476Y-113350523D01*
X162118523Y-113290047D01*
X162058047Y-113229571D01*
D10*
%TO.C,C8*%
X124293333Y-95535142D02*
X124245714Y-95582761D01*
X124102857Y-95630380D01*
X124007619Y-95630380D01*
X123864761Y-95582761D01*
X123769523Y-95487523D01*
X123721904Y-95392285D01*
X123674285Y-95201809D01*
X123674285Y-95058952D01*
X123721904Y-94868476D01*
X123769523Y-94773238D01*
X123864761Y-94678000D01*
X124007619Y-94630380D01*
X124102857Y-94630380D01*
X124245714Y-94678000D01*
X124293333Y-94725619D01*
X124864761Y-95058952D02*
X124769523Y-95011333D01*
X124721904Y-94963714D01*
X124674285Y-94868476D01*
X124674285Y-94820857D01*
X124721904Y-94725619D01*
X124769523Y-94678000D01*
X124864761Y-94630380D01*
X125055238Y-94630380D01*
X125150476Y-94678000D01*
X125198095Y-94725619D01*
X125245714Y-94820857D01*
X125245714Y-94868476D01*
X125198095Y-94963714D01*
X125150476Y-95011333D01*
X125055238Y-95058952D01*
X124864761Y-95058952D01*
X124769523Y-95106571D01*
X124721904Y-95154190D01*
X124674285Y-95249428D01*
X124674285Y-95439904D01*
X124721904Y-95535142D01*
X124769523Y-95582761D01*
X124864761Y-95630380D01*
X125055238Y-95630380D01*
X125150476Y-95582761D01*
X125198095Y-95535142D01*
X125245714Y-95439904D01*
X125245714Y-95249428D01*
X125198095Y-95154190D01*
X125150476Y-95106571D01*
X125055238Y-95058952D01*
%TO.C,C2*%
X160869333Y-90781142D02*
X160821714Y-90828761D01*
X160678857Y-90876380D01*
X160583619Y-90876380D01*
X160440761Y-90828761D01*
X160345523Y-90733523D01*
X160297904Y-90638285D01*
X160250285Y-90447809D01*
X160250285Y-90304952D01*
X160297904Y-90114476D01*
X160345523Y-90019238D01*
X160440761Y-89924000D01*
X160583619Y-89876380D01*
X160678857Y-89876380D01*
X160821714Y-89924000D01*
X160869333Y-89971619D01*
X161250285Y-89971619D02*
X161297904Y-89924000D01*
X161393142Y-89876380D01*
X161631238Y-89876380D01*
X161726476Y-89924000D01*
X161774095Y-89971619D01*
X161821714Y-90066857D01*
X161821714Y-90162095D01*
X161774095Y-90304952D01*
X161202666Y-90876380D01*
X161821714Y-90876380D01*
%TO.C,U1*%
X136398095Y-84972380D02*
X136398095Y-85781904D01*
X136445714Y-85877142D01*
X136493333Y-85924761D01*
X136588571Y-85972380D01*
X136779047Y-85972380D01*
X136874285Y-85924761D01*
X136921904Y-85877142D01*
X136969523Y-85781904D01*
X136969523Y-84972380D01*
X137969523Y-85972380D02*
X137398095Y-85972380D01*
X137683809Y-85972380D02*
X137683809Y-84972380D01*
X137588571Y-85115238D01*
X137493333Y-85210476D01*
X137398095Y-85258095D01*
%TO.C,R20*%
X125087142Y-91732380D02*
X124753809Y-91256190D01*
X124515714Y-91732380D02*
X124515714Y-90732380D01*
X124896666Y-90732380D01*
X124991904Y-90780000D01*
X125039523Y-90827619D01*
X125087142Y-90922857D01*
X125087142Y-91065714D01*
X125039523Y-91160952D01*
X124991904Y-91208571D01*
X124896666Y-91256190D01*
X124515714Y-91256190D01*
X125468095Y-90827619D02*
X125515714Y-90780000D01*
X125610952Y-90732380D01*
X125849047Y-90732380D01*
X125944285Y-90780000D01*
X125991904Y-90827619D01*
X126039523Y-90922857D01*
X126039523Y-91018095D01*
X125991904Y-91160952D01*
X125420476Y-91732380D01*
X126039523Y-91732380D01*
X126658571Y-90732380D02*
X126753809Y-90732380D01*
X126849047Y-90780000D01*
X126896666Y-90827619D01*
X126944285Y-90922857D01*
X126991904Y-91113333D01*
X126991904Y-91351428D01*
X126944285Y-91541904D01*
X126896666Y-91637142D01*
X126849047Y-91684761D01*
X126753809Y-91732380D01*
X126658571Y-91732380D01*
X126563333Y-91684761D01*
X126515714Y-91637142D01*
X126468095Y-91541904D01*
X126420476Y-91351428D01*
X126420476Y-91113333D01*
X126468095Y-90922857D01*
X126515714Y-90827619D01*
X126563333Y-90780000D01*
X126658571Y-90732380D01*
%TO.C,C1*%
X111609142Y-102782666D02*
X111656761Y-102830285D01*
X111704380Y-102973142D01*
X111704380Y-103068380D01*
X111656761Y-103211238D01*
X111561523Y-103306476D01*
X111466285Y-103354095D01*
X111275809Y-103401714D01*
X111132952Y-103401714D01*
X110942476Y-103354095D01*
X110847238Y-103306476D01*
X110752000Y-103211238D01*
X110704380Y-103068380D01*
X110704380Y-102973142D01*
X110752000Y-102830285D01*
X110799619Y-102782666D01*
X111704380Y-101830285D02*
X111704380Y-102401714D01*
X111704380Y-102116000D02*
X110704380Y-102116000D01*
X110847238Y-102211238D01*
X110942476Y-102306476D01*
X110990095Y-102401714D01*
%TO.C,R10*%
X161917142Y-78684380D02*
X161583809Y-78208190D01*
X161345714Y-78684380D02*
X161345714Y-77684380D01*
X161726666Y-77684380D01*
X161821904Y-77732000D01*
X161869523Y-77779619D01*
X161917142Y-77874857D01*
X161917142Y-78017714D01*
X161869523Y-78112952D01*
X161821904Y-78160571D01*
X161726666Y-78208190D01*
X161345714Y-78208190D01*
X162869523Y-78684380D02*
X162298095Y-78684380D01*
X162583809Y-78684380D02*
X162583809Y-77684380D01*
X162488571Y-77827238D01*
X162393333Y-77922476D01*
X162298095Y-77970095D01*
X163488571Y-77684380D02*
X163583809Y-77684380D01*
X163679047Y-77732000D01*
X163726666Y-77779619D01*
X163774285Y-77874857D01*
X163821904Y-78065333D01*
X163821904Y-78303428D01*
X163774285Y-78493904D01*
X163726666Y-78589142D01*
X163679047Y-78636761D01*
X163583809Y-78684380D01*
X163488571Y-78684380D01*
X163393333Y-78636761D01*
X163345714Y-78589142D01*
X163298095Y-78493904D01*
X163250476Y-78303428D01*
X163250476Y-78065333D01*
X163298095Y-77874857D01*
X163345714Y-77779619D01*
X163393333Y-77732000D01*
X163488571Y-77684380D01*
D11*
%TO.C,CR1*%
X168825333Y-91893571D02*
X168764857Y-91954047D01*
X168583428Y-92014523D01*
X168462476Y-92014523D01*
X168281047Y-91954047D01*
X168160095Y-91833095D01*
X168099619Y-91712142D01*
X168039142Y-91470238D01*
X168039142Y-91288809D01*
X168099619Y-91046904D01*
X168160095Y-90925952D01*
X168281047Y-90805000D01*
X168462476Y-90744523D01*
X168583428Y-90744523D01*
X168764857Y-90805000D01*
X168825333Y-90865476D01*
X170095333Y-92014523D02*
X169672000Y-91409761D01*
X169369619Y-92014523D02*
X169369619Y-90744523D01*
X169853428Y-90744523D01*
X169974380Y-90805000D01*
X170034857Y-90865476D01*
X170095333Y-90986428D01*
X170095333Y-91167857D01*
X170034857Y-91288809D01*
X169974380Y-91349285D01*
X169853428Y-91409761D01*
X169369619Y-91409761D01*
X171304857Y-92014523D02*
X170579142Y-92014523D01*
X170942000Y-92014523D02*
X170942000Y-90744523D01*
X170821047Y-90925952D01*
X170700095Y-91046904D01*
X170579142Y-91107380D01*
D10*
%TO.C,R9*%
X164425333Y-100528380D02*
X164092000Y-100052190D01*
X163853904Y-100528380D02*
X163853904Y-99528380D01*
X164234857Y-99528380D01*
X164330095Y-99576000D01*
X164377714Y-99623619D01*
X164425333Y-99718857D01*
X164425333Y-99861714D01*
X164377714Y-99956952D01*
X164330095Y-100004571D01*
X164234857Y-100052190D01*
X163853904Y-100052190D01*
X164901523Y-100528380D02*
X165092000Y-100528380D01*
X165187238Y-100480761D01*
X165234857Y-100433142D01*
X165330095Y-100290285D01*
X165377714Y-100099809D01*
X165377714Y-99718857D01*
X165330095Y-99623619D01*
X165282476Y-99576000D01*
X165187238Y-99528380D01*
X164996761Y-99528380D01*
X164901523Y-99576000D01*
X164853904Y-99623619D01*
X164806285Y-99718857D01*
X164806285Y-99956952D01*
X164853904Y-100052190D01*
X164901523Y-100099809D01*
X164996761Y-100147428D01*
X165187238Y-100147428D01*
X165282476Y-100099809D01*
X165330095Y-100052190D01*
X165377714Y-99956952D01*
D11*
%TO.C,IC6*%
X142524238Y-108016523D02*
X142524238Y-106746523D01*
X143854714Y-107895571D02*
X143794238Y-107956047D01*
X143612809Y-108016523D01*
X143491857Y-108016523D01*
X143310428Y-107956047D01*
X143189476Y-107835095D01*
X143129000Y-107714142D01*
X143068523Y-107472238D01*
X143068523Y-107290809D01*
X143129000Y-107048904D01*
X143189476Y-106927952D01*
X143310428Y-106807000D01*
X143491857Y-106746523D01*
X143612809Y-106746523D01*
X143794238Y-106807000D01*
X143854714Y-106867476D01*
X144943285Y-106746523D02*
X144701380Y-106746523D01*
X144580428Y-106807000D01*
X144519952Y-106867476D01*
X144399000Y-107048904D01*
X144338523Y-107290809D01*
X144338523Y-107774619D01*
X144399000Y-107895571D01*
X144459476Y-107956047D01*
X144580428Y-108016523D01*
X144822333Y-108016523D01*
X144943285Y-107956047D01*
X145003761Y-107895571D01*
X145064238Y-107774619D01*
X145064238Y-107472238D01*
X145003761Y-107351285D01*
X144943285Y-107290809D01*
X144822333Y-107230333D01*
X144580428Y-107230333D01*
X144459476Y-107290809D01*
X144399000Y-107351285D01*
X144338523Y-107472238D01*
D10*
%TO.C,R1*%
X163012380Y-108878666D02*
X162536190Y-109212000D01*
X163012380Y-109450095D02*
X162012380Y-109450095D01*
X162012380Y-109069142D01*
X162060000Y-108973904D01*
X162107619Y-108926285D01*
X162202857Y-108878666D01*
X162345714Y-108878666D01*
X162440952Y-108926285D01*
X162488571Y-108973904D01*
X162536190Y-109069142D01*
X162536190Y-109450095D01*
X163012380Y-107926285D02*
X163012380Y-108497714D01*
X163012380Y-108212000D02*
X162012380Y-108212000D01*
X162155238Y-108307238D01*
X162250476Y-108402476D01*
X162298095Y-108497714D01*
D11*
%TO.C,CR6*%
X102658333Y-90623571D02*
X102597857Y-90684047D01*
X102416428Y-90744523D01*
X102295476Y-90744523D01*
X102114047Y-90684047D01*
X101993095Y-90563095D01*
X101932619Y-90442142D01*
X101872142Y-90200238D01*
X101872142Y-90018809D01*
X101932619Y-89776904D01*
X101993095Y-89655952D01*
X102114047Y-89535000D01*
X102295476Y-89474523D01*
X102416428Y-89474523D01*
X102597857Y-89535000D01*
X102658333Y-89595476D01*
X103928333Y-90744523D02*
X103505000Y-90139761D01*
X103202619Y-90744523D02*
X103202619Y-89474523D01*
X103686428Y-89474523D01*
X103807380Y-89535000D01*
X103867857Y-89595476D01*
X103928333Y-89716428D01*
X103928333Y-89897857D01*
X103867857Y-90018809D01*
X103807380Y-90079285D01*
X103686428Y-90139761D01*
X103202619Y-90139761D01*
X105016904Y-89474523D02*
X104775000Y-89474523D01*
X104654047Y-89535000D01*
X104593571Y-89595476D01*
X104472619Y-89776904D01*
X104412142Y-90018809D01*
X104412142Y-90502619D01*
X104472619Y-90623571D01*
X104533095Y-90684047D01*
X104654047Y-90744523D01*
X104895952Y-90744523D01*
X105016904Y-90684047D01*
X105077380Y-90623571D01*
X105137857Y-90502619D01*
X105137857Y-90200238D01*
X105077380Y-90079285D01*
X105016904Y-90018809D01*
X104895952Y-89958333D01*
X104654047Y-89958333D01*
X104533095Y-90018809D01*
X104472619Y-90079285D01*
X104412142Y-90200238D01*
%TO.C,CR5*%
X107484333Y-100402571D02*
X107423857Y-100463047D01*
X107242428Y-100523523D01*
X107121476Y-100523523D01*
X106940047Y-100463047D01*
X106819095Y-100342095D01*
X106758619Y-100221142D01*
X106698142Y-99979238D01*
X106698142Y-99797809D01*
X106758619Y-99555904D01*
X106819095Y-99434952D01*
X106940047Y-99314000D01*
X107121476Y-99253523D01*
X107242428Y-99253523D01*
X107423857Y-99314000D01*
X107484333Y-99374476D01*
X108754333Y-100523523D02*
X108331000Y-99918761D01*
X108028619Y-100523523D02*
X108028619Y-99253523D01*
X108512428Y-99253523D01*
X108633380Y-99314000D01*
X108693857Y-99374476D01*
X108754333Y-99495428D01*
X108754333Y-99676857D01*
X108693857Y-99797809D01*
X108633380Y-99858285D01*
X108512428Y-99918761D01*
X108028619Y-99918761D01*
X109903380Y-99253523D02*
X109298619Y-99253523D01*
X109238142Y-99858285D01*
X109298619Y-99797809D01*
X109419571Y-99737333D01*
X109721952Y-99737333D01*
X109842904Y-99797809D01*
X109903380Y-99858285D01*
X109963857Y-99979238D01*
X109963857Y-100281619D01*
X109903380Y-100402571D01*
X109842904Y-100463047D01*
X109721952Y-100523523D01*
X109419571Y-100523523D01*
X109298619Y-100463047D01*
X109238142Y-100402571D01*
D10*
%TO.C,J2*%
X182562380Y-76533333D02*
X183276666Y-76533333D01*
X183419523Y-76580952D01*
X183514761Y-76676190D01*
X183562380Y-76819047D01*
X183562380Y-76914285D01*
X182657619Y-76104761D02*
X182610000Y-76057142D01*
X182562380Y-75961904D01*
X182562380Y-75723809D01*
X182610000Y-75628571D01*
X182657619Y-75580952D01*
X182752857Y-75533333D01*
X182848095Y-75533333D01*
X182990952Y-75580952D01*
X183562380Y-76152380D01*
X183562380Y-75533333D01*
%TO.C,C6*%
X150201333Y-86209142D02*
X150153714Y-86256761D01*
X150010857Y-86304380D01*
X149915619Y-86304380D01*
X149772761Y-86256761D01*
X149677523Y-86161523D01*
X149629904Y-86066285D01*
X149582285Y-85875809D01*
X149582285Y-85732952D01*
X149629904Y-85542476D01*
X149677523Y-85447238D01*
X149772761Y-85352000D01*
X149915619Y-85304380D01*
X150010857Y-85304380D01*
X150153714Y-85352000D01*
X150201333Y-85399619D01*
X151058476Y-85304380D02*
X150868000Y-85304380D01*
X150772761Y-85352000D01*
X150725142Y-85399619D01*
X150629904Y-85542476D01*
X150582285Y-85732952D01*
X150582285Y-86113904D01*
X150629904Y-86209142D01*
X150677523Y-86256761D01*
X150772761Y-86304380D01*
X150963238Y-86304380D01*
X151058476Y-86256761D01*
X151106095Y-86209142D01*
X151153714Y-86113904D01*
X151153714Y-85875809D01*
X151106095Y-85780571D01*
X151058476Y-85732952D01*
X150963238Y-85685333D01*
X150772761Y-85685333D01*
X150677523Y-85732952D01*
X150629904Y-85780571D01*
X150582285Y-85875809D01*
%TO.C,C5*%
X184237333Y-98401142D02*
X184189714Y-98448761D01*
X184046857Y-98496380D01*
X183951619Y-98496380D01*
X183808761Y-98448761D01*
X183713523Y-98353523D01*
X183665904Y-98258285D01*
X183618285Y-98067809D01*
X183618285Y-97924952D01*
X183665904Y-97734476D01*
X183713523Y-97639238D01*
X183808761Y-97544000D01*
X183951619Y-97496380D01*
X184046857Y-97496380D01*
X184189714Y-97544000D01*
X184237333Y-97591619D01*
X185142095Y-97496380D02*
X184665904Y-97496380D01*
X184618285Y-97972571D01*
X184665904Y-97924952D01*
X184761142Y-97877333D01*
X184999238Y-97877333D01*
X185094476Y-97924952D01*
X185142095Y-97972571D01*
X185189714Y-98067809D01*
X185189714Y-98305904D01*
X185142095Y-98401142D01*
X185094476Y-98448761D01*
X184999238Y-98496380D01*
X184761142Y-98496380D01*
X184665904Y-98448761D01*
X184618285Y-98401142D01*
%TO.C,D2*%
X166393904Y-84366380D02*
X166393904Y-83366380D01*
X166632000Y-83366380D01*
X166774857Y-83414000D01*
X166870095Y-83509238D01*
X166917714Y-83604476D01*
X166965333Y-83794952D01*
X166965333Y-83937809D01*
X166917714Y-84128285D01*
X166870095Y-84223523D01*
X166774857Y-84318761D01*
X166632000Y-84366380D01*
X166393904Y-84366380D01*
X167346285Y-83461619D02*
X167393904Y-83414000D01*
X167489142Y-83366380D01*
X167727238Y-83366380D01*
X167822476Y-83414000D01*
X167870095Y-83461619D01*
X167917714Y-83556857D01*
X167917714Y-83652095D01*
X167870095Y-83794952D01*
X167298666Y-84366380D01*
X167917714Y-84366380D01*
%TO.C,R22*%
X149979142Y-106624380D02*
X149645809Y-106148190D01*
X149407714Y-106624380D02*
X149407714Y-105624380D01*
X149788666Y-105624380D01*
X149883904Y-105672000D01*
X149931523Y-105719619D01*
X149979142Y-105814857D01*
X149979142Y-105957714D01*
X149931523Y-106052952D01*
X149883904Y-106100571D01*
X149788666Y-106148190D01*
X149407714Y-106148190D01*
X150360095Y-105719619D02*
X150407714Y-105672000D01*
X150502952Y-105624380D01*
X150741047Y-105624380D01*
X150836285Y-105672000D01*
X150883904Y-105719619D01*
X150931523Y-105814857D01*
X150931523Y-105910095D01*
X150883904Y-106052952D01*
X150312476Y-106624380D01*
X150931523Y-106624380D01*
X151312476Y-105719619D02*
X151360095Y-105672000D01*
X151455333Y-105624380D01*
X151693428Y-105624380D01*
X151788666Y-105672000D01*
X151836285Y-105719619D01*
X151883904Y-105814857D01*
X151883904Y-105910095D01*
X151836285Y-106052952D01*
X151264857Y-106624380D01*
X151883904Y-106624380D01*
%TO.C,D1*%
X166266904Y-79955380D02*
X166266904Y-78955380D01*
X166505000Y-78955380D01*
X166647857Y-79003000D01*
X166743095Y-79098238D01*
X166790714Y-79193476D01*
X166838333Y-79383952D01*
X166838333Y-79526809D01*
X166790714Y-79717285D01*
X166743095Y-79812523D01*
X166647857Y-79907761D01*
X166505000Y-79955380D01*
X166266904Y-79955380D01*
X167790714Y-79955380D02*
X167219285Y-79955380D01*
X167505000Y-79955380D02*
X167505000Y-78955380D01*
X167409761Y-79098238D01*
X167314523Y-79193476D01*
X167219285Y-79241095D01*
%TO.C,R18*%
X123436142Y-109512380D02*
X123102809Y-109036190D01*
X122864714Y-109512380D02*
X122864714Y-108512380D01*
X123245666Y-108512380D01*
X123340904Y-108560000D01*
X123388523Y-108607619D01*
X123436142Y-108702857D01*
X123436142Y-108845714D01*
X123388523Y-108940952D01*
X123340904Y-108988571D01*
X123245666Y-109036190D01*
X122864714Y-109036190D01*
X124388523Y-109512380D02*
X123817095Y-109512380D01*
X124102809Y-109512380D02*
X124102809Y-108512380D01*
X124007571Y-108655238D01*
X123912333Y-108750476D01*
X123817095Y-108798095D01*
X124959952Y-108940952D02*
X124864714Y-108893333D01*
X124817095Y-108845714D01*
X124769476Y-108750476D01*
X124769476Y-108702857D01*
X124817095Y-108607619D01*
X124864714Y-108560000D01*
X124959952Y-108512380D01*
X125150428Y-108512380D01*
X125245666Y-108560000D01*
X125293285Y-108607619D01*
X125340904Y-108702857D01*
X125340904Y-108750476D01*
X125293285Y-108845714D01*
X125245666Y-108893333D01*
X125150428Y-108940952D01*
X124959952Y-108940952D01*
X124864714Y-108988571D01*
X124817095Y-109036190D01*
X124769476Y-109131428D01*
X124769476Y-109321904D01*
X124817095Y-109417142D01*
X124864714Y-109464761D01*
X124959952Y-109512380D01*
X125150428Y-109512380D01*
X125245666Y-109464761D01*
X125293285Y-109417142D01*
X125340904Y-109321904D01*
X125340904Y-109131428D01*
X125293285Y-109036190D01*
X125245666Y-108988571D01*
X125150428Y-108940952D01*
%TO.C,D4*%
X117117904Y-113355380D02*
X117117904Y-112355380D01*
X117356000Y-112355380D01*
X117498857Y-112403000D01*
X117594095Y-112498238D01*
X117641714Y-112593476D01*
X117689333Y-112783952D01*
X117689333Y-112926809D01*
X117641714Y-113117285D01*
X117594095Y-113212523D01*
X117498857Y-113307761D01*
X117356000Y-113355380D01*
X117117904Y-113355380D01*
X118546476Y-112688714D02*
X118546476Y-113355380D01*
X118308380Y-112307761D02*
X118070285Y-113022047D01*
X118689333Y-113022047D01*
D11*
%TO.C,IC4*%
X123220238Y-100142523D02*
X123220238Y-98872523D01*
X124550714Y-100021571D02*
X124490238Y-100082047D01*
X124308809Y-100142523D01*
X124187857Y-100142523D01*
X124006428Y-100082047D01*
X123885476Y-99961095D01*
X123825000Y-99840142D01*
X123764523Y-99598238D01*
X123764523Y-99416809D01*
X123825000Y-99174904D01*
X123885476Y-99053952D01*
X124006428Y-98933000D01*
X124187857Y-98872523D01*
X124308809Y-98872523D01*
X124490238Y-98933000D01*
X124550714Y-98993476D01*
X125639285Y-99295857D02*
X125639285Y-100142523D01*
X125336904Y-98812047D02*
X125034523Y-99719190D01*
X125820714Y-99719190D01*
D10*
%TO.C,!R1*%
X149803142Y-94448190D02*
X149850761Y-94400571D01*
X149898380Y-94448190D01*
X149850761Y-94495809D01*
X149803142Y-94448190D01*
X149898380Y-94448190D01*
X149517428Y-94448190D02*
X148946000Y-94495809D01*
X148898380Y-94448190D01*
X148946000Y-94400571D01*
X149517428Y-94448190D01*
X148898380Y-94448190D01*
X149898380Y-93400571D02*
X149422190Y-93733904D01*
X149898380Y-93972000D02*
X148898380Y-93972000D01*
X148898380Y-93591047D01*
X148946000Y-93495809D01*
X148993619Y-93448190D01*
X149088857Y-93400571D01*
X149231714Y-93400571D01*
X149326952Y-93448190D01*
X149374571Y-93495809D01*
X149422190Y-93591047D01*
X149422190Y-93972000D01*
X149898380Y-92448190D02*
X149898380Y-93019619D01*
X149898380Y-92733904D02*
X148898380Y-92733904D01*
X149041238Y-92829142D01*
X149136476Y-92924380D01*
X149184095Y-93019619D01*
%TO.C,R8*%
X164425333Y-102560380D02*
X164092000Y-102084190D01*
X163853904Y-102560380D02*
X163853904Y-101560380D01*
X164234857Y-101560380D01*
X164330095Y-101608000D01*
X164377714Y-101655619D01*
X164425333Y-101750857D01*
X164425333Y-101893714D01*
X164377714Y-101988952D01*
X164330095Y-102036571D01*
X164234857Y-102084190D01*
X163853904Y-102084190D01*
X164996761Y-101988952D02*
X164901523Y-101941333D01*
X164853904Y-101893714D01*
X164806285Y-101798476D01*
X164806285Y-101750857D01*
X164853904Y-101655619D01*
X164901523Y-101608000D01*
X164996761Y-101560380D01*
X165187238Y-101560380D01*
X165282476Y-101608000D01*
X165330095Y-101655619D01*
X165377714Y-101750857D01*
X165377714Y-101798476D01*
X165330095Y-101893714D01*
X165282476Y-101941333D01*
X165187238Y-101988952D01*
X164996761Y-101988952D01*
X164901523Y-102036571D01*
X164853904Y-102084190D01*
X164806285Y-102179428D01*
X164806285Y-102369904D01*
X164853904Y-102465142D01*
X164901523Y-102512761D01*
X164996761Y-102560380D01*
X165187238Y-102560380D01*
X165282476Y-102512761D01*
X165330095Y-102465142D01*
X165377714Y-102369904D01*
X165377714Y-102179428D01*
X165330095Y-102084190D01*
X165282476Y-102036571D01*
X165187238Y-101988952D01*
%TO.C,R21*%
X149979142Y-110180380D02*
X149645809Y-109704190D01*
X149407714Y-110180380D02*
X149407714Y-109180380D01*
X149788666Y-109180380D01*
X149883904Y-109228000D01*
X149931523Y-109275619D01*
X149979142Y-109370857D01*
X149979142Y-109513714D01*
X149931523Y-109608952D01*
X149883904Y-109656571D01*
X149788666Y-109704190D01*
X149407714Y-109704190D01*
X150360095Y-109275619D02*
X150407714Y-109228000D01*
X150502952Y-109180380D01*
X150741047Y-109180380D01*
X150836285Y-109228000D01*
X150883904Y-109275619D01*
X150931523Y-109370857D01*
X150931523Y-109466095D01*
X150883904Y-109608952D01*
X150312476Y-110180380D01*
X150931523Y-110180380D01*
X151883904Y-110180380D02*
X151312476Y-110180380D01*
X151598190Y-110180380D02*
X151598190Y-109180380D01*
X151502952Y-109323238D01*
X151407714Y-109418476D01*
X151312476Y-109466095D01*
%TO.C,C4*%
X164933333Y-105005142D02*
X164885714Y-105052761D01*
X164742857Y-105100380D01*
X164647619Y-105100380D01*
X164504761Y-105052761D01*
X164409523Y-104957523D01*
X164361904Y-104862285D01*
X164314285Y-104671809D01*
X164314285Y-104528952D01*
X164361904Y-104338476D01*
X164409523Y-104243238D01*
X164504761Y-104148000D01*
X164647619Y-104100380D01*
X164742857Y-104100380D01*
X164885714Y-104148000D01*
X164933333Y-104195619D01*
X165790476Y-104433714D02*
X165790476Y-105100380D01*
X165552380Y-104052761D02*
X165314285Y-104767047D01*
X165933333Y-104767047D01*
D11*
%TO.C,J5*%
X99459523Y-97844333D02*
X100366666Y-97844333D01*
X100548095Y-97904809D01*
X100669047Y-98025761D01*
X100729523Y-98207190D01*
X100729523Y-98328142D01*
X99459523Y-96634809D02*
X99459523Y-97239571D01*
X100064285Y-97300047D01*
X100003809Y-97239571D01*
X99943333Y-97118619D01*
X99943333Y-96816238D01*
X100003809Y-96695285D01*
X100064285Y-96634809D01*
X100185238Y-96574333D01*
X100487619Y-96574333D01*
X100608571Y-96634809D01*
X100669047Y-96695285D01*
X100729523Y-96816238D01*
X100729523Y-97118619D01*
X100669047Y-97239571D01*
X100608571Y-97300047D01*
D10*
%TO.C,J1*%
X182122380Y-66373333D02*
X182836666Y-66373333D01*
X182979523Y-66420952D01*
X183074761Y-66516190D01*
X183122380Y-66659047D01*
X183122380Y-66754285D01*
X183122380Y-65373333D02*
X183122380Y-65944761D01*
X183122380Y-65659047D02*
X182122380Y-65659047D01*
X182265238Y-65754285D01*
X182360476Y-65849523D01*
X182408095Y-65944761D01*
%TO.C,L1*%
X168722380Y-108370666D02*
X168722380Y-108846857D01*
X167722380Y-108846857D01*
X168722380Y-107513523D02*
X168722380Y-108084952D01*
X168722380Y-107799238D02*
X167722380Y-107799238D01*
X167865238Y-107894476D01*
X167960476Y-107989714D01*
X168008095Y-108084952D01*
%TO.C,R2*%
X119832380Y-86335666D02*
X119356190Y-86669000D01*
X119832380Y-86907095D02*
X118832380Y-86907095D01*
X118832380Y-86526142D01*
X118880000Y-86430904D01*
X118927619Y-86383285D01*
X119022857Y-86335666D01*
X119165714Y-86335666D01*
X119260952Y-86383285D01*
X119308571Y-86430904D01*
X119356190Y-86526142D01*
X119356190Y-86907095D01*
X118927619Y-85954714D02*
X118880000Y-85907095D01*
X118832380Y-85811857D01*
X118832380Y-85573761D01*
X118880000Y-85478523D01*
X118927619Y-85430904D01*
X119022857Y-85383285D01*
X119118095Y-85383285D01*
X119260952Y-85430904D01*
X119832380Y-86002333D01*
X119832380Y-85383285D01*
%TO.C,J4*%
X182122380Y-127333333D02*
X182836666Y-127333333D01*
X182979523Y-127380952D01*
X183074761Y-127476190D01*
X183122380Y-127619047D01*
X183122380Y-127714285D01*
X182455714Y-126428571D02*
X183122380Y-126428571D01*
X182074761Y-126666666D02*
X182789047Y-126904761D01*
X182789047Y-126285714D01*
%TO.C,R4*%
X120434380Y-102274666D02*
X119958190Y-102608000D01*
X120434380Y-102846095D02*
X119434380Y-102846095D01*
X119434380Y-102465142D01*
X119482000Y-102369904D01*
X119529619Y-102322285D01*
X119624857Y-102274666D01*
X119767714Y-102274666D01*
X119862952Y-102322285D01*
X119910571Y-102369904D01*
X119958190Y-102465142D01*
X119958190Y-102846095D01*
X119767714Y-101417523D02*
X120434380Y-101417523D01*
X119386761Y-101655619D02*
X120101047Y-101893714D01*
X120101047Y-101274666D01*
D11*
%TO.C,CR2*%
X174413333Y-80209571D02*
X174352857Y-80270047D01*
X174171428Y-80330523D01*
X174050476Y-80330523D01*
X173869047Y-80270047D01*
X173748095Y-80149095D01*
X173687619Y-80028142D01*
X173627142Y-79786238D01*
X173627142Y-79604809D01*
X173687619Y-79362904D01*
X173748095Y-79241952D01*
X173869047Y-79121000D01*
X174050476Y-79060523D01*
X174171428Y-79060523D01*
X174352857Y-79121000D01*
X174413333Y-79181476D01*
X175683333Y-80330523D02*
X175260000Y-79725761D01*
X174957619Y-80330523D02*
X174957619Y-79060523D01*
X175441428Y-79060523D01*
X175562380Y-79121000D01*
X175622857Y-79181476D01*
X175683333Y-79302428D01*
X175683333Y-79483857D01*
X175622857Y-79604809D01*
X175562380Y-79665285D01*
X175441428Y-79725761D01*
X174957619Y-79725761D01*
X176167142Y-79181476D02*
X176227619Y-79121000D01*
X176348571Y-79060523D01*
X176650952Y-79060523D01*
X176771904Y-79121000D01*
X176832380Y-79181476D01*
X176892857Y-79302428D01*
X176892857Y-79423380D01*
X176832380Y-79604809D01*
X176106666Y-80330523D01*
X176892857Y-80330523D01*
D10*
%TO.C,C3*%
X183729333Y-101957142D02*
X183681714Y-102004761D01*
X183538857Y-102052380D01*
X183443619Y-102052380D01*
X183300761Y-102004761D01*
X183205523Y-101909523D01*
X183157904Y-101814285D01*
X183110285Y-101623809D01*
X183110285Y-101480952D01*
X183157904Y-101290476D01*
X183205523Y-101195238D01*
X183300761Y-101100000D01*
X183443619Y-101052380D01*
X183538857Y-101052380D01*
X183681714Y-101100000D01*
X183729333Y-101147619D01*
X184062666Y-101052380D02*
X184681714Y-101052380D01*
X184348380Y-101433333D01*
X184491238Y-101433333D01*
X184586476Y-101480952D01*
X184634095Y-101528571D01*
X184681714Y-101623809D01*
X184681714Y-101861904D01*
X184634095Y-101957142D01*
X184586476Y-102004761D01*
X184491238Y-102052380D01*
X184205523Y-102052380D01*
X184110285Y-102004761D01*
X184062666Y-101957142D01*
%TO.C,U3*%
X177604380Y-90677904D02*
X178413904Y-90677904D01*
X178509142Y-90630285D01*
X178556761Y-90582666D01*
X178604380Y-90487428D01*
X178604380Y-90296952D01*
X178556761Y-90201714D01*
X178509142Y-90154095D01*
X178413904Y-90106476D01*
X177604380Y-90106476D01*
X177604380Y-89725523D02*
X177604380Y-89106476D01*
X177985333Y-89439809D01*
X177985333Y-89296952D01*
X178032952Y-89201714D01*
X178080571Y-89154095D01*
X178175809Y-89106476D01*
X178413904Y-89106476D01*
X178509142Y-89154095D01*
X178556761Y-89201714D01*
X178604380Y-89296952D01*
X178604380Y-89582666D01*
X178556761Y-89677904D01*
X178509142Y-89725523D01*
%TO.C,J3*%
X182562380Y-117173333D02*
X183276666Y-117173333D01*
X183419523Y-117220952D01*
X183514761Y-117316190D01*
X183562380Y-117459047D01*
X183562380Y-117554285D01*
X182562380Y-116792380D02*
X182562380Y-116173333D01*
X182943333Y-116506666D01*
X182943333Y-116363809D01*
X182990952Y-116268571D01*
X183038571Y-116220952D01*
X183133809Y-116173333D01*
X183371904Y-116173333D01*
X183467142Y-116220952D01*
X183514761Y-116268571D01*
X183562380Y-116363809D01*
X183562380Y-116649523D01*
X183514761Y-116744761D01*
X183467142Y-116792380D01*
%TO.C,R5*%
X115768380Y-86081666D02*
X115292190Y-86415000D01*
X115768380Y-86653095D02*
X114768380Y-86653095D01*
X114768380Y-86272142D01*
X114816000Y-86176904D01*
X114863619Y-86129285D01*
X114958857Y-86081666D01*
X115101714Y-86081666D01*
X115196952Y-86129285D01*
X115244571Y-86176904D01*
X115292190Y-86272142D01*
X115292190Y-86653095D01*
X114768380Y-85176904D02*
X114768380Y-85653095D01*
X115244571Y-85700714D01*
X115196952Y-85653095D01*
X115149333Y-85557857D01*
X115149333Y-85319761D01*
X115196952Y-85224523D01*
X115244571Y-85176904D01*
X115339809Y-85129285D01*
X115577904Y-85129285D01*
X115673142Y-85176904D01*
X115720761Y-85224523D01*
X115768380Y-85319761D01*
X115768380Y-85557857D01*
X115720761Y-85653095D01*
X115673142Y-85700714D01*
%TO.C,BT1*%
X140057285Y-62228571D02*
X140200142Y-62276190D01*
X140247761Y-62323809D01*
X140295380Y-62419047D01*
X140295380Y-62561904D01*
X140247761Y-62657142D01*
X140200142Y-62704761D01*
X140104904Y-62752380D01*
X139723952Y-62752380D01*
X139723952Y-61752380D01*
X140057285Y-61752380D01*
X140152523Y-61800000D01*
X140200142Y-61847619D01*
X140247761Y-61942857D01*
X140247761Y-62038095D01*
X140200142Y-62133333D01*
X140152523Y-62180952D01*
X140057285Y-62228571D01*
X139723952Y-62228571D01*
X140581095Y-61752380D02*
X141152523Y-61752380D01*
X140866809Y-62752380D02*
X140866809Y-61752380D01*
X142009666Y-62752380D02*
X141438238Y-62752380D01*
X141723952Y-62752380D02*
X141723952Y-61752380D01*
X141628714Y-61895238D01*
X141533476Y-61990476D01*
X141438238Y-62038095D01*
D11*
%TO.C,U2*%
X172260380Y-99380523D02*
X172260380Y-100408619D01*
X172320857Y-100529571D01*
X172381333Y-100590047D01*
X172502285Y-100650523D01*
X172744190Y-100650523D01*
X172865142Y-100590047D01*
X172925619Y-100529571D01*
X172986095Y-100408619D01*
X172986095Y-99380523D01*
X173530380Y-99501476D02*
X173590857Y-99441000D01*
X173711809Y-99380523D01*
X174014190Y-99380523D01*
X174135142Y-99441000D01*
X174195619Y-99501476D01*
X174256095Y-99622428D01*
X174256095Y-99743380D01*
X174195619Y-99924809D01*
X173469904Y-100650523D01*
X174256095Y-100650523D01*
%TO.C,Q1*%
X183575476Y-84956952D02*
X183515000Y-85077904D01*
X183394047Y-85198857D01*
X183212619Y-85380285D01*
X183152142Y-85501238D01*
X183152142Y-85622190D01*
X183454523Y-85561714D02*
X183394047Y-85682666D01*
X183273095Y-85803619D01*
X183031190Y-85864095D01*
X182607857Y-85864095D01*
X182365952Y-85803619D01*
X182245000Y-85682666D01*
X182184523Y-85561714D01*
X182184523Y-85319809D01*
X182245000Y-85198857D01*
X182365952Y-85077904D01*
X182607857Y-85017428D01*
X183031190Y-85017428D01*
X183273095Y-85077904D01*
X183394047Y-85198857D01*
X183454523Y-85319809D01*
X183454523Y-85561714D01*
X183454523Y-83807904D02*
X183454523Y-84533619D01*
X183454523Y-84170761D02*
X182184523Y-84170761D01*
X182365952Y-84291714D01*
X182486904Y-84412666D01*
X182547380Y-84533619D01*
D10*
%TO.C,C11*%
X168013142Y-96369142D02*
X167965523Y-96416761D01*
X167822666Y-96464380D01*
X167727428Y-96464380D01*
X167584571Y-96416761D01*
X167489333Y-96321523D01*
X167441714Y-96226285D01*
X167394095Y-96035809D01*
X167394095Y-95892952D01*
X167441714Y-95702476D01*
X167489333Y-95607238D01*
X167584571Y-95512000D01*
X167727428Y-95464380D01*
X167822666Y-95464380D01*
X167965523Y-95512000D01*
X168013142Y-95559619D01*
X168965523Y-96464380D02*
X168394095Y-96464380D01*
X168679809Y-96464380D02*
X168679809Y-95464380D01*
X168584571Y-95607238D01*
X168489333Y-95702476D01*
X168394095Y-95750095D01*
X169917904Y-96464380D02*
X169346476Y-96464380D01*
X169632190Y-96464380D02*
X169632190Y-95464380D01*
X169536952Y-95607238D01*
X169441714Y-95702476D01*
X169346476Y-95750095D01*
%TO.C,D3*%
X119911904Y-109512380D02*
X119911904Y-108512380D01*
X120150000Y-108512380D01*
X120292857Y-108560000D01*
X120388095Y-108655238D01*
X120435714Y-108750476D01*
X120483333Y-108940952D01*
X120483333Y-109083809D01*
X120435714Y-109274285D01*
X120388095Y-109369523D01*
X120292857Y-109464761D01*
X120150000Y-109512380D01*
X119911904Y-109512380D01*
X120816666Y-108512380D02*
X121435714Y-108512380D01*
X121102380Y-108893333D01*
X121245238Y-108893333D01*
X121340476Y-108940952D01*
X121388095Y-108988571D01*
X121435714Y-109083809D01*
X121435714Y-109321904D01*
X121388095Y-109417142D01*
X121340476Y-109464761D01*
X121245238Y-109512380D01*
X120959523Y-109512380D01*
X120864285Y-109464761D01*
X120816666Y-109417142D01*
D11*
%TO.C,IC1*%
X156530523Y-98267761D02*
X155260523Y-98267761D01*
X156409571Y-96937285D02*
X156470047Y-96997761D01*
X156530523Y-97179190D01*
X156530523Y-97300142D01*
X156470047Y-97481571D01*
X156349095Y-97602523D01*
X156228142Y-97663000D01*
X155986238Y-97723476D01*
X155804809Y-97723476D01*
X155562904Y-97663000D01*
X155441952Y-97602523D01*
X155321000Y-97481571D01*
X155260523Y-97300142D01*
X155260523Y-97179190D01*
X155321000Y-96997761D01*
X155381476Y-96937285D01*
X156530523Y-95727761D02*
X156530523Y-96453476D01*
X156530523Y-96090619D02*
X155260523Y-96090619D01*
X155441952Y-96211571D01*
X155562904Y-96332523D01*
X155623380Y-96453476D01*
D10*
%TO.C,R3*%
X117800380Y-86335666D02*
X117324190Y-86669000D01*
X117800380Y-86907095D02*
X116800380Y-86907095D01*
X116800380Y-86526142D01*
X116848000Y-86430904D01*
X116895619Y-86383285D01*
X116990857Y-86335666D01*
X117133714Y-86335666D01*
X117228952Y-86383285D01*
X117276571Y-86430904D01*
X117324190Y-86526142D01*
X117324190Y-86907095D01*
X116800380Y-86002333D02*
X116800380Y-85383285D01*
X117181333Y-85716619D01*
X117181333Y-85573761D01*
X117228952Y-85478523D01*
X117276571Y-85430904D01*
X117371809Y-85383285D01*
X117609904Y-85383285D01*
X117705142Y-85430904D01*
X117752761Y-85478523D01*
X117800380Y-85573761D01*
X117800380Y-85859476D01*
X117752761Y-85954714D01*
X117705142Y-86002333D01*
%TO.C,C7*%
X107783333Y-86518142D02*
X107735714Y-86565761D01*
X107592857Y-86613380D01*
X107497619Y-86613380D01*
X107354761Y-86565761D01*
X107259523Y-86470523D01*
X107211904Y-86375285D01*
X107164285Y-86184809D01*
X107164285Y-86041952D01*
X107211904Y-85851476D01*
X107259523Y-85756238D01*
X107354761Y-85661000D01*
X107497619Y-85613380D01*
X107592857Y-85613380D01*
X107735714Y-85661000D01*
X107783333Y-85708619D01*
X108116666Y-85613380D02*
X108783333Y-85613380D01*
X108354761Y-86613380D01*
%TO.C,R11*%
X113228380Y-86303857D02*
X112752190Y-86637190D01*
X113228380Y-86875285D02*
X112228380Y-86875285D01*
X112228380Y-86494333D01*
X112276000Y-86399095D01*
X112323619Y-86351476D01*
X112418857Y-86303857D01*
X112561714Y-86303857D01*
X112656952Y-86351476D01*
X112704571Y-86399095D01*
X112752190Y-86494333D01*
X112752190Y-86875285D01*
X113228380Y-85351476D02*
X113228380Y-85922904D01*
X113228380Y-85637190D02*
X112228380Y-85637190D01*
X112371238Y-85732428D01*
X112466476Y-85827666D01*
X112514095Y-85922904D01*
X113228380Y-84399095D02*
X113228380Y-84970523D01*
X113228380Y-84684809D02*
X112228380Y-84684809D01*
X112371238Y-84780047D01*
X112466476Y-84875285D01*
X112514095Y-84970523D01*
D11*
%TO.C,IC2*%
X159288238Y-87950523D02*
X159288238Y-86680523D01*
X160618714Y-87829571D02*
X160558238Y-87890047D01*
X160376809Y-87950523D01*
X160255857Y-87950523D01*
X160074428Y-87890047D01*
X159953476Y-87769095D01*
X159893000Y-87648142D01*
X159832523Y-87406238D01*
X159832523Y-87224809D01*
X159893000Y-86982904D01*
X159953476Y-86861952D01*
X160074428Y-86741000D01*
X160255857Y-86680523D01*
X160376809Y-86680523D01*
X160558238Y-86741000D01*
X160618714Y-86801476D01*
X161102523Y-86801476D02*
X161163000Y-86741000D01*
X161283952Y-86680523D01*
X161586333Y-86680523D01*
X161707285Y-86741000D01*
X161767761Y-86801476D01*
X161828238Y-86922428D01*
X161828238Y-87043380D01*
X161767761Y-87224809D01*
X161042047Y-87950523D01*
X161828238Y-87950523D01*
%TO.C,CR3*%
X180285571Y-113114666D02*
X180346047Y-113175142D01*
X180406523Y-113356571D01*
X180406523Y-113477523D01*
X180346047Y-113658952D01*
X180225095Y-113779904D01*
X180104142Y-113840380D01*
X179862238Y-113900857D01*
X179680809Y-113900857D01*
X179438904Y-113840380D01*
X179317952Y-113779904D01*
X179197000Y-113658952D01*
X179136523Y-113477523D01*
X179136523Y-113356571D01*
X179197000Y-113175142D01*
X179257476Y-113114666D01*
X180406523Y-111844666D02*
X179801761Y-112268000D01*
X180406523Y-112570380D02*
X179136523Y-112570380D01*
X179136523Y-112086571D01*
X179197000Y-111965619D01*
X179257476Y-111905142D01*
X179378428Y-111844666D01*
X179559857Y-111844666D01*
X179680809Y-111905142D01*
X179741285Y-111965619D01*
X179801761Y-112086571D01*
X179801761Y-112570380D01*
X179136523Y-111421333D02*
X179136523Y-110635142D01*
X179620333Y-111058476D01*
X179620333Y-110877047D01*
X179680809Y-110756095D01*
X179741285Y-110695619D01*
X179862238Y-110635142D01*
X180164619Y-110635142D01*
X180285571Y-110695619D01*
X180346047Y-110756095D01*
X180406523Y-110877047D01*
X180406523Y-111239904D01*
X180346047Y-111360857D01*
X180285571Y-111421333D01*
D12*
%TO.C,VBUS1*%
X103570000Y-86360000D02*
G75*
G03*
X103570000Y-86360000I-700000J0D01*
G01*
%TO.C,SNRe1*%
X135320000Y-107950000D02*
G75*
G03*
X135320000Y-107950000I-700000J0D01*
G01*
%TO.C,Cout1*%
X183580000Y-105410000D02*
G75*
G03*
X183580000Y-105410000I-700000J0D01*
G01*
%TO.C,3.7V1*%
X184088000Y-93726000D02*
G75*
G03*
X184088000Y-93726000I-700000J0D01*
G01*
%TO.C,3.3V1*%
X150560000Y-104140000D02*
G75*
G03*
X150560000Y-104140000I-700000J0D01*
G01*
%TO.C,RST1*%
X112079000Y-107442000D02*
G75*
G03*
X112079000Y-107442000I-700000J0D01*
G01*
%TO.C,ALT1*%
X133415000Y-111252000D02*
G75*
G03*
X133415000Y-111252000I-700000J0D01*
G01*
%TO.C,!SUS1*%
X116524000Y-107442000D02*
G75*
G03*
X116524000Y-107442000I-700000J0D01*
G01*
D13*
%TO.C,CR4*%
X109046000Y-102578000D02*
X106346000Y-102578000D01*
X109971000Y-104178000D02*
X106346000Y-104178000D01*
D12*
%TO.C,R7*%
X167369258Y-98566500D02*
X166894742Y-98566500D01*
X167369258Y-97521500D02*
X166894742Y-97521500D01*
%TO.C,R6*%
X154702742Y-82789500D02*
X155177258Y-82789500D01*
X154702742Y-83834500D02*
X155177258Y-83834500D01*
%TO.C,R19*%
X124095742Y-113425500D02*
X124570258Y-113425500D01*
X124095742Y-112380500D02*
X124570258Y-112380500D01*
D13*
%TO.C,IC3*%
X157556000Y-107278000D02*
X157556000Y-112178000D01*
X152481000Y-107123000D02*
X154006000Y-107123000D01*
X154356000Y-107278000D02*
X157556000Y-107278000D01*
X154356000Y-112178000D02*
X154356000Y-107278000D01*
X157556000Y-112178000D02*
X154356000Y-112178000D01*
D12*
%TO.C,C8*%
X123748748Y-96118000D02*
X125171252Y-96118000D01*
X123748748Y-97938000D02*
X125171252Y-97938000D01*
%TO.C,C2*%
X156768748Y-89514000D02*
X158191252Y-89514000D01*
X156768748Y-91334000D02*
X158191252Y-91334000D01*
%TO.C,U1*%
X146785000Y-96520000D02*
G75*
G03*
X146785000Y-96520000I-9625000J0D01*
G01*
%TO.C,R20*%
X125492742Y-92187500D02*
X125967258Y-92187500D01*
X125492742Y-93232500D02*
X125967258Y-93232500D01*
%TO.C,C1*%
X114067000Y-101904748D02*
X114067000Y-103327252D01*
X112247000Y-101904748D02*
X112247000Y-103327252D01*
%TO.C,R10*%
X162797258Y-80278500D02*
X162322742Y-80278500D01*
X162797258Y-79233500D02*
X162322742Y-79233500D01*
D13*
%TO.C,CR1*%
X165782000Y-89700000D02*
X168482000Y-89700000D01*
X164857000Y-88100000D02*
X168482000Y-88100000D01*
D12*
%TO.C,R9*%
X167369258Y-100598500D02*
X166894742Y-100598500D01*
X167369258Y-99553500D02*
X166894742Y-99553500D01*
D14*
%TO.C,IC6*%
X140969000Y-110224000D02*
X140969000Y-110224000D01*
X140869000Y-110224000D02*
X140869000Y-110224000D01*
X140369000Y-110724000D02*
X137944000Y-110724000D01*
X140369000Y-108224000D02*
X137869000Y-108224000D01*
X140969000Y-110224000D02*
G75*
G03*
X140869000Y-110224000I-50000J0D01*
G01*
X140869000Y-110224000D02*
G75*
G03*
X140969000Y-110224000I50000J0D01*
G01*
D12*
%TO.C,R1*%
X161558500Y-108949258D02*
X161558500Y-108474742D01*
X160513500Y-108949258D02*
X160513500Y-108474742D01*
D13*
%TO.C,CR6*%
X109427000Y-90640000D02*
X106727000Y-90640000D01*
X110352000Y-92240000D02*
X106727000Y-92240000D01*
%TO.C,CR5*%
X109554000Y-96482000D02*
X106854000Y-96482000D01*
X110479000Y-98082000D02*
X106854000Y-98082000D01*
D12*
%TO.C,J2*%
X181670000Y-77530000D02*
X180340000Y-77530000D01*
X97730000Y-74870000D02*
X97730000Y-77530000D01*
X179070000Y-74870000D02*
X179070000Y-77530000D01*
X179070000Y-74870000D02*
X97730000Y-74870000D01*
X181670000Y-76200000D02*
X181670000Y-77530000D01*
X179070000Y-77530000D02*
X97730000Y-77530000D01*
%TO.C,C6*%
X153212748Y-86762000D02*
X154635252Y-86762000D01*
X153212748Y-84942000D02*
X154635252Y-84942000D01*
%TO.C,C5*%
X179628748Y-97642000D02*
X181051252Y-97642000D01*
X179628748Y-99462000D02*
X181051252Y-99462000D01*
%TO.C,D2*%
X165647000Y-84609000D02*
X165647000Y-86079000D01*
X165647000Y-86079000D02*
X167932000Y-86079000D01*
X167932000Y-84609000D02*
X165647000Y-84609000D01*
%TO.C,R22*%
X146574742Y-105649500D02*
X147049258Y-105649500D01*
X146574742Y-106694500D02*
X147049258Y-106694500D01*
%TO.C,D1*%
X165320000Y-82113000D02*
X168005000Y-82113000D01*
X168005000Y-80193000D02*
X165320000Y-80193000D01*
X165320000Y-80193000D02*
X165320000Y-82113000D01*
%TO.C,R18*%
X123841742Y-109967500D02*
X124316258Y-109967500D01*
X123841742Y-111012500D02*
X124316258Y-111012500D01*
%TO.C,D4*%
X118965000Y-112070000D02*
X118965000Y-113990000D01*
X121650000Y-112070000D02*
X118965000Y-112070000D01*
X118965000Y-113990000D02*
X121650000Y-113990000D01*
D15*
%TO.C,IC4*%
X115436600Y-94625600D02*
G75*
G03*
X115436600Y-94625600I-125000J0D01*
G01*
D12*
%TO.C,!R1*%
X151398500Y-93709258D02*
X151398500Y-93234742D01*
X150353500Y-93709258D02*
X150353500Y-93234742D01*
%TO.C,R8*%
X167369258Y-101585500D02*
X166894742Y-101585500D01*
X167369258Y-102630500D02*
X166894742Y-102630500D01*
%TO.C,R21*%
X146574742Y-109205500D02*
X147049258Y-109205500D01*
X146574742Y-110250500D02*
X147049258Y-110250500D01*
%TO.C,C4*%
X157784748Y-102722000D02*
X159207252Y-102722000D01*
X157784748Y-104542000D02*
X159207252Y-104542000D01*
D14*
%TO.C,J5*%
X97955000Y-101421000D02*
X96755000Y-101421000D01*
X103155000Y-95421000D02*
X103155000Y-95421000D01*
X101155000Y-93421000D02*
X102495000Y-93421000D01*
X103255000Y-95421000D02*
X103255000Y-95421000D01*
X102495000Y-93421000D02*
X102495000Y-94221000D01*
X96755000Y-93421000D02*
X97955000Y-93421000D01*
X102495000Y-101421000D02*
X102495000Y-100621000D01*
X96755000Y-101421000D02*
X96755000Y-93421000D01*
X101155000Y-101421000D02*
X102495000Y-101421000D01*
X103255000Y-95421000D02*
G75*
G03*
X103155000Y-95421000I-50000J0D01*
G01*
X103155000Y-95421000D02*
G75*
G03*
X103255000Y-95421000I50000J0D01*
G01*
D12*
%TO.C,J1*%
X97730000Y-64710000D02*
X97730000Y-67370000D01*
X180340000Y-64710000D02*
X181670000Y-64710000D01*
X179070000Y-67370000D02*
X97730000Y-67370000D01*
X179070000Y-64710000D02*
X179070000Y-67370000D01*
X181670000Y-64710000D02*
X181670000Y-66040000D01*
X179070000Y-64710000D02*
X97730000Y-64710000D01*
%TO.C,L1*%
X176420000Y-111904000D02*
X174120000Y-111904000D01*
X174120000Y-104504000D02*
X176420000Y-104504000D01*
X169020000Y-104504000D02*
X171320000Y-104504000D01*
X171320000Y-111904000D02*
X169020000Y-111904000D01*
X176420000Y-104504000D02*
X176420000Y-111904000D01*
X169020000Y-111904000D02*
X169020000Y-104504000D01*
%TO.C,R2*%
X118857500Y-88471742D02*
X118857500Y-88946258D01*
X119902500Y-88471742D02*
X119902500Y-88946258D01*
%TO.C,J4*%
X180340000Y-125670000D02*
X181670000Y-125670000D01*
X179070000Y-125670000D02*
X179070000Y-128330000D01*
X97730000Y-125670000D02*
X97730000Y-128330000D01*
X181670000Y-125670000D02*
X181670000Y-127000000D01*
X179070000Y-128330000D02*
X97730000Y-128330000D01*
X179070000Y-125670000D02*
X97730000Y-125670000D01*
%TO.C,R4*%
X121934500Y-102345258D02*
X121934500Y-101870742D01*
X120889500Y-102345258D02*
X120889500Y-101870742D01*
D13*
%TO.C,CR2*%
X172985000Y-81496000D02*
X176610000Y-81496000D01*
X173910000Y-83096000D02*
X176610000Y-83096000D01*
D12*
%TO.C,C3*%
X179628748Y-102510000D02*
X181051252Y-102510000D01*
X179628748Y-100690000D02*
X181051252Y-100690000D01*
%TO.C,U3*%
X172192000Y-89916000D02*
X172192000Y-91866000D01*
X177312000Y-89916000D02*
X177312000Y-86466000D01*
X172192000Y-89916000D02*
X172192000Y-87966000D01*
X177312000Y-89916000D02*
X177312000Y-91866000D01*
%TO.C,J3*%
X181670000Y-118170000D02*
X180340000Y-118170000D01*
X97730000Y-115510000D02*
X97730000Y-118170000D01*
X181670000Y-116840000D02*
X181670000Y-118170000D01*
X179070000Y-115510000D02*
X97730000Y-115510000D01*
X179070000Y-115510000D02*
X179070000Y-118170000D01*
X179070000Y-118170000D02*
X97730000Y-118170000D01*
%TO.C,R5*%
X115686100Y-88471742D02*
X115686100Y-88946258D01*
X114641100Y-88471742D02*
X114641100Y-88946258D01*
%TO.C,BT1*%
X184593000Y-56800000D02*
X182093000Y-56800000D01*
X102203000Y-47360000D02*
X102203000Y-40360000D01*
X102203000Y-54240000D02*
X102203000Y-61220000D01*
X179483000Y-61240000D02*
X179483000Y-54240000D01*
X179483000Y-40360000D02*
X179483000Y-47360000D01*
X97093000Y-56800000D02*
X99593000Y-56800000D01*
X102203000Y-61240000D02*
X179483000Y-61240000D01*
X183343000Y-55550000D02*
X183343000Y-58050000D01*
X179483000Y-54240000D02*
X183843000Y-54240000D01*
X102203000Y-40360000D02*
X179483000Y-40360000D01*
D13*
%TO.C,U2*%
X176703000Y-102681000D02*
X175178000Y-102681000D01*
X171628000Y-102526000D02*
X171628000Y-97626000D01*
X174828000Y-97626000D02*
X174828000Y-102526000D01*
X174828000Y-102526000D02*
X171628000Y-102526000D01*
X171628000Y-97626000D02*
X174828000Y-97626000D01*
%TO.C,Q1*%
X182831000Y-89708000D02*
X179881000Y-89708000D01*
X179856000Y-91258000D02*
X179856000Y-90058000D01*
X179881000Y-89108000D02*
X182831000Y-89108000D01*
X179881000Y-89708000D02*
X179881000Y-89108000D01*
X182831000Y-89108000D02*
X182831000Y-89708000D01*
D12*
%TO.C,C11*%
X165863748Y-94890000D02*
X167286252Y-94890000D01*
X165863748Y-93070000D02*
X167286252Y-93070000D01*
%TO.C,D3*%
X119165000Y-111225000D02*
X121450000Y-111225000D01*
X121450000Y-109755000D02*
X119165000Y-109755000D01*
X119165000Y-109755000D02*
X119165000Y-111225000D01*
D13*
%TO.C,IC1*%
X152704000Y-98780000D02*
X152704000Y-95276000D01*
X152704000Y-95276000D02*
X159208000Y-95276000D01*
X159208000Y-95276000D02*
X159208000Y-98780000D01*
X159208000Y-98780000D02*
X152704000Y-98780000D01*
X159071000Y-93003000D02*
X159071000Y-94453000D01*
D12*
%TO.C,R3*%
X116825500Y-88471742D02*
X116825500Y-88946258D01*
X117870500Y-88471742D02*
X117870500Y-88946258D01*
%TO.C,C7*%
X107238748Y-88921000D02*
X108661252Y-88921000D01*
X107238748Y-87101000D02*
X108661252Y-87101000D01*
%TO.C,R11*%
X112253500Y-88471742D02*
X112253500Y-88946258D01*
X113298500Y-88471742D02*
X113298500Y-88946258D01*
D13*
%TO.C,IC2*%
X157053000Y-81215000D02*
X158578000Y-81215000D01*
%TO.C,CR3*%
X179032000Y-106346000D02*
X179032000Y-109046000D01*
X180632000Y-105421000D02*
X180632000Y-109046000D01*
%TD*%
M02*
