%TF.GenerationSoftware,KiCad,Pcbnew,(6.0.2)*%
%TF.CreationDate,2022-04-18T15:08:26+02:00*%
%TF.ProjectId,main,6d61696e-2e6b-4696-9361-645f70636258,rev?*%
%TF.SameCoordinates,Original*%
%TF.FileFunction,Soldermask,Top*%
%TF.FilePolarity,Negative*%
%FSLAX46Y46*%
G04 Gerber Fmt 4.6, Leading zero omitted, Abs format (unit mm)*
G04 Created by KiCad (PCBNEW (6.0.2)) date 2022-04-18 15:08:26*
%MOMM*%
%LPD*%
G01*
G04 APERTURE LIST*
G04 Aperture macros list*
%AMRoundRect*
0 Rectangle with rounded corners*
0 $1 Rounding radius*
0 $2 $3 $4 $5 $6 $7 $8 $9 X,Y pos of 4 corners*
0 Add a 4 corners polygon primitive as box body*
4,1,4,$2,$3,$4,$5,$6,$7,$8,$9,$2,$3,0*
0 Add four circle primitives for the rounded corners*
1,1,$1+$1,$2,$3*
1,1,$1+$1,$4,$5*
1,1,$1+$1,$6,$7*
1,1,$1+$1,$8,$9*
0 Add four rect primitives between the rounded corners*
20,1,$1+$1,$2,$3,$4,$5,0*
20,1,$1+$1,$4,$5,$6,$7,0*
20,1,$1+$1,$6,$7,$8,$9,0*
20,1,$1+$1,$8,$9,$2,$3,0*%
G04 Aperture macros list end*
%ADD10C,1.000000*%
%ADD11R,1.250000X0.750000*%
%ADD12RoundRect,0.200000X0.200000X0.275000X-0.200000X0.275000X-0.200000X-0.275000X0.200000X-0.275000X0*%
%ADD13RoundRect,0.200000X-0.200000X-0.275000X0.200000X-0.275000X0.200000X0.275000X-0.200000X0.275000X0*%
%ADD14R,1.525000X0.700000*%
%ADD15RoundRect,0.250000X-0.325000X-0.650000X0.325000X-0.650000X0.325000X0.650000X-0.325000X0.650000X0*%
%ADD16R,2.000000X2.000000*%
%ADD17C,2.000000*%
%ADD18RoundRect,0.250000X-0.650000X0.325000X-0.650000X-0.325000X0.650000X-0.325000X0.650000X0.325000X0*%
%ADD19R,0.550000X0.250000*%
%ADD20R,1.000000X1.700000*%
%ADD21RoundRect,0.200000X0.275000X-0.200000X0.275000X0.200000X-0.275000X0.200000X-0.275000X-0.200000X0*%
%ADD22R,1.700000X1.700000*%
%ADD23O,1.700000X1.700000*%
%ADD24RoundRect,0.218750X-0.218750X-0.256250X0.218750X-0.256250X0.218750X0.256250X-0.218750X0.256250X0*%
%ADD25RoundRect,0.243750X-0.243750X-0.456250X0.243750X-0.456250X0.243750X0.456250X-0.243750X0.456250X0*%
%ADD26R,1.000000X0.300000*%
%ADD27R,0.300000X1.000000*%
%ADD28R,3.350000X3.350000*%
%ADD29R,1.600000X0.400000*%
%ADD30C,2.640000*%
%ADD31C,1.200000*%
%ADD32R,2.200000X1.500000*%
%ADD33RoundRect,0.200000X-0.275000X0.200000X-0.275000X-0.200000X0.275000X-0.200000X0.275000X0.200000X0*%
%ADD34RoundRect,0.150000X-0.150000X0.825000X-0.150000X-0.825000X0.150000X-0.825000X0.150000X0.825000X0*%
%ADD35R,2.300000X2.300000*%
%ADD36C,3.450000*%
%ADD37C,2.390000*%
%ADD38R,7.340000X6.350000*%
%ADD39R,0.600000X1.200000*%
%ADD40R,0.950000X1.450000*%
%ADD41R,3.250000X1.450000*%
%ADD42R,2.513000X3.402000*%
%ADD43R,0.750000X1.250000*%
G04 APERTURE END LIST*
D10*
%TO.C,VBUS1*%
X102870000Y-86360000D03*
%TD*%
%TO.C,SNRe1*%
X134620000Y-107950000D03*
%TD*%
%TO.C,Cout1*%
X182880000Y-105410000D03*
%TD*%
%TO.C,3.7V1*%
X183388000Y-93726000D03*
%TD*%
%TO.C,3.3V1*%
X149860000Y-104140000D03*
%TD*%
%TO.C,RST1*%
X111379000Y-107442000D03*
%TD*%
%TO.C,ALT1*%
X132715000Y-111252000D03*
%TD*%
%TO.C,!SUS1*%
X115824000Y-107442000D03*
%TD*%
D11*
%TO.C,CR4*%
X109346000Y-103378000D03*
X106046000Y-103378000D03*
%TD*%
D12*
%TO.C,R7*%
X167957000Y-98044000D03*
X166307000Y-98044000D03*
%TD*%
D13*
%TO.C,R6*%
X154115000Y-83312000D03*
X155765000Y-83312000D03*
%TD*%
%TO.C,R19*%
X123508000Y-112903000D03*
X125158000Y-112903000D03*
%TD*%
D14*
%TO.C,IC3*%
X153244000Y-107823000D03*
X153244000Y-109093000D03*
X153244000Y-110363000D03*
X153244000Y-111633000D03*
X158668000Y-111633000D03*
X158668000Y-110363000D03*
X158668000Y-109093000D03*
X158668000Y-107823000D03*
%TD*%
D15*
%TO.C,C8*%
X122985000Y-97028000D03*
X125935000Y-97028000D03*
%TD*%
%TO.C,C2*%
X156005000Y-90424000D03*
X158955000Y-90424000D03*
%TD*%
D16*
%TO.C,U1*%
X133800000Y-93160000D03*
D17*
X132410000Y-96520000D03*
X133800000Y-99880000D03*
X140520000Y-99880000D03*
X141910000Y-96520000D03*
X140520000Y-93160000D03*
%TD*%
D13*
%TO.C,R20*%
X124905000Y-92710000D03*
X126555000Y-92710000D03*
%TD*%
D18*
%TO.C,C1*%
X113157000Y-101141000D03*
X113157000Y-104091000D03*
%TD*%
D12*
%TO.C,R10*%
X163385000Y-79756000D03*
X161735000Y-79756000D03*
%TD*%
D11*
%TO.C,CR1*%
X165482000Y-88900000D03*
X168782000Y-88900000D03*
%TD*%
D12*
%TO.C,R9*%
X167957000Y-100076000D03*
X166307000Y-100076000D03*
%TD*%
D19*
%TO.C,IC6*%
X140294000Y-110224000D03*
X140294000Y-109724000D03*
X140294000Y-109224000D03*
X140294000Y-108724000D03*
X137944000Y-108724000D03*
X137944000Y-109224000D03*
X137944000Y-109724000D03*
X137944000Y-110224000D03*
D20*
X139119000Y-109474000D03*
%TD*%
D21*
%TO.C,R1*%
X161036000Y-109537000D03*
X161036000Y-107887000D03*
%TD*%
D11*
%TO.C,CR6*%
X109727000Y-91440000D03*
X106427000Y-91440000D03*
%TD*%
%TO.C,CR5*%
X109854000Y-97282000D03*
X106554000Y-97282000D03*
%TD*%
D22*
%TO.C,J2*%
X180340000Y-76200000D03*
D23*
X177800000Y-76200000D03*
X175260000Y-76200000D03*
X172720000Y-76200000D03*
X170180000Y-76200000D03*
X167640000Y-76200000D03*
X165100000Y-76200000D03*
X162560000Y-76200000D03*
X160020000Y-76200000D03*
X157480000Y-76200000D03*
X154940000Y-76200000D03*
X152400000Y-76200000D03*
X149860000Y-76200000D03*
X147320000Y-76200000D03*
X144780000Y-76200000D03*
X142240000Y-76200000D03*
X139700000Y-76200000D03*
X137160000Y-76200000D03*
X134620000Y-76200000D03*
X132080000Y-76200000D03*
X129540000Y-76200000D03*
X127000000Y-76200000D03*
X124460000Y-76200000D03*
X121920000Y-76200000D03*
X119380000Y-76200000D03*
X116840000Y-76200000D03*
X114300000Y-76200000D03*
X111760000Y-76200000D03*
X109220000Y-76200000D03*
X106680000Y-76200000D03*
X104140000Y-76200000D03*
X101600000Y-76200000D03*
X99060000Y-76200000D03*
%TD*%
D15*
%TO.C,C6*%
X152449000Y-85852000D03*
X155399000Y-85852000D03*
%TD*%
%TO.C,C5*%
X178865000Y-98552000D03*
X181815000Y-98552000D03*
%TD*%
D24*
%TO.C,D2*%
X166344500Y-85344000D03*
X167919500Y-85344000D03*
%TD*%
D13*
%TO.C,R22*%
X145987000Y-106172000D03*
X147637000Y-106172000D03*
%TD*%
D25*
%TO.C,D1*%
X166067500Y-81153000D03*
X167942500Y-81153000D03*
%TD*%
D13*
%TO.C,R18*%
X123254000Y-110490000D03*
X124904000Y-110490000D03*
%TD*%
D25*
%TO.C,D4*%
X119712500Y-113030000D03*
X121587500Y-113030000D03*
%TD*%
D26*
%TO.C,IC4*%
X115811600Y-95375600D03*
X115811600Y-95875600D03*
X115811600Y-96375600D03*
X115811600Y-96875600D03*
X115811600Y-97375600D03*
X115811600Y-97875600D03*
X115811600Y-98375600D03*
D27*
X116711600Y-99275600D03*
X117211600Y-99275600D03*
X117711600Y-99275600D03*
X118211600Y-99275600D03*
X118711600Y-99275600D03*
X119211600Y-99275600D03*
X119711600Y-99275600D03*
D26*
X120611600Y-98375600D03*
X120611600Y-97875600D03*
X120611600Y-97375600D03*
X120611600Y-96875600D03*
X120611600Y-96375600D03*
X120611600Y-95875600D03*
X120611600Y-95375600D03*
D27*
X119711600Y-94475600D03*
X119211600Y-94475600D03*
X118711600Y-94475600D03*
X118211600Y-94475600D03*
X117711600Y-94475600D03*
X117211600Y-94475600D03*
X116711600Y-94475600D03*
D28*
X118211600Y-96875600D03*
%TD*%
D21*
%TO.C,!R1*%
X150876000Y-94297000D03*
X150876000Y-92647000D03*
%TD*%
D12*
%TO.C,R8*%
X167957000Y-102108000D03*
X166307000Y-102108000D03*
%TD*%
D13*
%TO.C,R21*%
X145987000Y-109728000D03*
X147637000Y-109728000D03*
%TD*%
D15*
%TO.C,C4*%
X157021000Y-103632000D03*
X159971000Y-103632000D03*
%TD*%
D29*
%TO.C,J5*%
X102755000Y-96121000D03*
X102755000Y-96771000D03*
X102755000Y-97421000D03*
X102755000Y-98071000D03*
X102755000Y-98721000D03*
D30*
X99555000Y-101046000D03*
X99555000Y-93796000D03*
D31*
X102235000Y-99846000D03*
X102235000Y-94996000D03*
%TD*%
D22*
%TO.C,J1*%
X180340000Y-66040000D03*
D23*
X177800000Y-66040000D03*
X175260000Y-66040000D03*
X172720000Y-66040000D03*
X170180000Y-66040000D03*
X167640000Y-66040000D03*
X165100000Y-66040000D03*
X162560000Y-66040000D03*
X160020000Y-66040000D03*
X157480000Y-66040000D03*
X154940000Y-66040000D03*
X152400000Y-66040000D03*
X149860000Y-66040000D03*
X147320000Y-66040000D03*
X144780000Y-66040000D03*
X142240000Y-66040000D03*
X139700000Y-66040000D03*
X137160000Y-66040000D03*
X134620000Y-66040000D03*
X132080000Y-66040000D03*
X129540000Y-66040000D03*
X127000000Y-66040000D03*
X124460000Y-66040000D03*
X121920000Y-66040000D03*
X119380000Y-66040000D03*
X116840000Y-66040000D03*
X114300000Y-66040000D03*
X111760000Y-66040000D03*
X109220000Y-66040000D03*
X106680000Y-66040000D03*
X104140000Y-66040000D03*
X101600000Y-66040000D03*
X99060000Y-66040000D03*
%TD*%
D32*
%TO.C,L1*%
X172720000Y-111404000D03*
X172720000Y-105004000D03*
%TD*%
D33*
%TO.C,R2*%
X119380000Y-87884000D03*
X119380000Y-89534000D03*
%TD*%
D22*
%TO.C,J4*%
X180340000Y-127000000D03*
D23*
X177800000Y-127000000D03*
X175260000Y-127000000D03*
X172720000Y-127000000D03*
X170180000Y-127000000D03*
X167640000Y-127000000D03*
X165100000Y-127000000D03*
X162560000Y-127000000D03*
X160020000Y-127000000D03*
X157480000Y-127000000D03*
X154940000Y-127000000D03*
X152400000Y-127000000D03*
X149860000Y-127000000D03*
X147320000Y-127000000D03*
X144780000Y-127000000D03*
X142240000Y-127000000D03*
X139700000Y-127000000D03*
X137160000Y-127000000D03*
X134620000Y-127000000D03*
X132080000Y-127000000D03*
X129540000Y-127000000D03*
X127000000Y-127000000D03*
X124460000Y-127000000D03*
X121920000Y-127000000D03*
X119380000Y-127000000D03*
X116840000Y-127000000D03*
X114300000Y-127000000D03*
X111760000Y-127000000D03*
X109220000Y-127000000D03*
X106680000Y-127000000D03*
X104140000Y-127000000D03*
X101600000Y-127000000D03*
X99060000Y-127000000D03*
%TD*%
D21*
%TO.C,R4*%
X121412000Y-102933000D03*
X121412000Y-101283000D03*
%TD*%
D11*
%TO.C,CR2*%
X173610000Y-82296000D03*
X176910000Y-82296000D03*
%TD*%
D15*
%TO.C,C3*%
X178865000Y-101600000D03*
X181815000Y-101600000D03*
%TD*%
D34*
%TO.C,U3*%
X176657000Y-87441000D03*
X175387000Y-87441000D03*
X174117000Y-87441000D03*
X172847000Y-87441000D03*
X172847000Y-92391000D03*
X174117000Y-92391000D03*
X175387000Y-92391000D03*
X176657000Y-92391000D03*
D35*
X174752000Y-89916000D03*
%TD*%
D22*
%TO.C,J3*%
X180340000Y-116840000D03*
D23*
X177800000Y-116840000D03*
X175260000Y-116840000D03*
X172720000Y-116840000D03*
X170180000Y-116840000D03*
X167640000Y-116840000D03*
X165100000Y-116840000D03*
X162560000Y-116840000D03*
X160020000Y-116840000D03*
X157480000Y-116840000D03*
X154940000Y-116840000D03*
X152400000Y-116840000D03*
X149860000Y-116840000D03*
X147320000Y-116840000D03*
X144780000Y-116840000D03*
X142240000Y-116840000D03*
X139700000Y-116840000D03*
X137160000Y-116840000D03*
X134620000Y-116840000D03*
X132080000Y-116840000D03*
X129540000Y-116840000D03*
X127000000Y-116840000D03*
X124460000Y-116840000D03*
X121920000Y-116840000D03*
X119380000Y-116840000D03*
X116840000Y-116840000D03*
X114300000Y-116840000D03*
X111760000Y-116840000D03*
X109220000Y-116840000D03*
X106680000Y-116840000D03*
X104140000Y-116840000D03*
X101600000Y-116840000D03*
X99060000Y-116840000D03*
%TD*%
D33*
%TO.C,R5*%
X115163600Y-87884000D03*
X115163600Y-89534000D03*
%TD*%
D36*
%TO.C,BT1*%
X113243000Y-58800000D03*
D37*
X176773000Y-58800000D03*
D36*
X168443000Y-42800000D03*
D38*
X180173000Y-50800000D03*
X101513000Y-50800000D03*
%TD*%
D14*
%TO.C,U2*%
X175940000Y-101981000D03*
X175940000Y-100711000D03*
X175940000Y-99441000D03*
X175940000Y-98171000D03*
X170516000Y-98171000D03*
X170516000Y-99441000D03*
X170516000Y-100711000D03*
X170516000Y-101981000D03*
%TD*%
D39*
%TO.C,Q1*%
X180406000Y-90658000D03*
X182306000Y-90658000D03*
X181356000Y-88158000D03*
%TD*%
D15*
%TO.C,C11*%
X165100000Y-93980000D03*
X168050000Y-93980000D03*
%TD*%
D24*
%TO.C,D3*%
X119862500Y-110490000D03*
X121437500Y-110490000D03*
%TD*%
D40*
%TO.C,IC1*%
X158246000Y-93728000D03*
X155956000Y-93728000D03*
X153666000Y-93728000D03*
D41*
X155956000Y-100328000D03*
%TD*%
D33*
%TO.C,R3*%
X117348000Y-87884000D03*
X117348000Y-89534000D03*
%TD*%
D15*
%TO.C,C7*%
X106475000Y-88011000D03*
X109425000Y-88011000D03*
%TD*%
D33*
%TO.C,R11*%
X112776000Y-87884000D03*
X112776000Y-89534000D03*
%TD*%
D14*
%TO.C,IC2*%
X157816000Y-81915000D03*
X157816000Y-83185000D03*
X157816000Y-84455000D03*
X157816000Y-85725000D03*
X163240000Y-85725000D03*
X163240000Y-84455000D03*
X163240000Y-83185000D03*
X163240000Y-81915000D03*
D42*
X160528000Y-83820000D03*
%TD*%
D43*
%TO.C,CR3*%
X179832000Y-106046000D03*
X179832000Y-109346000D03*
%TD*%
M02*
