PCBNEW-LibModule-V1  2022-04-17 22:27:56
# encoding utf-8
Units mm
$INDEX
SHT30DISB25KS
$EndINDEX
$MODULE SHT30DISB25KS
Po 0 0 0 15 625c865c 00000000 ~~
Li SHT30DISB25KS
Cd SHT30-DIS-B2.5KS-1
Kw Integrated Circuit
Sc 0
At SMD
AR 
Op 0 0 0
T0 -0.200 -0 1.27 1.27 0 0.254 N V 21 N "IC**"
T1 -0.200 -0 1.27 1.27 0 0.254 N I 21 N "SHT30DISB25KS"
DS -1.25 -1.25 1.25 -1.25 0.2 24
DS 1.25 -1.25 1.25 1.25 0.2 24
DS 1.25 1.25 -1.25 1.25 0.2 24
DS -1.25 1.25 -1.25 -1.25 0.2 24
DS -2.85 -2.25 2.45 -2.25 0.1 24
DS 2.45 -2.25 2.45 2.25 0.1 24
DS 2.45 2.25 -2.85 2.25 0.1 24
DS -2.85 2.25 -2.85 -2.25 0.1 24
DS -1.25 -1.25 1.175 -1.25 0.1 21
DS -1.25 1.25 1.25 1.25 0.1 21
DS -1.75 -0.75 -1.75 -0.75 0.1 21
DS -1.85 -0.75 -1.85 -0.75 0.1 21
DA -1.8 -0.75 -1.750 -0.75 -1800 0.1 21
DA -1.8 -0.75 -1.850 -0.75 -1800 0.1 21
$PAD
Po -1.175 -0.75
Sh "1" R 0.250 0.550 0 0 900
At SMD N 00888000
Ne 0 ""
$EndPAD
$PAD
Po -1.175 -0.25
Sh "2" R 0.250 0.550 0 0 900
At SMD N 00888000
Ne 0 ""
$EndPAD
$PAD
Po -1.175 0.25
Sh "3" R 0.250 0.550 0 0 900
At SMD N 00888000
Ne 0 ""
$EndPAD
$PAD
Po -1.175 0.75
Sh "4" R 0.250 0.550 0 0 900
At SMD N 00888000
Ne 0 ""
$EndPAD
$PAD
Po 1.175 0.75
Sh "5" R 0.250 0.550 0 0 900
At SMD N 00888000
Ne 0 ""
$EndPAD
$PAD
Po 1.175 0.25
Sh "6" R 0.250 0.550 0 0 900
At SMD N 00888000
Ne 0 ""
$EndPAD
$PAD
Po 1.175 -0.25
Sh "7" R 0.250 0.550 0 0 900
At SMD N 00888000
Ne 0 ""
$EndPAD
$PAD
Po 1.175 -0.75
Sh "8" R 0.250 0.550 0 0 900
At SMD N 00888000
Ne 0 ""
$EndPAD
$PAD
Po 0.000 -0
Sh "9" R 1.000 1.700 0 0 0
At SMD N 00888000
Ne 0 ""
$EndPAD
$EndMODULE SHT30DISB25KS
$EndLIBRARY
