PCBNEW-LibModule-V1  2022-03-20 15:00:42
# encoding utf-8
Units mm
$INDEX
SON50P250X250X100-9N-D
$EndINDEX
$MODULE SON50P250X250X100-9N-D
Po 0 0 0 15 6237419a 00000000 ~~
Li SON50P250X250X100-9N-D
Cd 8-DFN (2.5x2.5) -1
Kw Integrated Circuit
Sc 0
At SMD
AR 
Op 0 0 0
T0 0 0 1.27 1.27 0 0.254 N V 21 N "IC**"
T1 0 0 1.27 1.27 0 0.254 N I 21 N "SON50P250X250X100-9N-D"
DS -1.85 -1.55 1.85 -1.55 0.05 24
DS 1.85 -1.55 1.85 1.55 0.05 24
DS 1.85 1.55 -1.85 1.55 0.05 24
DS -1.85 1.55 -1.85 -1.55 0.05 24
DS -1.25 -1.25 1.25 -1.25 0.1 24
DS 1.25 -1.25 1.25 1.25 0.1 24
DS 1.25 1.25 -1.25 1.25 0.1 24
DS -1.25 1.25 -1.25 -1.25 0.1 24
DS -1.25 -0.625 -0.625 -1.25 0.1 24
DC -1.6 -1.4 -1.475 -1.4 0.254 21
$PAD
Po -1.2 -0.75
Sh "1" R 0.3 0.8 0 0 900
At SMD N 00888000
Ne 0 ""
$EndPAD
$PAD
Po -1.2 -0.25
Sh "2" R 0.3 0.8 0 0 900
At SMD N 00888000
Ne 0 ""
$EndPAD
$PAD
Po -1.2 0.25
Sh "3" R 0.3 0.8 0 0 900
At SMD N 00888000
Ne 0 ""
$EndPAD
$PAD
Po -1.2 0.75
Sh "4" R 0.3 0.8 0 0 900
At SMD N 00888000
Ne 0 ""
$EndPAD
$PAD
Po 1.2 0.75
Sh "5" R 0.3 0.8 0 0 900
At SMD N 00888000
Ne 0 ""
$EndPAD
$PAD
Po 1.2 0.25
Sh "6" R 0.3 0.8 0 0 900
At SMD N 00888000
Ne 0 ""
$EndPAD
$PAD
Po 1.2 -0.25
Sh "7" R 0.3 0.8 0 0 900
At SMD N 00888000
Ne 0 ""
$EndPAD
$PAD
Po 1.2 -0.75
Sh "8" R 0.3 0.8 0 0 900
At SMD N 00888000
Ne 0 ""
$EndPAD
$PAD
Po 0 0
Sh "9" R 1.2 1.9 0 0 0
At SMD N 00888000
Ne 0 ""
$EndPAD
$EndMODULE SON50P250X250X100-9N-D
$EndLIBRARY
