%!PS-Adobe-3.0
%%Creator: PCBNEW
%%CreationDate: Sun Mar 20 22:58:44 2022
%%Title: ()
%%Pages: 1
%%PageOrder: Ascend
%%BoundingBox: 0 0 596 842
%%DocumentMedia: A4 595 842 0 () ()
%%Orientation: Landscape
%%EndComments
%%BeginProlog
/line { newpath moveto lineto stroke } bind def
/cir0 { newpath 0 360 arc stroke } bind def
/cir1 { newpath 0 360 arc gsave fill grestore stroke } bind def
/cir2 { newpath 0 360 arc gsave fill grestore stroke } bind def
/arc0 { newpath arc stroke } bind def
/arc1 { newpath 4 index 4 index moveto arc closepath gsave fill
    grestore stroke } bind def
/arc2 { newpath 4 index 4 index moveto arc closepath gsave fill
    grestore stroke } bind def
/poly0 { stroke } bind def
/poly1 { closepath gsave fill grestore stroke } bind def
/poly2 { closepath gsave fill grestore stroke } bind def
/rect0 { rectstroke } bind def
/rect1 { rectfill } bind def
/rect2 { rectfill } bind def
/linemode0 { 0 setlinecap 0 setlinejoin 0 setlinewidth } bind def
/linemode1 { 1 setlinecap 1 setlinejoin } bind def
/dashedline { [200] 100 setdash } bind def
/solidline { [] 0 setdash } bind def
/phantomshow { moveto
    /KicadFont findfont 0.000001 scalefont setfont
    show } bind def
/textshow { gsave
    findfont exch scalefont setfont concat 1 scale 0 0 moveto show
    } bind def
/reencodefont {
  findfont dup length dict begin
  { 1 index /FID ne
    { def }
    { pop pop } ifelse
  } forall
  /Encoding ISOLatin1Encoding def
  currentdict
  end } bind def
/KicadFont /Helvetica reencodefont definefont pop
/KicadFont-Bold /Helvetica-Bold reencodefont definefont pop
/KicadFont-Oblique /Helvetica-Oblique reencodefont definefont pop
/KicadFont-BoldOblique /Helvetica-BoldOblique reencodefont definefont pop
%%EndProlog
%%Page: 1 1
%%BeginPageSetup
gsave
0.0072 0.0072 scale
linemode1
82680 0 translate 90 rotate
132.996 setlinewidth
%%EndPageSetup
0 0 0 setrgbcolor
66.4982 setlinewidth
newpath
27217.5 35073.8 moveto
89712.5 35073.8 lineto
stroke
newpath
89712.5 35073.8 moveto
89712.5 80678.2 lineto
stroke
newpath
89712.5 80678.2 moveto
27217.5 80678.2 lineto
stroke
newpath
27217.5 80678.2 moveto
27217.5 35073.8 lineto
stroke
132.996 setlinewidth
78.7399 setlinewidth
0 0 0 setrgbcolor
0 0 0 setrgbcolor
newpath
28198.5 33818.2 moveto
28198.5 34605.6 lineto
28386 34605.6 lineto
28498.4 34568.1 lineto
28573.4 34493.1 lineto
28610.9 34418.1 lineto
28648.4 34268.1 lineto
28648.4 34155.6 lineto
28610.9 34005.6 lineto
28573.4 33930.6 lineto
28498.4 33855.7 lineto
28386 33818.2 lineto
28198.5 33818.2 lineto
stroke
newpath
28985.9 33818.2 moveto
28985.9 34343.1 lineto
stroke
newpath
28985.9 34193.1 moveto
29023.4 34268.1 lineto
29060.9 34305.6 lineto
29135.9 34343.1 lineto
29210.8 34343.1 lineto
stroke
newpath
29473.3 33818.2 moveto
29473.3 34343.1 lineto
stroke
newpath
29473.3 34605.6 moveto
29435.8 34568.1 lineto
29473.3 34530.6 lineto
29510.8 34568.1 lineto
29473.3 34605.6 lineto
29473.3 34530.6 lineto
stroke
newpath
29960.8 33818.2 moveto
29885.8 33855.7 lineto
29848.3 33930.6 lineto
29848.3 34605.6 lineto
stroke
newpath
30373.2 33818.2 moveto
30298.2 33855.7 lineto
30260.7 33930.6 lineto
30260.7 34605.6 lineto
stroke
newpath
31273.1 33818.2 moveto
31273.1 34605.6 lineto
31535.6 34043.1 lineto
31798 34605.6 lineto
31798 33818.2 lineto
stroke
newpath
32510.4 33818.2 moveto
32510.4 34230.6 lineto
32472.9 34305.6 lineto
32398 34343.1 lineto
32248 34343.1 lineto
32173 34305.6 lineto
stroke
newpath
32510.4 33855.7 moveto
32435.4 33818.2 lineto
32248 33818.2 lineto
32173 33855.7 lineto
32135.5 33930.6 lineto
32135.5 34005.6 lineto
32173 34080.6 lineto
32248 34118.1 lineto
32435.4 34118.1 lineto
32510.4 34155.6 lineto
stroke
newpath
32885.4 34343.1 moveto
32885.4 33555.7 lineto
stroke
newpath
32885.4 34305.6 moveto
32960.4 34343.1 lineto
33110.4 34343.1 lineto
33185.4 34305.6 lineto
33222.8 34268.1 lineto
33260.3 34193.1 lineto
33260.3 33968.1 lineto
33222.8 33893.1 lineto
33185.4 33855.7 lineto
33110.4 33818.2 lineto
32960.4 33818.2 lineto
32885.4 33855.7 lineto
stroke
newpath
33597.8 33893.1 moveto
33635.3 33855.7 lineto
33597.8 33818.2 lineto
33560.3 33855.7 lineto
33597.8 33893.1 lineto
33597.8 33818.2 lineto
stroke
newpath
33597.8 34305.6 moveto
33635.3 34268.1 lineto
33597.8 34230.6 lineto
33560.3 34268.1 lineto
33597.8 34305.6 lineto
33597.8 34230.6 lineto
stroke
showpage
grestore
%%EOF
