%!PS-Adobe-3.0
%%Creator: PCBNEW
%%CreationDate: Sun Mar 20 22:58:44 2022
%%Title: ()
%%Pages: 1
%%PageOrder: Ascend
%%BoundingBox: 0 0 596 842
%%DocumentMedia: A4 595 842 0 () ()
%%Orientation: Landscape
%%EndComments
%%BeginProlog
/line { newpath moveto lineto stroke } bind def
/cir0 { newpath 0 360 arc stroke } bind def
/cir1 { newpath 0 360 arc gsave fill grestore stroke } bind def
/cir2 { newpath 0 360 arc gsave fill grestore stroke } bind def
/arc0 { newpath arc stroke } bind def
/arc1 { newpath 4 index 4 index moveto arc closepath gsave fill
    grestore stroke } bind def
/arc2 { newpath 4 index 4 index moveto arc closepath gsave fill
    grestore stroke } bind def
/poly0 { stroke } bind def
/poly1 { closepath gsave fill grestore stroke } bind def
/poly2 { closepath gsave fill grestore stroke } bind def
/rect0 { rectstroke } bind def
/rect1 { rectfill } bind def
/rect2 { rectfill } bind def
/linemode0 { 0 setlinecap 0 setlinejoin 0 setlinewidth } bind def
/linemode1 { 1 setlinecap 1 setlinejoin } bind def
/dashedline { [200] 100 setdash } bind def
/solidline { [] 0 setdash } bind def
/phantomshow { moveto
    /KicadFont findfont 0.000001 scalefont setfont
    show } bind def
/textshow { gsave
    findfont exch scalefont setfont concat 1 scale 0 0 moveto show
    } bind def
/reencodefont {
  findfont dup length dict begin
  { 1 index /FID ne
    { def }
    { pop pop } ifelse
  } forall
  /Encoding ISOLatin1Encoding def
  currentdict
  end } bind def
/KicadFont /Helvetica reencodefont definefont pop
/KicadFont-Bold /Helvetica-Bold reencodefont definefont pop
/KicadFont-Oblique /Helvetica-Oblique reencodefont definefont pop
/KicadFont-BoldOblique /Helvetica-BoldOblique reencodefont definefont pop
%%EndProlog
%%Page: 1 1
%%BeginPageSetup
gsave
0.0072 0.0072 scale
linemode1
82680 0 translate 90 rotate
132.996 setlinewidth
%%EndPageSetup
0 0 0 setrgbcolor
66.4982 setlinewidth
newpath
27217.5 35073.8 moveto
89712.5 35073.8 lineto
stroke
newpath
89712.5 35073.8 moveto
89712.5 80678.2 lineto
stroke
newpath
89712.5 80678.2 moveto
27217.5 80678.2 lineto
stroke
newpath
27217.5 80678.2 moveto
27217.5 35073.8 lineto
stroke
132.996 setlinewidth
26.5993 setlinewidth
newpath
36783.6 52097.3 moveto
37049.6 51831.3 lineto
stroke
newpath
37049.6 52097.3 moveto
36783.6 51831.3 lineto
stroke
newpath
42452.2 57330.7 moveto
42718.2 57064.7 lineto
stroke
newpath
42718.2 57330.7 moveto
42452.2 57064.7 lineto
stroke
newpath
43975 57164.5 moveto
44241 56898.5 lineto
stroke
newpath
44241 57164.5 moveto
43975 56898.5 lineto
stroke
newpath
44819.6 55475.4 moveto
45085.6 55209.4 lineto
stroke
newpath
45085.6 55475.4 moveto
44819.6 55209.4 lineto
stroke
newpath
45664.1 55475.4 moveto
45930.1 55209.4 lineto
stroke
newpath
45930.1 55475.4 moveto
45664.1 55209.4 lineto
stroke
newpath
47353.1 60542.6 moveto
47619.1 60276.6 lineto
stroke
newpath
47619.1 60542.6 moveto
47353.1 60276.6 lineto
stroke
newpath
56642.9 56412.4 moveto
56908.9 56146.4 lineto
stroke
newpath
56908.9 56412.4 moveto
56642.9 56146.4 lineto
stroke
newpath
60865.6 55475.4 moveto
61131.6 55209.4 lineto
stroke
newpath
61131.6 55475.4 moveto
60865.6 55209.4 lineto
stroke
newpath
62554.6 54630.9 moveto
62820.6 54364.9 lineto
stroke
newpath
62820.6 54630.9 moveto
62554.6 54364.9 lineto
stroke
newpath
63399.2 54630.9 moveto
63665.2 54364.9 lineto
stroke
newpath
63665.2 54630.9 moveto
63399.2 54364.9 lineto
stroke
newpath
64708.9 54630.9 moveto
64974.8 54364.9 lineto
stroke
newpath
64974.8 54630.9 moveto
64708.9 54364.9 lineto
stroke
newpath
65088.2 63076.2 moveto
65354.2 62810.2 lineto
stroke
newpath
65354.2 63076.2 moveto
65088.2 62810.2 lineto
stroke
newpath
67621.8 64765.2 moveto
67887.8 64499.2 lineto
stroke
newpath
67887.8 64765.2 moveto
67621.8 64499.2 lineto
stroke
newpath
67621.8 53786.4 moveto
67887.8 53520.4 lineto
stroke
newpath
67887.8 53786.4 moveto
67621.8 53520.4 lineto
stroke
newpath
68466.3 62231.6 moveto
68732.3 61965.6 lineto
stroke
newpath
68732.3 62231.6 moveto
68466.3 61965.6 lineto
stroke
newpath
68466.3 60542.6 moveto
68732.3 60276.6 lineto
stroke
newpath
68732.3 60542.6 moveto
68466.3 60276.6 lineto
stroke
newpath
68466.3 58298.3 moveto
68732.3 58032.3 lineto
stroke
newpath
68732.3 58298.3 moveto
68466.3 58032.3 lineto
stroke
newpath
68466.3 56319.9 moveto
68732.3 56053.9 lineto
stroke
newpath
68732.3 56319.9 moveto
68466.3 56053.9 lineto
stroke
newpath
69323.8 52941.8 moveto
69589.8 52675.8 lineto
stroke
newpath
69589.8 52941.8 moveto
69323.8 52675.8 lineto
stroke
newpath
69323.8 51252.8 moveto
69589.8 50986.8 lineto
stroke
newpath
69589.8 51252.8 moveto
69323.8 50986.8 lineto
stroke
newpath
73087.6 59418.4 moveto
73353.6 59152.4 lineto
stroke
newpath
73353.6 59418.4 moveto
73087.6 59152.4 lineto
stroke
newpath
73533.5 58853.5 moveto
73799.5 58587.5 lineto
stroke
newpath
73799.5 58853.5 moveto
73533.5 58587.5 lineto
stroke
newpath
73533.5 56319.9 moveto
73799.5 56053.9 lineto
stroke
newpath
73799.5 56319.9 moveto
73533.5 56053.9 lineto
stroke
newpath
74378 60542.6 moveto
74644 60276.6 lineto
stroke
newpath
74644 60542.6 moveto
74378 60276.6 lineto
stroke
newpath
76911.6 63076.2 moveto
77177.6 62810.2 lineto
stroke
newpath
77177.6 63076.2 moveto
76911.6 62810.2 lineto
stroke
newpath
79445.2 51252.8 moveto
79711.2 50986.8 lineto
stroke
newpath
79711.2 51252.8 moveto
79445.2 50986.8 lineto
stroke
newpath
80289.7 58853.5 moveto
80555.7 58587.5 lineto
stroke
newpath
80555.7 58853.5 moveto
80289.7 58587.5 lineto
stroke
newpath
80344.4 63006.4 moveto
80610.4 62740.4 lineto
stroke
newpath
80610.4 63006.4 moveto
80344.4 62740.4 lineto
stroke
newpath
81134.3 66697.6 moveto
81400.2 66431.7 lineto
stroke
newpath
81400.2 66697.6 moveto
81134.3 66431.7 lineto
stroke
newpath
81134.3 45863.1 moveto
81400.2 45597.1 lineto
stroke
newpath
81400.2 45863.1 moveto
81134.3 45597.1 lineto
stroke
newpath
81978.8 45863.1 moveto
82244.8 45597.1 lineto
stroke
newpath
82244.8 45863.1 moveto
81978.8 45597.1 lineto
stroke
newpath
82823.3 44496.6 moveto
83089.3 44230.6 lineto
stroke
newpath
83089.3 44496.6 moveto
82823.3 44230.6 lineto
stroke
newpath
84512.4 48861.8 moveto
84778.4 48595.8 lineto
stroke
newpath
84778.4 48861.8 moveto
84512.4 48595.8 lineto
stroke
39.8989 setlinewidth
84645.4 59807.8 199.495 cir0
132.996 setlinewidth
newpath
84412.6 59674.8 moveto
84878.1 59674.8 lineto
stroke
newpath
84412.6 59940.8 moveto
84878.1 59940.8 lineto
stroke
84878.1 59807.8 132.996 270 450 arc0
84412.6 59807.8 132.996 90 270 arc0
39.8989 setlinewidth
84645.4 54255.2 199.495 cir0
132.996 setlinewidth
newpath
84412.6 54122.2 moveto
84878.1 54122.2 lineto
stroke
newpath
84412.6 54388.2 moveto
84878.1 54388.2 lineto
stroke
84878.1 54255.2 132.996 270 450 arc0
84412.6 54255.2 132.996 90 270 arc0
43.2239 setlinewidth
newpath
82650.4 58727.2 moveto
82650.4 58294.9 lineto
stroke
newpath
82434.3 58511.1 moveto
82866.5 58511.1 lineto
stroke
132.996 setlinewidth
newpath
82583.9 58361.4 moveto
82716.9 58361.4 lineto
stroke
newpath
82583.9 58660.7 moveto
82716.9 58660.7 lineto
stroke
82716.9 58511.1 149.621 270 450 arc0
82583.9 58511.1 149.621 90 270 arc0
43.2239 setlinewidth
newpath
82650.4 55768 moveto
82650.4 55335.8 lineto
stroke
newpath
82434.3 55551.9 moveto
82866.5 55551.9 lineto
stroke
132.996 setlinewidth
newpath
82583.9 55402.3 moveto
82716.9 55402.3 lineto
stroke
newpath
82583.9 55701.5 moveto
82716.9 55701.5 lineto
stroke
82716.9 55551.9 149.621 270 450 arc0
82583.9 55551.9 149.621 90 270 arc0
66.4982 setlinewidth
newpath
30830.7 77065 moveto
30830.7 77535.2 lineto
30360.5 77535.2 lineto
30360.5 77065 lineto
30830.7 77065 lineto
poly0
newpath
30830.7 70308.8 moveto
30830.7 70779 lineto
30360.5 70779 lineto
30360.5 70308.8 lineto
30830.7 70308.8 lineto
poly0
newpath
30830.7 43283.9 moveto
30830.7 43754.1 lineto
30360.5 43754.1 lineto
30360.5 43283.9 lineto
30830.7 43283.9 lineto
poly0
newpath
30830.7 36527.7 moveto
30830.7 36997.9 lineto
30360.5 36997.9 lineto
30360.5 36527.7 lineto
30830.7 36527.7 lineto
poly0
newpath
31668.6 64397.1 moveto
31668.6 64867.3 lineto
31198.4 64867.3 lineto
31198.4 64397.1 lineto
31668.6 64397.1 lineto
poly0
newpath
32519.8 77065 moveto
32519.8 77535.2 lineto
32049.5 77535.2 lineto
32049.5 77065 lineto
32519.8 77065 lineto
poly0
newpath
32519.8 70308.8 moveto
32519.8 70779 lineto
32049.5 70779 lineto
32049.5 70308.8 lineto
32519.8 70308.8 lineto
poly0
newpath
32519.8 43283.9 moveto
32519.8 43754.1 lineto
32049.5 43754.1 lineto
32049.5 43283.9 lineto
32519.8 43283.9 lineto
poly0
newpath
32519.8 36527.7 moveto
32519.8 36997.9 lineto
32049.5 36997.9 lineto
32049.5 36527.7 lineto
32519.8 36527.7 lineto
poly0
newpath
33357.6 64397.1 moveto
33357.6 64867.3 lineto
32887.4 64867.3 lineto
32887.4 64397.1 lineto
33357.6 64397.1 lineto
poly0
newpath
34208.8 77065 moveto
34208.8 77535.2 lineto
33738.6 77535.2 lineto
33738.6 77065 lineto
34208.8 77065 lineto
poly0
newpath
34208.8 70308.8 moveto
34208.8 70779 lineto
33738.6 70779 lineto
33738.6 70308.8 lineto
34208.8 70308.8 lineto
poly0
newpath
34208.8 43283.9 moveto
34208.8 43754.1 lineto
33738.6 43754.1 lineto
33738.6 43283.9 lineto
34208.8 43283.9 lineto
poly0
newpath
34208.8 36527.7 moveto
34208.8 36997.9 lineto
33738.6 36997.9 lineto
33738.6 36527.7 lineto
34208.8 36527.7 lineto
poly0
newpath
35046.7 64397.1 moveto
35046.7 64867.3 lineto
34576.5 64867.3 lineto
34576.5 64397.1 lineto
35046.7 64397.1 lineto
poly0
newpath
35897.9 77065 moveto
35897.9 77535.2 lineto
35427.6 77535.2 lineto
35427.6 77065 lineto
35897.9 77065 lineto
poly0
newpath
35897.9 70308.8 moveto
35897.9 70779 lineto
35427.6 70779 lineto
35427.6 70308.8 lineto
35897.9 70308.8 lineto
poly0
newpath
35897.9 43283.9 moveto
35897.9 43754.1 lineto
35427.6 43754.1 lineto
35427.6 43283.9 lineto
35897.9 43283.9 lineto
poly0
newpath
35897.9 36527.7 moveto
35897.9 36997.9 lineto
35427.6 36997.9 lineto
35427.6 36527.7 lineto
35897.9 36527.7 lineto
poly0
newpath
36735.7 64397.1 moveto
36735.7 64867.3 lineto
36265.5 64867.3 lineto
36265.5 64397.1 lineto
36735.7 64397.1 lineto
poly0
newpath
37586.9 77065 moveto
37586.9 77535.2 lineto
37116.7 77535.2 lineto
37116.7 77065 lineto
37586.9 77065 lineto
poly0
newpath
37586.9 70308.8 moveto
37586.9 70779 lineto
37116.7 70779 lineto
37116.7 70308.8 lineto
37586.9 70308.8 lineto
poly0
newpath
37586.9 43283.9 moveto
37586.9 43754.1 lineto
37116.7 43754.1 lineto
37116.7 43283.9 lineto
37586.9 43283.9 lineto
poly0
newpath
37586.9 36527.7 moveto
37586.9 36997.9 lineto
37116.7 36997.9 lineto
37116.7 36527.7 lineto
37586.9 36527.7 lineto
poly0
newpath
39276 77065 moveto
39276 77535.2 lineto
38805.8 77535.2 lineto
38805.8 77065 lineto
39276 77065 lineto
poly0
newpath
39276 70308.8 moveto
39276 70779 lineto
38805.8 70779 lineto
38805.8 70308.8 lineto
39276 70308.8 lineto
poly0
newpath
39276 43283.9 moveto
39276 43754.1 lineto
38805.8 43754.1 lineto
38805.8 43283.9 lineto
39276 43283.9 lineto
poly0
newpath
39276 36527.7 moveto
39276 36997.9 lineto
38805.8 36997.9 lineto
38805.8 36527.7 lineto
39276 36527.7 lineto
poly0
newpath
40958.4 64397.1 moveto
40958.4 64867.3 lineto
40488.2 64867.3 lineto
40488.2 64397.1 lineto
40958.4 64397.1 lineto
poly0
newpath
40965 77065 moveto
40965 77535.2 lineto
40494.8 77535.2 lineto
40494.8 77065 lineto
40965 77065 lineto
poly0
newpath
40965 70308.8 moveto
40965 70779 lineto
40494.8 70779 lineto
40494.8 70308.8 lineto
40965 70308.8 lineto
poly0
newpath
40965 43283.9 moveto
40965 43754.1 lineto
40494.8 43754.1 lineto
40494.8 43283.9 lineto
40965 43283.9 lineto
poly0
newpath
40965 36527.7 moveto
40965 36997.9 lineto
40494.8 36997.9 lineto
40494.8 36527.7 lineto
40965 36527.7 lineto
poly0
newpath
42647.4 64397.1 moveto
42647.4 64867.3 lineto
42177.2 64867.3 lineto
42177.2 64397.1 lineto
42647.4 64397.1 lineto
poly0
newpath
42654.1 77065 moveto
42654.1 77535.2 lineto
42183.9 77535.2 lineto
42183.9 77065 lineto
42654.1 77065 lineto
poly0
newpath
42654.1 70308.8 moveto
42654.1 70779 lineto
42183.9 70779 lineto
42183.9 70308.8 lineto
42654.1 70308.8 lineto
poly0
newpath
42654.1 43283.9 moveto
42654.1 43754.1 lineto
42183.9 43754.1 lineto
42183.9 43283.9 lineto
42654.1 43283.9 lineto
poly0
newpath
42654.1 36527.7 moveto
42654.1 36997.9 lineto
42183.9 36997.9 lineto
42183.9 36527.7 lineto
42654.1 36527.7 lineto
poly0
newpath
44336.5 64397.1 moveto
44336.5 64867.3 lineto
43866.3 64867.3 lineto
43866.3 64397.1 lineto
44336.5 64397.1 lineto
poly0
newpath
44343.1 77065 moveto
44343.1 77535.2 lineto
43872.9 77535.2 lineto
43872.9 77065 lineto
44343.1 77065 lineto
poly0
newpath
44343.1 70308.8 moveto
44343.1 70779 lineto
43872.9 70779 lineto
43872.9 70308.8 lineto
44343.1 70308.8 lineto
poly0
newpath
44343.1 43283.9 moveto
44343.1 43754.1 lineto
43872.9 43754.1 lineto
43872.9 43283.9 lineto
44343.1 43283.9 lineto
poly0
newpath
44343.1 36527.7 moveto
44343.1 36997.9 lineto
43872.9 36997.9 lineto
43872.9 36527.7 lineto
44343.1 36527.7 lineto
poly0
newpath
46025.5 64397.1 moveto
46025.5 64867.3 lineto
45555.3 64867.3 lineto
45555.3 64397.1 lineto
46025.5 64397.1 lineto
poly0
newpath
46032.2 77065 moveto
46032.2 77535.2 lineto
45562 77535.2 lineto
45562 77065 lineto
46032.2 77065 lineto
poly0
newpath
46032.2 70308.8 moveto
46032.2 70779 lineto
45562 70779 lineto
45562 70308.8 lineto
46032.2 70308.8 lineto
poly0
newpath
46032.2 43283.9 moveto
46032.2 43754.1 lineto
45562 43754.1 lineto
45562 43283.9 lineto
46032.2 43283.9 lineto
poly0
newpath
46032.2 36527.7 moveto
46032.2 36997.9 lineto
45562 36997.9 lineto
45562 36527.7 lineto
46032.2 36527.7 lineto
poly0
newpath
47721.2 77065 moveto
47721.2 77535.2 lineto
47251 77535.2 lineto
47251 77065 lineto
47721.2 77065 lineto
poly0
newpath
47721.2 70308.8 moveto
47721.2 70779 lineto
47251 70779 lineto
47251 70308.8 lineto
47721.2 70308.8 lineto
poly0
newpath
47721.2 43283.9 moveto
47721.2 43754.1 lineto
47251 43754.1 lineto
47251 43283.9 lineto
47721.2 43283.9 lineto
poly0
newpath
47721.2 36527.7 moveto
47721.2 36997.9 lineto
47251 36997.9 lineto
47251 36527.7 lineto
47721.2 36527.7 lineto
poly0
newpath
49410.3 77065 moveto
49410.3 77535.2 lineto
48940.1 77535.2 lineto
48940.1 77065 lineto
49410.3 77065 lineto
poly0
newpath
49410.3 70308.8 moveto
49410.3 70779 lineto
48940.1 70779 lineto
48940.1 70308.8 lineto
49410.3 70308.8 lineto
poly0
newpath
49410.3 43283.9 moveto
49410.3 43754.1 lineto
48940.1 43754.1 lineto
48940.1 43283.9 lineto
49410.3 43283.9 lineto
poly0
newpath
49410.3 36527.7 moveto
49410.3 36997.9 lineto
48940.1 36997.9 lineto
48940.1 36527.7 lineto
49410.3 36527.7 lineto
poly0
newpath
51099.4 77065 moveto
51099.4 77535.2 lineto
50629.1 77535.2 lineto
50629.1 77065 lineto
51099.4 77065 lineto
poly0
newpath
51099.4 70308.8 moveto
51099.4 70779 lineto
50629.1 70779 lineto
50629.1 70308.8 lineto
51099.4 70308.8 lineto
poly0
newpath
51099.4 43283.9 moveto
51099.4 43754.1 lineto
50629.1 43754.1 lineto
50629.1 43283.9 lineto
51099.4 43283.9 lineto
poly0
newpath
51099.4 36527.7 moveto
51099.4 36997.9 lineto
50629.1 36997.9 lineto
50629.1 36527.7 lineto
51099.4 36527.7 lineto
poly0
newpath
52788.4 77065 moveto
52788.4 77535.2 lineto
52318.2 77535.2 lineto
52318.2 77065 lineto
52788.4 77065 lineto
poly0
newpath
52788.4 70308.8 moveto
52788.4 70779 lineto
52318.2 70779 lineto
52318.2 70308.8 lineto
52788.4 70308.8 lineto
poly0
newpath
52788.4 43283.9 moveto
52788.4 43754.1 lineto
52318.2 43754.1 lineto
52318.2 43283.9 lineto
52788.4 43283.9 lineto
poly0
newpath
52788.4 36527.7 moveto
52788.4 36997.9 lineto
52318.2 36997.9 lineto
52318.2 36527.7 lineto
52788.4 36527.7 lineto
poly0
newpath
54477.5 77065 moveto
54477.5 77535.2 lineto
54007.3 77535.2 lineto
54007.3 77065 lineto
54477.5 77065 lineto
poly0
newpath
54477.5 70308.8 moveto
54477.5 70779 lineto
54007.3 70779 lineto
54007.3 70308.8 lineto
54477.5 70308.8 lineto
poly0
newpath
54477.5 43283.9 moveto
54477.5 43754.1 lineto
54007.3 43754.1 lineto
54007.3 43283.9 lineto
54477.5 43283.9 lineto
poly0
newpath
54477.5 36527.7 moveto
54477.5 36997.9 lineto
54007.3 36997.9 lineto
54007.3 36527.7 lineto
54477.5 36527.7 lineto
poly0
newpath
56166.5 77065 moveto
56166.5 77535.2 lineto
55696.3 77535.2 lineto
55696.3 77065 lineto
56166.5 77065 lineto
poly0
newpath
56166.5 70308.8 moveto
56166.5 70779 lineto
55696.3 70779 lineto
55696.3 70308.8 lineto
56166.5 70308.8 lineto
poly0
newpath
56166.5 43283.9 moveto
56166.5 43754.1 lineto
55696.3 43754.1 lineto
55696.3 43283.9 lineto
56166.5 43283.9 lineto
poly0
newpath
56166.5 36527.7 moveto
56166.5 36997.9 lineto
55696.3 36997.9 lineto
55696.3 36527.7 lineto
56166.5 36527.7 lineto
poly0
newpath
57855.6 77065 moveto
57855.6 77535.2 lineto
57385.4 77535.2 lineto
57385.4 77065 lineto
57855.6 77065 lineto
poly0
newpath
57855.6 70308.8 moveto
57855.6 70779 lineto
57385.4 70779 lineto
57385.4 70308.8 lineto
57855.6 70308.8 lineto
poly0
newpath
57855.6 43283.9 moveto
57855.6 43754.1 lineto
57385.4 43754.1 lineto
57385.4 43283.9 lineto
57855.6 43283.9 lineto
poly0
newpath
57855.6 36527.7 moveto
57855.6 36997.9 lineto
57385.4 36997.9 lineto
57385.4 36527.7 lineto
57855.6 36527.7 lineto
poly0
newpath
59544.6 77065 moveto
59544.6 77535.2 lineto
59074.4 77535.2 lineto
59074.4 77065 lineto
59544.6 77065 lineto
poly0
newpath
59544.6 70308.8 moveto
59544.6 70779 lineto
59074.4 70779 lineto
59074.4 70308.8 lineto
59544.6 70308.8 lineto
poly0
newpath
59544.6 43283.9 moveto
59544.6 43754.1 lineto
59074.4 43754.1 lineto
59074.4 43283.9 lineto
59544.6 43283.9 lineto
poly0
newpath
59544.6 36527.7 moveto
59544.6 36997.9 lineto
59074.4 36997.9 lineto
59074.4 36527.7 lineto
59544.6 36527.7 lineto
poly0
newpath
61233.7 77065 moveto
61233.7 77535.2 lineto
60763.5 77535.2 lineto
60763.5 77065 lineto
61233.7 77065 lineto
poly0
newpath
61233.7 70308.8 moveto
61233.7 70779 lineto
60763.5 70779 lineto
60763.5 70308.8 lineto
61233.7 70308.8 lineto
poly0
newpath
61233.7 43283.9 moveto
61233.7 43754.1 lineto
60763.5 43754.1 lineto
60763.5 43283.9 lineto
61233.7 43283.9 lineto
poly0
newpath
61233.7 36527.7 moveto
61233.7 36997.9 lineto
60763.5 36997.9 lineto
60763.5 36527.7 lineto
61233.7 36527.7 lineto
poly0
newpath
62922.7 77065 moveto
62922.7 77535.2 lineto
62452.5 77535.2 lineto
62452.5 77065 lineto
62922.7 77065 lineto
poly0
newpath
62922.7 70308.8 moveto
62922.7 70779 lineto
62452.5 70779 lineto
62452.5 70308.8 lineto
62922.7 70308.8 lineto
poly0
newpath
62922.7 43283.9 moveto
62922.7 43754.1 lineto
62452.5 43754.1 lineto
62452.5 43283.9 lineto
62922.7 43283.9 lineto
poly0
newpath
62922.7 36527.7 moveto
62922.7 36997.9 lineto
62452.5 36997.9 lineto
62452.5 36527.7 lineto
62922.7 36527.7 lineto
poly0
newpath
64611.8 77065 moveto
64611.8 77535.2 lineto
64141.6 77535.2 lineto
64141.6 77065 lineto
64611.8 77065 lineto
poly0
newpath
64611.8 70308.8 moveto
64611.8 70779 lineto
64141.6 70779 lineto
64141.6 70308.8 lineto
64611.8 70308.8 lineto
poly0
newpath
64611.8 43283.9 moveto
64611.8 43754.1 lineto
64141.6 43754.1 lineto
64141.6 43283.9 lineto
64611.8 43283.9 lineto
poly0
newpath
64611.8 36527.7 moveto
64611.8 36997.9 lineto
64141.6 36997.9 lineto
64141.6 36527.7 lineto
64611.8 36527.7 lineto
poly0
newpath
66300.9 77065 moveto
66300.9 77535.2 lineto
65830.6 77535.2 lineto
65830.6 77065 lineto
66300.9 77065 lineto
poly0
newpath
66300.9 70308.8 moveto
66300.9 70779 lineto
65830.6 70779 lineto
65830.6 70308.8 lineto
66300.9 70308.8 lineto
poly0
newpath
66300.9 43283.9 moveto
66300.9 43754.1 lineto
65830.6 43754.1 lineto
65830.6 43283.9 lineto
66300.9 43283.9 lineto
poly0
newpath
66300.9 36527.7 moveto
66300.9 36997.9 lineto
65830.6 36997.9 lineto
65830.6 36527.7 lineto
66300.9 36527.7 lineto
poly0
newpath
67989.9 77065 moveto
67989.9 77535.2 lineto
67519.7 77535.2 lineto
67519.7 77065 lineto
67989.9 77065 lineto
poly0
newpath
67989.9 70308.8 moveto
67989.9 70779 lineto
67519.7 70779 lineto
67519.7 70308.8 lineto
67989.9 70308.8 lineto
poly0
newpath
67989.9 43283.9 moveto
67989.9 43754.1 lineto
67519.7 43754.1 lineto
67519.7 43283.9 lineto
67989.9 43283.9 lineto
poly0
newpath
67989.9 36527.7 moveto
67989.9 36997.9 lineto
67519.7 36997.9 lineto
67519.7 36527.7 lineto
67989.9 36527.7 lineto
poly0
newpath
69679 77065 moveto
69679 77535.2 lineto
69208.8 77535.2 lineto
69208.8 77065 lineto
69679 77065 lineto
poly0
newpath
69679 70308.8 moveto
69679 70779 lineto
69208.8 70779 lineto
69208.8 70308.8 lineto
69679 70308.8 lineto
poly0
newpath
69679 43283.9 moveto
69679 43754.1 lineto
69208.8 43754.1 lineto
69208.8 43283.9 lineto
69679 43283.9 lineto
poly0
newpath
69679 36527.7 moveto
69679 36997.9 lineto
69208.8 36997.9 lineto
69208.8 36527.7 lineto
69679 36527.7 lineto
poly0
newpath
71368 77065 moveto
71368 77535.2 lineto
70897.8 77535.2 lineto
70897.8 77065 lineto
71368 77065 lineto
poly0
newpath
71368 70308.8 moveto
71368 70779 lineto
70897.8 70779 lineto
70897.8 70308.8 lineto
71368 70308.8 lineto
poly0
newpath
71368 43283.9 moveto
71368 43754.1 lineto
70897.8 43754.1 lineto
70897.8 43283.9 lineto
71368 43283.9 lineto
poly0
newpath
71368 36527.7 moveto
71368 36997.9 lineto
70897.8 36997.9 lineto
70897.8 36527.7 lineto
71368 36527.7 lineto
poly0
newpath
73057.1 77065 moveto
73057.1 77535.2 lineto
72586.9 77535.2 lineto
72586.9 77065 lineto
73057.1 77065 lineto
poly0
newpath
73057.1 70308.8 moveto
73057.1 70779 lineto
72586.9 70779 lineto
72586.9 70308.8 lineto
73057.1 70308.8 lineto
poly0
newpath
73057.1 43283.9 moveto
73057.1 43754.1 lineto
72586.9 43754.1 lineto
72586.9 43283.9 lineto
73057.1 43283.9 lineto
poly0
newpath
73057.1 36527.7 moveto
73057.1 36997.9 lineto
72586.9 36997.9 lineto
72586.9 36527.7 lineto
73057.1 36527.7 lineto
poly0
newpath
74746.1 77065 moveto
74746.1 77535.2 lineto
74275.9 77535.2 lineto
74275.9 77065 lineto
74746.1 77065 lineto
poly0
newpath
74746.1 70308.8 moveto
74746.1 70779 lineto
74275.9 70779 lineto
74275.9 70308.8 lineto
74746.1 70308.8 lineto
poly0
newpath
74746.1 43283.9 moveto
74746.1 43754.1 lineto
74275.9 43754.1 lineto
74275.9 43283.9 lineto
74746.1 43283.9 lineto
poly0
newpath
74746.1 36527.7 moveto
74746.1 36997.9 lineto
74275.9 36997.9 lineto
74275.9 36527.7 lineto
74746.1 36527.7 lineto
poly0
newpath
76435.2 77065 moveto
76435.2 77535.2 lineto
75965 77535.2 lineto
75965 77065 lineto
76435.2 77065 lineto
poly0
newpath
76435.2 70308.8 moveto
76435.2 70779 lineto
75965 70779 lineto
75965 70308.8 lineto
76435.2 70308.8 lineto
poly0
newpath
76435.2 43283.9 moveto
76435.2 43754.1 lineto
75965 43754.1 lineto
75965 43283.9 lineto
76435.2 43283.9 lineto
poly0
newpath
76435.2 36527.7 moveto
76435.2 36997.9 lineto
75965 36997.9 lineto
75965 36527.7 lineto
76435.2 36527.7 lineto
poly0
newpath
78124.2 77065 moveto
78124.2 77535.2 lineto
77654 77535.2 lineto
77654 77065 lineto
78124.2 77065 lineto
poly0
newpath
78124.2 70308.8 moveto
78124.2 70779 lineto
77654 70779 lineto
77654 70308.8 lineto
78124.2 70308.8 lineto
poly0
newpath
78124.2 43283.9 moveto
78124.2 43754.1 lineto
77654 43754.1 lineto
77654 43283.9 lineto
78124.2 43283.9 lineto
poly0
newpath
78124.2 36527.7 moveto
78124.2 36997.9 lineto
77654 36997.9 lineto
77654 36527.7 lineto
78124.2 36527.7 lineto
poly0
newpath
79813.3 77065 moveto
79813.3 77535.2 lineto
79343.1 77535.2 lineto
79343.1 77065 lineto
79813.3 77065 lineto
poly0
newpath
79813.3 70308.8 moveto
79813.3 70779 lineto
79343.1 70779 lineto
79343.1 70308.8 lineto
79813.3 70308.8 lineto
poly0
newpath
79813.3 43283.9 moveto
79813.3 43754.1 lineto
79343.1 43754.1 lineto
79343.1 43283.9 lineto
79813.3 43283.9 lineto
poly0
newpath
79813.3 36527.7 moveto
79813.3 36997.9 lineto
79343.1 36997.9 lineto
79343.1 36527.7 lineto
79813.3 36527.7 lineto
poly0
newpath
81502.4 77065 moveto
81502.4 77535.2 lineto
81032.1 77535.2 lineto
81032.1 77065 lineto
81502.4 77065 lineto
poly0
newpath
81502.4 70308.8 moveto
81502.4 70779 lineto
81032.1 70779 lineto
81032.1 70308.8 lineto
81502.4 70308.8 lineto
poly0
newpath
81502.4 43283.9 moveto
81502.4 43754.1 lineto
81032.1 43754.1 lineto
81032.1 43283.9 lineto
81502.4 43283.9 lineto
poly0
newpath
81502.4 36527.7 moveto
81502.4 36997.9 lineto
81032.1 36997.9 lineto
81032.1 36527.7 lineto
81502.4 36527.7 lineto
poly0
newpath
83191.4 77065 moveto
83191.4 77535.2 lineto
82721.2 77535.2 lineto
82721.2 77065 lineto
83191.4 77065 lineto
poly0
newpath
83191.4 70308.8 moveto
83191.4 70779 lineto
82721.2 70779 lineto
82721.2 70308.8 lineto
83191.4 70308.8 lineto
poly0
newpath
83191.4 43283.9 moveto
83191.4 43754.1 lineto
82721.2 43754.1 lineto
82721.2 43283.9 lineto
83191.4 43283.9 lineto
poly0
newpath
83191.4 36527.7 moveto
83191.4 36997.9 lineto
82721.2 36997.9 lineto
82721.2 36527.7 lineto
83191.4 36527.7 lineto
poly0
newpath
84880.5 77065 moveto
84880.5 77535.2 lineto
84410.2 77535.2 lineto
84410.2 77065 lineto
84880.5 77065 lineto
poly0
newpath
84880.5 70308.8 moveto
84880.5 70779 lineto
84410.2 70779 lineto
84410.2 70308.8 lineto
84880.5 70308.8 lineto
poly0
newpath
84880.5 43283.9 moveto
84880.5 43754.1 lineto
84410.2 43754.1 lineto
84410.2 43283.9 lineto
84880.5 43283.9 lineto
poly0
newpath
84880.5 36527.7 moveto
84880.5 36997.9 lineto
84410.2 36997.9 lineto
84410.2 36527.7 lineto
84880.5 36527.7 lineto
poly0
132.996 setlinewidth
78.7399 setlinewidth
0 0 0 setrgbcolor
0 0 0 setrgbcolor
newpath
28198.5 33818.2 moveto
28198.5 34605.6 lineto
28386 34605.6 lineto
28498.4 34568.1 lineto
28573.4 34493.1 lineto
28610.9 34418.1 lineto
28648.4 34268.1 lineto
28648.4 34155.6 lineto
28610.9 34005.6 lineto
28573.4 33930.6 lineto
28498.4 33855.7 lineto
28386 33818.2 lineto
28198.5 33818.2 lineto
stroke
newpath
28985.9 33818.2 moveto
28985.9 34343.1 lineto
stroke
newpath
28985.9 34193.1 moveto
29023.4 34268.1 lineto
29060.9 34305.6 lineto
29135.9 34343.1 lineto
29210.8 34343.1 lineto
stroke
newpath
29473.3 33818.2 moveto
29473.3 34343.1 lineto
stroke
newpath
29473.3 34605.6 moveto
29435.8 34568.1 lineto
29473.3 34530.6 lineto
29510.8 34568.1 lineto
29473.3 34605.6 lineto
29473.3 34530.6 lineto
stroke
newpath
29960.8 33818.2 moveto
29885.8 33855.7 lineto
29848.3 33930.6 lineto
29848.3 34605.6 lineto
stroke
newpath
30373.2 33818.2 moveto
30298.2 33855.7 lineto
30260.7 33930.6 lineto
30260.7 34605.6 lineto
stroke
newpath
31273.1 33818.2 moveto
31273.1 34605.6 lineto
31535.6 34043.1 lineto
31798 34605.6 lineto
31798 33818.2 lineto
stroke
newpath
32510.4 33818.2 moveto
32510.4 34230.6 lineto
32472.9 34305.6 lineto
32398 34343.1 lineto
32248 34343.1 lineto
32173 34305.6 lineto
stroke
newpath
32510.4 33855.7 moveto
32435.4 33818.2 lineto
32248 33818.2 lineto
32173 33855.7 lineto
32135.5 33930.6 lineto
32135.5 34005.6 lineto
32173 34080.6 lineto
32248 34118.1 lineto
32435.4 34118.1 lineto
32510.4 34155.6 lineto
stroke
newpath
32885.4 34343.1 moveto
32885.4 33555.7 lineto
stroke
newpath
32885.4 34305.6 moveto
32960.4 34343.1 lineto
33110.4 34343.1 lineto
33185.4 34305.6 lineto
33222.8 34268.1 lineto
33260.3 34193.1 lineto
33260.3 33968.1 lineto
33222.8 33893.1 lineto
33185.4 33855.7 lineto
33110.4 33818.2 lineto
32960.4 33818.2 lineto
32885.4 33855.7 lineto
stroke
newpath
33597.8 33893.1 moveto
33635.3 33855.7 lineto
33597.8 33818.2 lineto
33560.3 33855.7 lineto
33597.8 33893.1 lineto
33597.8 33818.2 lineto
stroke
newpath
33597.8 34305.6 moveto
33635.3 34268.1 lineto
33597.8 34230.6 lineto
33560.3 34268.1 lineto
33597.8 34305.6 lineto
33597.8 34230.6 lineto
stroke
26.5993 setlinewidth
newpath
26918.2 32653.8 moveto
27184.2 32387.8 lineto
stroke
newpath
27184.2 32653.8 moveto
26918.2 32387.8 lineto
stroke
132.996 setlinewidth
78.7399 setlinewidth
0 0 0 setrgbcolor
0 0 0 setrgbcolor
newpath
28348.5 32952 moveto
28423.4 32952 lineto
28498.4 32914.5 lineto
28535.9 32877 lineto
28573.4 32802 lineto
28610.9 32652.1 lineto
28610.9 32464.6 lineto
28573.4 32314.6 lineto
28535.9 32239.6 lineto
28498.4 32202.1 lineto
28423.4 32164.6 lineto
28348.5 32164.6 lineto
28273.5 32202.1 lineto
28236 32239.6 lineto
28198.5 32314.6 lineto
28161 32464.6 lineto
28161 32652.1 lineto
28198.5 32802 lineto
28236 32877 lineto
28273.5 32914.5 lineto
28348.5 32952 lineto
stroke
newpath
28948.4 32239.6 moveto
28985.9 32202.1 lineto
28948.4 32164.6 lineto
28910.9 32202.1 lineto
28948.4 32239.6 lineto
28948.4 32164.6 lineto
stroke
newpath
29660.8 32689.5 moveto
29660.8 32164.6 lineto
stroke
newpath
29473.3 32989.5 moveto
29285.8 32427.1 lineto
29773.3 32427.1 lineto
stroke
newpath
30223.2 32952 moveto
30298.2 32952 lineto
30373.2 32914.5 lineto
30410.7 32877 lineto
30448.2 32802 lineto
30485.7 32652.1 lineto
30485.7 32464.6 lineto
30448.2 32314.6 lineto
30410.7 32239.6 lineto
30373.2 32202.1 lineto
30298.2 32164.6 lineto
30223.2 32164.6 lineto
30148.2 32202.1 lineto
30110.7 32239.6 lineto
30073.2 32314.6 lineto
30035.7 32464.6 lineto
30035.7 32652.1 lineto
30073.2 32802 lineto
30110.7 32877 lineto
30148.2 32914.5 lineto
30223.2 32952 lineto
stroke
newpath
30973.1 32952 moveto
31048.1 32952 lineto
31123.1 32914.5 lineto
31160.6 32877 lineto
31198.1 32802 lineto
31235.6 32652.1 lineto
31235.6 32464.6 lineto
31198.1 32314.6 lineto
31160.6 32239.6 lineto
31123.1 32202.1 lineto
31048.1 32164.6 lineto
30973.1 32164.6 lineto
30898.1 32202.1 lineto
30860.6 32239.6 lineto
30823.1 32314.6 lineto
30785.7 32464.6 lineto
30785.7 32652.1 lineto
30823.1 32802 lineto
30860.6 32877 lineto
30898.1 32914.5 lineto
30973.1 32952 lineto
stroke
newpath
31573.1 32164.6 moveto
31573.1 32689.5 lineto
stroke
newpath
31573.1 32614.6 moveto
31610.5 32652.1 lineto
31685.5 32689.5 lineto
31798 32689.5 lineto
31873 32652.1 lineto
31910.5 32577.1 lineto
31910.5 32164.6 lineto
stroke
newpath
31910.5 32577.1 moveto
31948 32652.1 lineto
32023 32689.5 lineto
32135.5 32689.5 lineto
32210.5 32652.1 lineto
32248 32577.1 lineto
32248 32164.6 lineto
stroke
newpath
32622.9 32164.6 moveto
32622.9 32689.5 lineto
stroke
newpath
32622.9 32614.6 moveto
32660.4 32652.1 lineto
32735.4 32689.5 lineto
32847.9 32689.5 lineto
32922.9 32652.1 lineto
32960.4 32577.1 lineto
32960.4 32164.6 lineto
stroke
newpath
32960.4 32577.1 moveto
32997.9 32652.1 lineto
33072.9 32689.5 lineto
33185.4 32689.5 lineto
33260.3 32652.1 lineto
33297.8 32577.1 lineto
33297.8 32164.6 lineto
stroke
newpath
34835.1 32989.5 moveto
34160.2 31977.1 lineto
stroke
newpath
35847.5 32952 moveto
35922.5 32952 lineto
35997.5 32914.5 lineto
36035 32877 lineto
36072.5 32802 lineto
36110 32652.1 lineto
36110 32464.6 lineto
36072.5 32314.6 lineto
36035 32239.6 lineto
35997.5 32202.1 lineto
35922.5 32164.6 lineto
35847.5 32164.6 lineto
35772.5 32202.1 lineto
35735 32239.6 lineto
35697.5 32314.6 lineto
35660 32464.6 lineto
35660 32652.1 lineto
35697.5 32802 lineto
35735 32877 lineto
35772.5 32914.5 lineto
35847.5 32952 lineto
stroke
newpath
36447.4 32239.6 moveto
36484.9 32202.1 lineto
36447.4 32164.6 lineto
36409.9 32202.1 lineto
36447.4 32239.6 lineto
36447.4 32164.6 lineto
stroke
newpath
36972.4 32952 moveto
37047.4 32952 lineto
37122.4 32914.5 lineto
37159.9 32877 lineto
37197.4 32802 lineto
37234.8 32652.1 lineto
37234.8 32464.6 lineto
37197.4 32314.6 lineto
37159.9 32239.6 lineto
37122.4 32202.1 lineto
37047.4 32164.6 lineto
36972.4 32164.6 lineto
36897.4 32202.1 lineto
36859.9 32239.6 lineto
36822.4 32314.6 lineto
36784.9 32464.6 lineto
36784.9 32652.1 lineto
36822.4 32802 lineto
36859.9 32877 lineto
36897.4 32914.5 lineto
36972.4 32952 lineto
stroke
newpath
37984.8 32164.6 moveto
37534.8 32164.6 lineto
stroke
newpath
37759.8 32164.6 moveto
37759.8 32952 lineto
37684.8 32839.5 lineto
37609.8 32764.5 lineto
37534.8 32727 lineto
stroke
newpath
38697.2 32952 moveto
38322.2 32952 lineto
38284.7 32577.1 lineto
38322.2 32614.6 lineto
38397.2 32652.1 lineto
38584.7 32652.1 lineto
38659.7 32614.6 lineto
38697.2 32577.1 lineto
38734.7 32502.1 lineto
38734.7 32314.6 lineto
38697.2 32239.6 lineto
38659.7 32202.1 lineto
38584.7 32164.6 lineto
38397.2 32164.6 lineto
38322.2 32202.1 lineto
38284.7 32239.6 lineto
stroke
newpath
38997.1 32952 moveto
39522.1 32952 lineto
39184.6 32164.6 lineto
stroke
newpath
39784.5 32952 moveto
39784.5 32802 lineto
stroke
newpath
40084.5 32952 moveto
40084.5 32802 lineto
stroke
newpath
41246.8 31864.7 moveto
41209.4 31902.1 lineto
41134.4 32014.6 lineto
41096.9 32089.6 lineto
41059.4 32202.1 lineto
41021.9 32389.6 lineto
41021.9 32539.6 lineto
41059.4 32727 lineto
41096.9 32839.5 lineto
41134.4 32914.5 lineto
41209.4 33027 lineto
41246.8 33064.5 lineto
stroke
newpath
41471.8 32952 moveto
41959.3 32952 lineto
41696.8 32652.1 lineto
41809.3 32652.1 lineto
41884.3 32614.6 lineto
41921.8 32577.1 lineto
41959.3 32502.1 lineto
41959.3 32314.6 lineto
41921.8 32239.6 lineto
41884.3 32202.1 lineto
41809.3 32164.6 lineto
41584.3 32164.6 lineto
41509.3 32202.1 lineto
41471.8 32239.6 lineto
stroke
newpath
42221.7 32952 moveto
42709.2 32952 lineto
42446.7 32652.1 lineto
42559.2 32652.1 lineto
42634.2 32614.6 lineto
42671.7 32577.1 lineto
42709.2 32502.1 lineto
42709.2 32314.6 lineto
42671.7 32239.6 lineto
42634.2 32202.1 lineto
42559.2 32164.6 lineto
42334.2 32164.6 lineto
42259.2 32202.1 lineto
42221.7 32239.6 lineto
stroke
newpath
43646.5 32164.6 moveto
43646.5 32952 lineto
stroke
newpath
43984 32164.6 moveto
43984 32577.1 lineto
43946.5 32652.1 lineto
43871.5 32689.5 lineto
43759 32689.5 lineto
43684 32652.1 lineto
43646.5 32614.6 lineto
stroke
newpath
44471.4 32164.6 moveto
44396.5 32202.1 lineto
44359 32239.6 lineto
44321.5 32314.6 lineto
44321.5 32539.6 lineto
44359 32614.6 lineto
44396.5 32652.1 lineto
44471.4 32689.5 lineto
44583.9 32689.5 lineto
44658.9 32652.1 lineto
44696.4 32614.6 lineto
44733.9 32539.6 lineto
44733.9 32314.6 lineto
44696.4 32239.6 lineto
44658.9 32202.1 lineto
44583.9 32164.6 lineto
44471.4 32164.6 lineto
stroke
newpath
45183.9 32164.6 moveto
45108.9 32202.1 lineto
45071.4 32277.1 lineto
45071.4 32952 lineto
stroke
newpath
45783.8 32202.1 moveto
45708.8 32164.6 lineto
45558.8 32164.6 lineto
45483.8 32202.1 lineto
45446.3 32277.1 lineto
45446.3 32577.1 lineto
45483.8 32652.1 lineto
45558.8 32689.5 lineto
45708.8 32689.5 lineto
45783.8 32652.1 lineto
45821.3 32577.1 lineto
45821.3 32502.1 lineto
45446.3 32427.1 lineto
stroke
newpath
46121.2 32202.1 moveto
46196.2 32164.6 lineto
46346.2 32164.6 lineto
46421.2 32202.1 lineto
46458.7 32277.1 lineto
46458.7 32314.6 lineto
46421.2 32389.6 lineto
46346.2 32427.1 lineto
46233.7 32427.1 lineto
46158.7 32464.6 lineto
46121.2 32539.6 lineto
46121.2 32577.1 lineto
46158.7 32652.1 lineto
46233.7 32689.5 lineto
46346.2 32689.5 lineto
46421.2 32652.1 lineto
stroke
newpath
46721.2 31864.7 moveto
46758.7 31902.1 lineto
46833.6 32014.6 lineto
46871.1 32089.6 lineto
46908.6 32202.1 lineto
46946.1 32389.6 lineto
46946.1 32539.6 lineto
46908.6 32727 lineto
46871.1 32839.5 lineto
46833.6 32914.5 lineto
46758.7 33027 lineto
46721.2 33064.5 lineto
stroke
39.8989 setlinewidth
26984.7 31481.4 199.495 cir0
132.996 setlinewidth
78.7399 setlinewidth
0 0 0 setrgbcolor
0 0 0 setrgbcolor
newpath
28348.5 31912.6 moveto
28423.4 31912.6 lineto
28498.4 31875.2 lineto
28535.9 31837.7 lineto
28573.4 31762.7 lineto
28610.9 31612.7 lineto
28610.9 31425.2 lineto
28573.4 31275.2 lineto
28535.9 31200.2 lineto
28498.4 31162.7 lineto
28423.4 31125.2 lineto
28348.5 31125.2 lineto
28273.5 31162.7 lineto
28236 31200.2 lineto
28198.5 31275.2 lineto
28161 31425.2 lineto
28161 31612.7 lineto
28198.5 31762.7 lineto
28236 31837.7 lineto
28273.5 31875.2 lineto
28348.5 31912.6 lineto
stroke
newpath
28948.4 31200.2 moveto
28985.9 31162.7 lineto
28948.4 31125.2 lineto
28910.9 31162.7 lineto
28948.4 31200.2 lineto
28948.4 31125.2 lineto
stroke
newpath
29660.8 31912.6 moveto
29510.8 31912.6 lineto
29435.8 31875.2 lineto
29398.3 31837.7 lineto
29323.3 31725.2 lineto
29285.8 31575.2 lineto
29285.8 31275.2 lineto
29323.3 31200.2 lineto
29360.8 31162.7 lineto
29435.8 31125.2 lineto
29585.8 31125.2 lineto
29660.8 31162.7 lineto
29698.3 31200.2 lineto
29735.8 31275.2 lineto
29735.8 31462.7 lineto
29698.3 31537.7 lineto
29660.8 31575.2 lineto
29585.8 31612.7 lineto
29435.8 31612.7 lineto
29360.8 31575.2 lineto
29323.3 31537.7 lineto
29285.8 31462.7 lineto
stroke
newpath
30223.2 31912.6 moveto
30298.2 31912.6 lineto
30373.2 31875.2 lineto
30410.7 31837.7 lineto
30448.2 31762.7 lineto
30485.7 31612.7 lineto
30485.7 31425.2 lineto
30448.2 31275.2 lineto
30410.7 31200.2 lineto
30373.2 31162.7 lineto
30298.2 31125.2 lineto
30223.2 31125.2 lineto
30148.2 31162.7 lineto
30110.7 31200.2 lineto
30073.2 31275.2 lineto
30035.7 31425.2 lineto
30035.7 31612.7 lineto
30073.2 31762.7 lineto
30110.7 31837.7 lineto
30148.2 31875.2 lineto
30223.2 31912.6 lineto
stroke
newpath
30973.1 31912.6 moveto
31048.1 31912.6 lineto
31123.1 31875.2 lineto
31160.6 31837.7 lineto
31198.1 31762.7 lineto
31235.6 31612.7 lineto
31235.6 31425.2 lineto
31198.1 31275.2 lineto
31160.6 31200.2 lineto
31123.1 31162.7 lineto
31048.1 31125.2 lineto
30973.1 31125.2 lineto
30898.1 31162.7 lineto
30860.6 31200.2 lineto
30823.1 31275.2 lineto
30785.7 31425.2 lineto
30785.7 31612.7 lineto
30823.1 31762.7 lineto
30860.6 31837.7 lineto
30898.1 31875.2 lineto
30973.1 31912.6 lineto
stroke
newpath
31573.1 31125.2 moveto
31573.1 31650.2 lineto
stroke
newpath
31573.1 31575.2 moveto
31610.5 31612.7 lineto
31685.5 31650.2 lineto
31798 31650.2 lineto
31873 31612.7 lineto
31910.5 31537.7 lineto
31910.5 31125.2 lineto
stroke
newpath
31910.5 31537.7 moveto
31948 31612.7 lineto
32023 31650.2 lineto
32135.5 31650.2 lineto
32210.5 31612.7 lineto
32248 31537.7 lineto
32248 31125.2 lineto
stroke
newpath
32622.9 31125.2 moveto
32622.9 31650.2 lineto
stroke
newpath
32622.9 31575.2 moveto
32660.4 31612.7 lineto
32735.4 31650.2 lineto
32847.9 31650.2 lineto
32922.9 31612.7 lineto
32960.4 31537.7 lineto
32960.4 31125.2 lineto
stroke
newpath
32960.4 31537.7 moveto
32997.9 31612.7 lineto
33072.9 31650.2 lineto
33185.4 31650.2 lineto
33260.3 31612.7 lineto
33297.8 31537.7 lineto
33297.8 31125.2 lineto
stroke
newpath
34835.1 31950.1 moveto
34160.2 30937.8 lineto
stroke
newpath
35847.5 31912.6 moveto
35922.5 31912.6 lineto
35997.5 31875.2 lineto
36035 31837.7 lineto
36072.5 31762.7 lineto
36110 31612.7 lineto
36110 31425.2 lineto
36072.5 31275.2 lineto
36035 31200.2 lineto
35997.5 31162.7 lineto
35922.5 31125.2 lineto
35847.5 31125.2 lineto
35772.5 31162.7 lineto
35735 31200.2 lineto
35697.5 31275.2 lineto
35660 31425.2 lineto
35660 31612.7 lineto
35697.5 31762.7 lineto
35735 31837.7 lineto
35772.5 31875.2 lineto
35847.5 31912.6 lineto
stroke
newpath
36447.4 31200.2 moveto
36484.9 31162.7 lineto
36447.4 31125.2 lineto
36409.9 31162.7 lineto
36447.4 31200.2 lineto
36447.4 31125.2 lineto
stroke
newpath
36972.4 31912.6 moveto
37047.4 31912.6 lineto
37122.4 31875.2 lineto
37159.9 31837.7 lineto
37197.4 31762.7 lineto
37234.8 31612.7 lineto
37234.8 31425.2 lineto
37197.4 31275.2 lineto
37159.9 31200.2 lineto
37122.4 31162.7 lineto
37047.4 31125.2 lineto
36972.4 31125.2 lineto
36897.4 31162.7 lineto
36859.9 31200.2 lineto
36822.4 31275.2 lineto
36784.9 31425.2 lineto
36784.9 31612.7 lineto
36822.4 31762.7 lineto
36859.9 31837.7 lineto
36897.4 31875.2 lineto
36972.4 31912.6 lineto
stroke
newpath
37534.8 31837.7 moveto
37572.3 31875.2 lineto
37647.3 31912.6 lineto
37834.8 31912.6 lineto
37909.8 31875.2 lineto
37947.3 31837.7 lineto
37984.8 31762.7 lineto
37984.8 31687.7 lineto
37947.3 31575.2 lineto
37497.3 31125.2 lineto
37984.8 31125.2 lineto
stroke
newpath
38247.2 31912.6 moveto
38734.7 31912.6 lineto
38472.2 31612.7 lineto
38584.7 31612.7 lineto
38659.7 31575.2 lineto
38697.2 31537.7 lineto
38734.7 31462.7 lineto
38734.7 31275.2 lineto
38697.2 31200.2 lineto
38659.7 31162.7 lineto
38584.7 31125.2 lineto
38359.7 31125.2 lineto
38284.7 31162.7 lineto
38247.2 31200.2 lineto
stroke
newpath
39409.6 31912.6 moveto
39259.6 31912.6 lineto
39184.6 31875.2 lineto
39147.1 31837.7 lineto
39072.1 31725.2 lineto
39034.6 31575.2 lineto
39034.6 31275.2 lineto
39072.1 31200.2 lineto
39109.6 31162.7 lineto
39184.6 31125.2 lineto
39334.6 31125.2 lineto
39409.6 31162.7 lineto
39447.1 31200.2 lineto
39484.6 31275.2 lineto
39484.6 31462.7 lineto
39447.1 31537.7 lineto
39409.6 31575.2 lineto
39334.6 31612.7 lineto
39184.6 31612.7 lineto
39109.6 31575.2 lineto
39072.1 31537.7 lineto
39034.6 31462.7 lineto
stroke
newpath
39784.5 31912.6 moveto
39784.5 31762.7 lineto
stroke
newpath
40084.5 31912.6 moveto
40084.5 31762.7 lineto
stroke
newpath
41246.8 30825.3 moveto
41209.4 30862.8 lineto
41134.4 30975.3 lineto
41096.9 31050.3 lineto
41059.4 31162.7 lineto
41021.9 31350.2 lineto
41021.9 31500.2 lineto
41059.4 31687.7 lineto
41096.9 31800.2 lineto
41134.4 31875.2 lineto
41209.4 31987.6 lineto
41246.8 32025.1 lineto
stroke
newpath
41696.8 31912.6 moveto
41771.8 31912.6 lineto
41846.8 31875.2 lineto
41884.3 31837.7 lineto
41921.8 31762.7 lineto
41959.3 31612.7 lineto
41959.3 31425.2 lineto
41921.8 31275.2 lineto
41884.3 31200.2 lineto
41846.8 31162.7 lineto
41771.8 31125.2 lineto
41696.8 31125.2 lineto
41621.8 31162.7 lineto
41584.3 31200.2 lineto
41546.8 31275.2 lineto
41509.3 31425.2 lineto
41509.3 31612.7 lineto
41546.8 31762.7 lineto
41584.3 31837.7 lineto
41621.8 31875.2 lineto
41696.8 31912.6 lineto
stroke
newpath
42896.6 31125.2 moveto
42896.6 31912.6 lineto
stroke
newpath
43234.1 31125.2 moveto
43234.1 31537.7 lineto
43196.6 31612.7 lineto
43121.6 31650.2 lineto
43009.1 31650.2 lineto
42934.1 31612.7 lineto
42896.6 31575.2 lineto
stroke
newpath
43721.5 31125.2 moveto
43646.5 31162.7 lineto
43609.1 31200.2 lineto
43571.6 31275.2 lineto
43571.6 31500.2 lineto
43609.1 31575.2 lineto
43646.5 31612.7 lineto
43721.5 31650.2 lineto
43834 31650.2 lineto
43909 31612.7 lineto
43946.5 31575.2 lineto
43984 31500.2 lineto
43984 31275.2 lineto
43946.5 31200.2 lineto
43909 31162.7 lineto
43834 31125.2 lineto
43721.5 31125.2 lineto
stroke
newpath
44433.9 31125.2 moveto
44359 31162.7 lineto
44321.5 31237.7 lineto
44321.5 31912.6 lineto
stroke
newpath
45033.9 31162.7 moveto
44958.9 31125.2 lineto
44808.9 31125.2 lineto
44733.9 31162.7 lineto
44696.4 31237.7 lineto
44696.4 31537.7 lineto
44733.9 31612.7 lineto
44808.9 31650.2 lineto
44958.9 31650.2 lineto
45033.9 31612.7 lineto
45071.4 31537.7 lineto
45071.4 31462.7 lineto
44696.4 31387.7 lineto
stroke
newpath
45371.3 31162.7 moveto
45446.3 31125.2 lineto
45596.3 31125.2 lineto
45671.3 31162.7 lineto
45708.8 31237.7 lineto
45708.8 31275.2 lineto
45671.3 31350.2 lineto
45596.3 31387.7 lineto
45483.8 31387.7 lineto
45408.8 31425.2 lineto
45371.3 31500.2 lineto
45371.3 31537.7 lineto
45408.8 31612.7 lineto
45483.8 31650.2 lineto
45596.3 31650.2 lineto
45671.3 31612.7 lineto
stroke
newpath
46646.2 31425.2 moveto
47246.1 31425.2 lineto
stroke
newpath
46946.1 31125.2 moveto
46946.1 31725.2 lineto
stroke
newpath
48183.5 31837.7 moveto
48221 31875.2 lineto
48296 31912.6 lineto
48483.4 31912.6 lineto
48558.4 31875.2 lineto
48595.9 31837.7 lineto
48633.4 31762.7 lineto
48633.4 31687.7 lineto
48595.9 31575.2 lineto
48146 31125.2 lineto
48633.4 31125.2 lineto
stroke
newpath
49533.3 31162.7 moveto
49608.3 31125.2 lineto
49758.3 31125.2 lineto
49833.3 31162.7 lineto
49870.8 31237.7 lineto
49870.8 31275.2 lineto
49833.3 31350.2 lineto
49758.3 31387.7 lineto
49645.8 31387.7 lineto
49570.8 31425.2 lineto
49533.3 31500.2 lineto
49533.3 31537.7 lineto
49570.8 31612.7 lineto
49645.8 31650.2 lineto
49758.3 31650.2 lineto
49833.3 31612.7 lineto
stroke
newpath
50320.7 31125.2 moveto
50245.7 31162.7 lineto
50208.2 31237.7 lineto
50208.2 31912.6 lineto
stroke
newpath
50733.2 31125.2 moveto
50658.2 31162.7 lineto
50620.7 31200.2 lineto
50583.2 31275.2 lineto
50583.2 31500.2 lineto
50620.7 31575.2 lineto
50658.2 31612.7 lineto
50733.2 31650.2 lineto
50845.6 31650.2 lineto
50920.6 31612.7 lineto
50958.1 31575.2 lineto
50995.6 31500.2 lineto
50995.6 31275.2 lineto
50958.1 31200.2 lineto
50920.6 31162.7 lineto
50845.6 31125.2 lineto
50733.2 31125.2 lineto
stroke
newpath
51220.6 31650.2 moveto
51520.6 31650.2 lineto
stroke
newpath
51333.1 31912.6 moveto
51333.1 31237.7 lineto
51370.6 31162.7 lineto
51445.6 31125.2 lineto
51520.6 31125.2 lineto
stroke
newpath
51745.5 31162.7 moveto
51820.5 31125.2 lineto
51970.5 31125.2 lineto
52045.5 31162.7 lineto
52083 31237.7 lineto
52083 31275.2 lineto
52045.5 31350.2 lineto
51970.5 31387.7 lineto
51858 31387.7 lineto
51783 31425.2 lineto
51745.5 31500.2 lineto
51745.5 31537.7 lineto
51783 31612.7 lineto
51858 31650.2 lineto
51970.5 31650.2 lineto
52045.5 31612.7 lineto
stroke
newpath
52345.5 30825.3 moveto
52383 30862.8 lineto
52457.9 30975.3 lineto
52495.4 31050.3 lineto
52532.9 31162.7 lineto
52570.4 31350.2 lineto
52570.4 31500.2 lineto
52532.9 31687.7 lineto
52495.4 31800.2 lineto
52457.9 31875.2 lineto
52383 31987.6 lineto
52345.5 32025.1 lineto
stroke
43.2239 setlinewidth
newpath
26968.1 30658.2 moveto
26968.1 30226 lineto
stroke
newpath
26752 30442.1 moveto
27184.2 30442.1 lineto
stroke
132.996 setlinewidth
78.7399 setlinewidth
0 0 0 setrgbcolor
0 0 0 setrgbcolor
newpath
28348.5 30873.3 moveto
28423.4 30873.3 lineto
28498.4 30835.8 lineto
28535.9 30798.3 lineto
28573.4 30723.3 lineto
28610.9 30573.3 lineto
28610.9 30385.8 lineto
28573.4 30235.9 lineto
28535.9 30160.9 lineto
28498.4 30123.4 lineto
28423.4 30085.9 lineto
28348.5 30085.9 lineto
28273.5 30123.4 lineto
28236 30160.9 lineto
28198.5 30235.9 lineto
28161 30385.8 lineto
28161 30573.3 lineto
28198.5 30723.3 lineto
28236 30798.3 lineto
28273.5 30835.8 lineto
28348.5 30873.3 lineto
stroke
newpath
28948.4 30160.9 moveto
28985.9 30123.4 lineto
28948.4 30085.9 lineto
28910.9 30123.4 lineto
28948.4 30160.9 lineto
28948.4 30085.9 lineto
stroke
newpath
29660.8 30873.3 moveto
29510.8 30873.3 lineto
29435.8 30835.8 lineto
29398.3 30798.3 lineto
29323.3 30685.8 lineto
29285.8 30535.8 lineto
29285.8 30235.9 lineto
29323.3 30160.9 lineto
29360.8 30123.4 lineto
29435.8 30085.9 lineto
29585.8 30085.9 lineto
29660.8 30123.4 lineto
29698.3 30160.9 lineto
29735.8 30235.9 lineto
29735.8 30423.3 lineto
29698.3 30498.3 lineto
29660.8 30535.8 lineto
29585.8 30573.3 lineto
29435.8 30573.3 lineto
29360.8 30535.8 lineto
29323.3 30498.3 lineto
29285.8 30423.3 lineto
stroke
newpath
30448.2 30873.3 moveto
30073.2 30873.3 lineto
30035.7 30498.3 lineto
30073.2 30535.8 lineto
30148.2 30573.3 lineto
30335.7 30573.3 lineto
30410.7 30535.8 lineto
30448.2 30498.3 lineto
30485.7 30423.3 lineto
30485.7 30235.9 lineto
30448.2 30160.9 lineto
30410.7 30123.4 lineto
30335.7 30085.9 lineto
30148.2 30085.9 lineto
30073.2 30123.4 lineto
30035.7 30160.9 lineto
stroke
newpath
30973.1 30873.3 moveto
31048.1 30873.3 lineto
31123.1 30835.8 lineto
31160.6 30798.3 lineto
31198.1 30723.3 lineto
31235.6 30573.3 lineto
31235.6 30385.8 lineto
31198.1 30235.9 lineto
31160.6 30160.9 lineto
31123.1 30123.4 lineto
31048.1 30085.9 lineto
30973.1 30085.9 lineto
30898.1 30123.4 lineto
30860.6 30160.9 lineto
30823.1 30235.9 lineto
30785.7 30385.8 lineto
30785.7 30573.3 lineto
30823.1 30723.3 lineto
30860.6 30798.3 lineto
30898.1 30835.8 lineto
30973.1 30873.3 lineto
stroke
newpath
31573.1 30085.9 moveto
31573.1 30610.8 lineto
stroke
newpath
31573.1 30535.8 moveto
31610.5 30573.3 lineto
31685.5 30610.8 lineto
31798 30610.8 lineto
31873 30573.3 lineto
31910.5 30498.3 lineto
31910.5 30085.9 lineto
stroke
newpath
31910.5 30498.3 moveto
31948 30573.3 lineto
32023 30610.8 lineto
32135.5 30610.8 lineto
32210.5 30573.3 lineto
32248 30498.3 lineto
32248 30085.9 lineto
stroke
newpath
32622.9 30085.9 moveto
32622.9 30610.8 lineto
stroke
newpath
32622.9 30535.8 moveto
32660.4 30573.3 lineto
32735.4 30610.8 lineto
32847.9 30610.8 lineto
32922.9 30573.3 lineto
32960.4 30498.3 lineto
32960.4 30085.9 lineto
stroke
newpath
32960.4 30498.3 moveto
32997.9 30573.3 lineto
33072.9 30610.8 lineto
33185.4 30610.8 lineto
33260.3 30573.3 lineto
33297.8 30498.3 lineto
33297.8 30085.9 lineto
stroke
newpath
34835.1 30910.8 moveto
34160.2 29898.4 lineto
stroke
newpath
35847.5 30873.3 moveto
35922.5 30873.3 lineto
35997.5 30835.8 lineto
36035 30798.3 lineto
36072.5 30723.3 lineto
36110 30573.3 lineto
36110 30385.8 lineto
36072.5 30235.9 lineto
36035 30160.9 lineto
35997.5 30123.4 lineto
35922.5 30085.9 lineto
35847.5 30085.9 lineto
35772.5 30123.4 lineto
35735 30160.9 lineto
35697.5 30235.9 lineto
35660 30385.8 lineto
35660 30573.3 lineto
35697.5 30723.3 lineto
35735 30798.3 lineto
35772.5 30835.8 lineto
35847.5 30873.3 lineto
stroke
newpath
36447.4 30160.9 moveto
36484.9 30123.4 lineto
36447.4 30085.9 lineto
36409.9 30123.4 lineto
36447.4 30160.9 lineto
36447.4 30085.9 lineto
stroke
newpath
36972.4 30873.3 moveto
37047.4 30873.3 lineto
37122.4 30835.8 lineto
37159.9 30798.3 lineto
37197.4 30723.3 lineto
37234.8 30573.3 lineto
37234.8 30385.8 lineto
37197.4 30235.9 lineto
37159.9 30160.9 lineto
37122.4 30123.4 lineto
37047.4 30085.9 lineto
36972.4 30085.9 lineto
36897.4 30123.4 lineto
36859.9 30160.9 lineto
36822.4 30235.9 lineto
36784.9 30385.8 lineto
36784.9 30573.3 lineto
36822.4 30723.3 lineto
36859.9 30798.3 lineto
36897.4 30835.8 lineto
36972.4 30873.3 lineto
stroke
newpath
37534.8 30798.3 moveto
37572.3 30835.8 lineto
37647.3 30873.3 lineto
37834.8 30873.3 lineto
37909.8 30835.8 lineto
37947.3 30798.3 lineto
37984.8 30723.3 lineto
37984.8 30648.3 lineto
37947.3 30535.8 lineto
37497.3 30085.9 lineto
37984.8 30085.9 lineto
stroke
newpath
38697.2 30873.3 moveto
38322.2 30873.3 lineto
38284.7 30498.3 lineto
38322.2 30535.8 lineto
38397.2 30573.3 lineto
38584.7 30573.3 lineto
38659.7 30535.8 lineto
38697.2 30498.3 lineto
38734.7 30423.3 lineto
38734.7 30235.9 lineto
38697.2 30160.9 lineto
38659.7 30123.4 lineto
38584.7 30085.9 lineto
38397.2 30085.9 lineto
38322.2 30123.4 lineto
38284.7 30160.9 lineto
stroke
newpath
39409.6 30873.3 moveto
39259.6 30873.3 lineto
39184.6 30835.8 lineto
39147.1 30798.3 lineto
39072.1 30685.8 lineto
39034.6 30535.8 lineto
39034.6 30235.9 lineto
39072.1 30160.9 lineto
39109.6 30123.4 lineto
39184.6 30085.9 lineto
39334.6 30085.9 lineto
39409.6 30123.4 lineto
39447.1 30160.9 lineto
39484.6 30235.9 lineto
39484.6 30423.3 lineto
39447.1 30498.3 lineto
39409.6 30535.8 lineto
39334.6 30573.3 lineto
39184.6 30573.3 lineto
39109.6 30535.8 lineto
39072.1 30498.3 lineto
39034.6 30423.3 lineto
stroke
newpath
39784.5 30873.3 moveto
39784.5 30723.3 lineto
stroke
newpath
40084.5 30873.3 moveto
40084.5 30723.3 lineto
stroke
newpath
41246.8 29785.9 moveto
41209.4 29823.4 lineto
41134.4 29935.9 lineto
41096.9 30010.9 lineto
41059.4 30123.4 lineto
41021.9 30310.8 lineto
41021.9 30460.8 lineto
41059.4 30648.3 lineto
41096.9 30760.8 lineto
41134.4 30835.8 lineto
41209.4 30948.3 lineto
41246.8 30985.8 lineto
stroke
newpath
41696.8 30873.3 moveto
41771.8 30873.3 lineto
41846.8 30835.8 lineto
41884.3 30798.3 lineto
41921.8 30723.3 lineto
41959.3 30573.3 lineto
41959.3 30385.8 lineto
41921.8 30235.9 lineto
41884.3 30160.9 lineto
41846.8 30123.4 lineto
41771.8 30085.9 lineto
41696.8 30085.9 lineto
41621.8 30123.4 lineto
41584.3 30160.9 lineto
41546.8 30235.9 lineto
41509.3 30385.8 lineto
41509.3 30573.3 lineto
41546.8 30723.3 lineto
41584.3 30798.3 lineto
41621.8 30835.8 lineto
41696.8 30873.3 lineto
stroke
newpath
42896.6 30085.9 moveto
42896.6 30873.3 lineto
stroke
newpath
43234.1 30085.9 moveto
43234.1 30498.3 lineto
43196.6 30573.3 lineto
43121.6 30610.8 lineto
43009.1 30610.8 lineto
42934.1 30573.3 lineto
42896.6 30535.8 lineto
stroke
newpath
43721.5 30085.9 moveto
43646.5 30123.4 lineto
43609.1 30160.9 lineto
43571.6 30235.9 lineto
43571.6 30460.8 lineto
43609.1 30535.8 lineto
43646.5 30573.3 lineto
43721.5 30610.8 lineto
43834 30610.8 lineto
43909 30573.3 lineto
43946.5 30535.8 lineto
43984 30460.8 lineto
43984 30235.9 lineto
43946.5 30160.9 lineto
43909 30123.4 lineto
43834 30085.9 lineto
43721.5 30085.9 lineto
stroke
newpath
44433.9 30085.9 moveto
44359 30123.4 lineto
44321.5 30198.4 lineto
44321.5 30873.3 lineto
stroke
newpath
45033.9 30123.4 moveto
44958.9 30085.9 lineto
44808.9 30085.9 lineto
44733.9 30123.4 lineto
44696.4 30198.4 lineto
44696.4 30498.3 lineto
44733.9 30573.3 lineto
44808.9 30610.8 lineto
44958.9 30610.8 lineto
45033.9 30573.3 lineto
45071.4 30498.3 lineto
45071.4 30423.3 lineto
44696.4 30348.3 lineto
stroke
newpath
45371.3 30123.4 moveto
45446.3 30085.9 lineto
45596.3 30085.9 lineto
45671.3 30123.4 lineto
45708.8 30198.4 lineto
45708.8 30235.9 lineto
45671.3 30310.8 lineto
45596.3 30348.3 lineto
45483.8 30348.3 lineto
45408.8 30385.8 lineto
45371.3 30460.8 lineto
45371.3 30498.3 lineto
45408.8 30573.3 lineto
45483.8 30610.8 lineto
45596.3 30610.8 lineto
45671.3 30573.3 lineto
stroke
newpath
46646.2 30385.8 moveto
47246.1 30385.8 lineto
stroke
newpath
46946.1 30085.9 moveto
46946.1 30685.8 lineto
stroke
newpath
48183.5 30798.3 moveto
48221 30835.8 lineto
48296 30873.3 lineto
48483.4 30873.3 lineto
48558.4 30835.8 lineto
48595.9 30798.3 lineto
48633.4 30723.3 lineto
48633.4 30648.3 lineto
48595.9 30535.8 lineto
48146 30085.9 lineto
48633.4 30085.9 lineto
stroke
newpath
49533.3 30123.4 moveto
49608.3 30085.9 lineto
49758.3 30085.9 lineto
49833.3 30123.4 lineto
49870.8 30198.4 lineto
49870.8 30235.9 lineto
49833.3 30310.8 lineto
49758.3 30348.3 lineto
49645.8 30348.3 lineto
49570.8 30385.8 lineto
49533.3 30460.8 lineto
49533.3 30498.3 lineto
49570.8 30573.3 lineto
49645.8 30610.8 lineto
49758.3 30610.8 lineto
49833.3 30573.3 lineto
stroke
newpath
50320.7 30085.9 moveto
50245.7 30123.4 lineto
50208.2 30198.4 lineto
50208.2 30873.3 lineto
stroke
newpath
50733.2 30085.9 moveto
50658.2 30123.4 lineto
50620.7 30160.9 lineto
50583.2 30235.9 lineto
50583.2 30460.8 lineto
50620.7 30535.8 lineto
50658.2 30573.3 lineto
50733.2 30610.8 lineto
50845.6 30610.8 lineto
50920.6 30573.3 lineto
50958.1 30535.8 lineto
50995.6 30460.8 lineto
50995.6 30235.9 lineto
50958.1 30160.9 lineto
50920.6 30123.4 lineto
50845.6 30085.9 lineto
50733.2 30085.9 lineto
stroke
newpath
51220.6 30610.8 moveto
51520.6 30610.8 lineto
stroke
newpath
51333.1 30873.3 moveto
51333.1 30198.4 lineto
51370.6 30123.4 lineto
51445.6 30085.9 lineto
51520.6 30085.9 lineto
stroke
newpath
51745.5 30123.4 moveto
51820.5 30085.9 lineto
51970.5 30085.9 lineto
52045.5 30123.4 lineto
52083 30198.4 lineto
52083 30235.9 lineto
52045.5 30310.8 lineto
51970.5 30348.3 lineto
51858 30348.3 lineto
51783 30385.8 lineto
51745.5 30460.8 lineto
51745.5 30498.3 lineto
51783 30573.3 lineto
51858 30610.8 lineto
51970.5 30610.8 lineto
52045.5 30573.3 lineto
stroke
newpath
52345.5 29785.9 moveto
52383 29823.4 lineto
52457.9 29935.9 lineto
52495.4 30010.9 lineto
52532.9 30123.4 lineto
52570.4 30310.8 lineto
52570.4 30460.8 lineto
52532.9 30648.3 lineto
52495.4 30760.8 lineto
52457.9 30835.8 lineto
52383 30948.3 lineto
52345.5 30985.8 lineto
stroke
66.4982 setlinewidth
newpath
27086.8 29167.6 moveto
27086.8 29637.8 lineto
26616.6 29637.8 lineto
26616.6 29167.6 lineto
27086.8 29167.6 lineto
poly0
132.996 setlinewidth
78.7399 setlinewidth
0 0 0 setrgbcolor
0 0 0 setrgbcolor
newpath
28610.9 29046.5 moveto
28161 29046.5 lineto
stroke
newpath
28386 29046.5 moveto
28386 29833.9 lineto
28311 29721.4 lineto
28236 29646.4 lineto
28161 29608.9 lineto
stroke
newpath
28948.4 29121.5 moveto
28985.9 29084 lineto
28948.4 29046.5 lineto
28910.9 29084 lineto
28948.4 29121.5 lineto
28948.4 29046.5 lineto
stroke
newpath
29473.3 29833.9 moveto
29548.3 29833.9 lineto
29623.3 29796.4 lineto
29660.8 29758.9 lineto
29698.3 29683.9 lineto
29735.8 29533.9 lineto
29735.8 29346.5 lineto
29698.3 29196.5 lineto
29660.8 29121.5 lineto
29623.3 29084 lineto
29548.3 29046.5 lineto
29473.3 29046.5 lineto
29398.3 29084 lineto
29360.8 29121.5 lineto
29323.3 29196.5 lineto
29285.8 29346.5 lineto
29285.8 29533.9 lineto
29323.3 29683.9 lineto
29360.8 29758.9 lineto
29398.3 29796.4 lineto
29473.3 29833.9 lineto
stroke
newpath
30223.2 29833.9 moveto
30298.2 29833.9 lineto
30373.2 29796.4 lineto
30410.7 29758.9 lineto
30448.2 29683.9 lineto
30485.7 29533.9 lineto
30485.7 29346.5 lineto
30448.2 29196.5 lineto
30410.7 29121.5 lineto
30373.2 29084 lineto
30298.2 29046.5 lineto
30223.2 29046.5 lineto
30148.2 29084 lineto
30110.7 29121.5 lineto
30073.2 29196.5 lineto
30035.7 29346.5 lineto
30035.7 29533.9 lineto
30073.2 29683.9 lineto
30110.7 29758.9 lineto
30148.2 29796.4 lineto
30223.2 29833.9 lineto
stroke
newpath
30973.1 29833.9 moveto
31048.1 29833.9 lineto
31123.1 29796.4 lineto
31160.6 29758.9 lineto
31198.1 29683.9 lineto
31235.6 29533.9 lineto
31235.6 29346.5 lineto
31198.1 29196.5 lineto
31160.6 29121.5 lineto
31123.1 29084 lineto
31048.1 29046.5 lineto
30973.1 29046.5 lineto
30898.1 29084 lineto
30860.6 29121.5 lineto
30823.1 29196.5 lineto
30785.7 29346.5 lineto
30785.7 29533.9 lineto
30823.1 29683.9 lineto
30860.6 29758.9 lineto
30898.1 29796.4 lineto
30973.1 29833.9 lineto
stroke
newpath
31573.1 29046.5 moveto
31573.1 29571.4 lineto
stroke
newpath
31573.1 29496.4 moveto
31610.5 29533.9 lineto
31685.5 29571.4 lineto
31798 29571.4 lineto
31873 29533.9 lineto
31910.5 29459 lineto
31910.5 29046.5 lineto
stroke
newpath
31910.5 29459 moveto
31948 29533.9 lineto
32023 29571.4 lineto
32135.5 29571.4 lineto
32210.5 29533.9 lineto
32248 29459 lineto
32248 29046.5 lineto
stroke
newpath
32622.9 29046.5 moveto
32622.9 29571.4 lineto
stroke
newpath
32622.9 29496.4 moveto
32660.4 29533.9 lineto
32735.4 29571.4 lineto
32847.9 29571.4 lineto
32922.9 29533.9 lineto
32960.4 29459 lineto
32960.4 29046.5 lineto
stroke
newpath
32960.4 29459 moveto
32997.9 29533.9 lineto
33072.9 29571.4 lineto
33185.4 29571.4 lineto
33260.3 29533.9 lineto
33297.8 29459 lineto
33297.8 29046.5 lineto
stroke
newpath
34835.1 29871.4 moveto
34160.2 28859 lineto
stroke
newpath
35847.5 29833.9 moveto
35922.5 29833.9 lineto
35997.5 29796.4 lineto
36035 29758.9 lineto
36072.5 29683.9 lineto
36110 29533.9 lineto
36110 29346.5 lineto
36072.5 29196.5 lineto
36035 29121.5 lineto
35997.5 29084 lineto
35922.5 29046.5 lineto
35847.5 29046.5 lineto
35772.5 29084 lineto
35735 29121.5 lineto
35697.5 29196.5 lineto
35660 29346.5 lineto
35660 29533.9 lineto
35697.5 29683.9 lineto
35735 29758.9 lineto
35772.5 29796.4 lineto
35847.5 29833.9 lineto
stroke
newpath
36447.4 29121.5 moveto
36484.9 29084 lineto
36447.4 29046.5 lineto
36409.9 29084 lineto
36447.4 29121.5 lineto
36447.4 29046.5 lineto
stroke
newpath
36972.4 29833.9 moveto
37047.4 29833.9 lineto
37122.4 29796.4 lineto
37159.9 29758.9 lineto
37197.4 29683.9 lineto
37234.8 29533.9 lineto
37234.8 29346.5 lineto
37197.4 29196.5 lineto
37159.9 29121.5 lineto
37122.4 29084 lineto
37047.4 29046.5 lineto
36972.4 29046.5 lineto
36897.4 29084 lineto
36859.9 29121.5 lineto
36822.4 29196.5 lineto
36784.9 29346.5 lineto
36784.9 29533.9 lineto
36822.4 29683.9 lineto
36859.9 29758.9 lineto
36897.4 29796.4 lineto
36972.4 29833.9 lineto
stroke
newpath
37497.3 29833.9 moveto
37984.8 29833.9 lineto
37722.3 29533.9 lineto
37834.8 29533.9 lineto
37909.8 29496.4 lineto
37947.3 29459 lineto
37984.8 29384 lineto
37984.8 29196.5 lineto
37947.3 29121.5 lineto
37909.8 29084 lineto
37834.8 29046.5 lineto
37609.8 29046.5 lineto
37534.8 29084 lineto
37497.3 29121.5 lineto
stroke
newpath
38359.7 29046.5 moveto
38509.7 29046.5 lineto
38584.7 29084 lineto
38622.2 29121.5 lineto
38697.2 29234 lineto
38734.7 29384 lineto
38734.7 29683.9 lineto
38697.2 29758.9 lineto
38659.7 29796.4 lineto
38584.7 29833.9 lineto
38434.7 29833.9 lineto
38359.7 29796.4 lineto
38322.2 29758.9 lineto
38284.7 29683.9 lineto
38284.7 29496.4 lineto
38322.2 29421.5 lineto
38359.7 29384 lineto
38434.7 29346.5 lineto
38584.7 29346.5 lineto
38659.7 29384 lineto
38697.2 29421.5 lineto
38734.7 29496.4 lineto
stroke
newpath
39409.6 29571.4 moveto
39409.6 29046.5 lineto
stroke
newpath
39222.1 29871.4 moveto
39034.6 29309 lineto
39522.1 29309 lineto
stroke
newpath
39784.5 29833.9 moveto
39784.5 29683.9 lineto
stroke
newpath
40084.5 29833.9 moveto
40084.5 29683.9 lineto
stroke
newpath
41246.8 28746.5 moveto
41209.4 28784 lineto
41134.4 28896.5 lineto
41096.9 28971.5 lineto
41059.4 29084 lineto
41021.9 29271.5 lineto
41021.9 29421.5 lineto
41059.4 29608.9 lineto
41096.9 29721.4 lineto
41134.4 29796.4 lineto
41209.4 29908.9 lineto
41246.8 29946.4 lineto
stroke
newpath
41959.3 29046.5 moveto
41509.3 29046.5 lineto
stroke
newpath
41734.3 29046.5 moveto
41734.3 29833.9 lineto
41659.3 29721.4 lineto
41584.3 29646.4 lineto
41509.3 29608.9 lineto
stroke
newpath
42634.2 29571.4 moveto
42634.2 29046.5 lineto
stroke
newpath
42446.7 29871.4 moveto
42259.2 29309 lineto
42746.7 29309 lineto
stroke
newpath
43196.6 29833.9 moveto
43271.6 29833.9 lineto
43346.6 29796.4 lineto
43384.1 29758.9 lineto
43421.6 29683.9 lineto
43459.1 29533.9 lineto
43459.1 29346.5 lineto
43421.6 29196.5 lineto
43384.1 29121.5 lineto
43346.6 29084 lineto
43271.6 29046.5 lineto
43196.6 29046.5 lineto
43121.6 29084 lineto
43084.1 29121.5 lineto
43046.6 29196.5 lineto
43009.1 29346.5 lineto
43009.1 29533.9 lineto
43046.6 29683.9 lineto
43084.1 29758.9 lineto
43121.6 29796.4 lineto
43196.6 29833.9 lineto
stroke
newpath
44396.5 29046.5 moveto
44396.5 29833.9 lineto
stroke
newpath
44733.9 29046.5 moveto
44733.9 29459 lineto
44696.4 29533.9 lineto
44621.4 29571.4 lineto
44508.9 29571.4 lineto
44433.9 29533.9 lineto
44396.5 29496.4 lineto
stroke
newpath
45221.3 29046.5 moveto
45146.4 29084 lineto
45108.9 29121.5 lineto
45071.4 29196.5 lineto
45071.4 29421.5 lineto
45108.9 29496.4 lineto
45146.4 29533.9 lineto
45221.3 29571.4 lineto
45333.8 29571.4 lineto
45408.8 29533.9 lineto
45446.3 29496.4 lineto
45483.8 29421.5 lineto
45483.8 29196.5 lineto
45446.3 29121.5 lineto
45408.8 29084 lineto
45333.8 29046.5 lineto
45221.3 29046.5 lineto
stroke
newpath
45933.8 29046.5 moveto
45858.8 29084 lineto
45821.3 29159 lineto
45821.3 29833.9 lineto
stroke
newpath
46533.7 29084 moveto
46458.7 29046.5 lineto
46308.7 29046.5 lineto
46233.7 29084 lineto
46196.2 29159 lineto
46196.2 29459 lineto
46233.7 29533.9 lineto
46308.7 29571.4 lineto
46458.7 29571.4 lineto
46533.7 29533.9 lineto
46571.2 29459 lineto
46571.2 29384 lineto
46196.2 29309 lineto
stroke
newpath
46871.1 29084 moveto
46946.1 29046.5 lineto
47096.1 29046.5 lineto
47171.1 29084 lineto
47208.6 29159 lineto
47208.6 29196.5 lineto
47171.1 29271.5 lineto
47096.1 29309 lineto
46983.6 29309 lineto
46908.6 29346.5 lineto
46871.1 29421.5 lineto
46871.1 29459 lineto
46908.6 29533.9 lineto
46983.6 29571.4 lineto
47096.1 29571.4 lineto
47171.1 29533.9 lineto
stroke
newpath
47471.1 28746.5 moveto
47508.6 28784 lineto
47583.6 28896.5 lineto
47621 28971.5 lineto
47658.5 29084 lineto
47696 29271.5 lineto
47696 29421.5 lineto
47658.5 29608.9 lineto
47621 29721.4 lineto
47583.6 29796.4 lineto
47508.6 29908.9 lineto
47471.1 29946.4 lineto
stroke
showpage
grestore
%%EOF
