PCBNEW-LibModule-V1  2022-04-04 00:39:21
# encoding utf-8
Units mm
$INDEX
SOD3716X125N
$EndINDEX
$MODULE SOD3716X125N
Po 0 0 0 15 624a3029 00000000 ~~
Li SOD3716X125N
Cd SOD-123
Kw Diode
Sc 0
At SMD
AR 
Op 0 0 0
T0 0 0 1.27 1.27 0 0.254 N V 21 N "D**"
T1 0 0 1.27 1.27 0 0.254 N I 21 N "SOD3716X125N"
DS -2.525 -1.65 2.525 -1.65 0.05 24
DS 2.525 -1.65 2.525 1.65 0.05 24
DS 2.525 1.65 -2.525 1.65 0.05 24
DS -2.525 1.65 -2.525 -1.65 0.05 24
DS -1.35 -0.8 1.35 -0.8 0.1 24
DS 1.35 -0.8 1.35 0.8 0.1 24
DS 1.35 0.8 -1.35 0.8 0.1 24
DS -1.35 0.8 -1.35 -0.8 0.1 24
DS -1.35 -0.175 -0.725 -0.8 0.1 24
DS -2.275 -0.8 1.35 -0.8 0.2 21
DS -1.35 0.8 1.35 0.8 0.2 21
$PAD
Po -1.65 0
Sh "1" R 0.75 1.25 0 0 900
At SMD N 00888000
Ne 0 ""
$EndPAD
$PAD
Po 1.65 0
Sh "2" R 0.75 1.25 0 0 900
At SMD N 00888000
Ne 0 ""
$EndPAD
$EndMODULE SOD3716X125N
$EndLIBRARY
