PCBNEW-LibModule-V1  2022-04-14 19:35:28
# encoding utf-8
Units mm
$INDEX
C10418
$EndINDEX
$MODULE C10418
Po 0 0 0 15 62586970 00000000 ~~
Li C10418
Cd SMD USB-1
Kw Connector
Sc 0
At STD
AR 
Op 0 0 0
T0 0.000 0.4 1.27 1.27 0 0.254 N V 21 N "J**"
T1 0.000 0.4 1.27 1.27 0 0.254 N I 21 N "C10418"
DS -4 -3 4 -3 0.2 24
DS 4 -3 4 2.74 0.2 24
DS 4 2.74 -4 2.74 0.2 24
DS -4 2.74 -4 -3 0.2 24
DS -5.945 -4 5.945 -4 0.1 24
DS 5.945 -4 5.945 4.8 0.1 24
DS 5.945 4.8 -5.945 4.8 0.1 24
DS -5.945 4.8 -5.945 -4 0.1 24
DS 2 3.4 2 3.4 0.1 21
DS 2 3.5 2 3.5 0.1 21
DS -4 1.4 -4 2.74 0.1 21
DS -4 2.74 -3.2 2.74 0.1 21
DS 4 1.4 4 2.74 0.1 21
DS 4 2.74 3.2 2.74 0.1 21
DS -4 -1.8 -4 -3 0.1 21
DS -4 -3 4 -3 0.1 21
DS 4 -3 4 -1.8 0.1 21
DA 2 3.45 2.000 3.4 -1800 0.1 21
DA 2 3.45 2.000 3.5 -1800 0.1 21
$PAD
Po 1.300 3
Sh "1" R 0.400 1.600 0 0 0
At SMD N 00888000
Ne 0 ""
$EndPAD
$PAD
Po 0.650 3
Sh "2" R 0.400 1.600 0 0 0
At SMD N 00888000
Ne 0 ""
$EndPAD
$PAD
Po 0.000 3
Sh "3" R 0.400 1.600 0 0 0
At SMD N 00888000
Ne 0 ""
$EndPAD
$PAD
Po -0.650 3
Sh "4" R 0.400 1.600 0 0 0
At SMD N 00888000
Ne 0 ""
$EndPAD
$PAD
Po -1.300 3
Sh "5" R 0.400 1.600 0 0 0
At SMD N 00888000
Ne 0 ""
$EndPAD
$PAD
Po -3.625 -0.2
Sh "6" C 2.640 2.640 0 0 900
Dr 1.76 0 0
At STD N 00E0FFFF
Ne 0 ""
$EndPAD
$PAD
Po 3.625 -0.2
Sh "7" C 2.640 2.640 0 0 900
Dr 1.76 0 0
At STD N 00E0FFFF
Ne 0 ""
$EndPAD
$PAD
Po -2.425 2.48
Sh "8" C 1.200 1.200 0 0 900
Dr 0.7 0 0
At STD N 00E0FFFF
Ne 0 ""
$EndPAD
$PAD
Po 2.425 2.48
Sh "9" C 1.200 1.200 0 0 900
Dr 0.7 0 0
At STD N 00E0FFFF
Ne 0 ""
$EndPAD
$EndMODULE C10418
$EndLIBRARY
